%YAML 1.1
%TAG !u! tag:unity3d.com,2011:
--- !u!1 &4338521157237412050
GameObject:
  m_ObjectHideFlags: 0
  m_CorrespondingSourceObject: {fileID: 0}
  m_PrefabInstance: {fileID: 0}
  m_PrefabAsset: {fileID: 0}
  serializedVersion: 6
  m_Component:
  - component: {fileID: 2635169369483014693}
  - component: {fileID: 9192959864333224682}
  m_Layer: 0
  m_Name: Image
  m_TagString: Untagged
  m_Icon: {fileID: 0}
  m_NavMeshLayer: 0
  m_StaticEditorFlags: 0
  m_IsActive: 1
--- !u!4 &2635169369483014693
Transform:
  m_ObjectHideFlags: 0
  m_CorrespondingSourceObject: {fileID: 0}
  m_PrefabInstance: {fileID: 0}
  m_PrefabAsset: {fileID: 0}
  m_GameObject: {fileID: 4338521157237412050}
  m_LocalRotation: {x: 0, y: 0, z: 0, w: 1}
  m_LocalPosition: {x: 0.13, y: 0.289, z: 0}
  m_LocalScale: {x: 1, y: 1, z: 1}
  m_ConstrainProportionsScale: 0
  m_Children: []
  m_Father: {fileID: 4633428476741191233}
  m_RootOrder: 0
  m_LocalEulerAnglesHint: {x: 0, y: 0, z: 0}
--- !u!212 &9192959864333224682
SpriteRenderer:
  m_ObjectHideFlags: 0
  m_CorrespondingSourceObject: {fileID: 0}
  m_PrefabInstance: {fileID: 0}
  m_PrefabAsset: {fileID: 0}
  m_GameObject: {fileID: 4338521157237412050}
  m_Enabled: 1
  m_CastShadows: 0
  m_ReceiveShadows: 0
  m_DynamicOccludee: 1
  m_StaticShadowCaster: 0
  m_MotionVectors: 1
  m_LightProbeUsage: 1
  m_ReflectionProbeUsage: 1
  m_RayTracingMode: 0
  m_RayTraceProcedural: 0
  m_RenderingLayerMask: 1
  m_RendererPriority: 0
  m_Materials:
  - {fileID: 10754, guid: 0000000000000000f000000000000000, type: 0}
  m_StaticBatchInfo:
    firstSubMesh: 0
    subMeshCount: 0
  m_StaticBatchRoot: {fileID: 0}
  m_ProbeAnchor: {fileID: 0}
  m_LightProbeVolumeOverride: {fileID: 0}
  m_ScaleInLightmap: 1
  m_ReceiveGI: 1
  m_PreserveUVs: 0
  m_IgnoreNormalsForChartDetection: 0
  m_ImportantGI: 0
  m_StitchLightmapSeams: 0
  m_SelectedEditorRenderState: 0
  m_MinimumChartSize: 4
  m_AutoUVMaxDistance: 0.5
  m_AutoUVMaxAngle: 89
  m_LightmapParameters: {fileID: 0}
  m_SortingLayerID: -1459822339
  m_SortingLayer: 0
  m_SortingOrder: 0
  m_Sprite: {fileID: 144892180, guid: fc93f7f8866313843bf327787b4ae38c, type: 3}
  m_Color: {r: 1, g: 1, b: 1, a: 1}
  m_FlipX: 0
  m_FlipY: 0
  m_DrawMode: 0
  m_Size: {x: 4, y: 3}
  m_AdaptiveModeThreshold: 0.5
  m_SpriteTileMode: 0
  m_WasSpriteAssigned: 1
  m_MaskInteraction: 0
  m_SpriteSortPoint: 0
--- !u!1 &5408623020364848161
GameObject:
  m_ObjectHideFlags: 0
  m_CorrespondingSourceObject: {fileID: 0}
  m_PrefabInstance: {fileID: 0}
  m_PrefabAsset: {fileID: 0}
  serializedVersion: 6
  m_Component:
  - component: {fileID: 4633428476741191233}
  - component: {fileID: 5932653721108735397}
  - component: {fileID: 7890350577874217719}
  - component: {fileID: 8986541160562605281}
  - component: {fileID: 2764597365262093287}
  - component: {fileID: 2202206747925921362}
  - component: {fileID: 5661908681285360014}
  m_Layer: 10
  m_Name: '[NENEMY] BOAR'
  m_TagString: Untagged
  m_Icon: {fileID: 0}
  m_NavMeshLayer: 0
  m_StaticEditorFlags: 0
  m_IsActive: 1
--- !u!4 &4633428476741191233
Transform:
  m_ObjectHideFlags: 0
  m_CorrespondingSourceObject: {fileID: 0}
  m_PrefabInstance: {fileID: 0}
  m_PrefabAsset: {fileID: 0}
  m_GameObject: {fileID: 5408623020364848161}
  m_LocalRotation: {x: 0, y: -1, z: 0, w: 0}
  m_LocalPosition: {x: 2.74, y: 1.25, z: 2.1484375}
  m_LocalScale: {x: 1, y: 1, z: 1}
  m_ConstrainProportionsScale: 0
  m_Children:
  - {fileID: 2635169369483014693}
  m_Father: {fileID: 0}
  m_RootOrder: 0
  m_LocalEulerAnglesHint: {x: 0, y: -180, z: 0}
--- !u!61 &5932653721108735397
BoxCollider2D:
  m_ObjectHideFlags: 0
  m_CorrespondingSourceObject: {fileID: 0}
  m_PrefabInstance: {fileID: 0}
  m_PrefabAsset: {fileID: 0}
  m_GameObject: {fileID: 5408623020364848161}
  m_Enabled: 1
  m_Density: 1
  m_Material: {fileID: 0}
  m_IsTrigger: 1
  m_UsedByEffector: 0
  m_UsedByComposite: 0
  m_Offset: {x: 0, y: 0.09111476}
  m_SpriteTilingProperty:
    border: {x: 0, y: 0, z: 0, w: 0}
    pivot: {x: 0, y: 0}
    oldSize: {x: 0, y: 0}
    newSize: {x: 0, y: 0}
    adaptiveTilingThreshold: 0
    drawMode: 0
    adaptiveTiling: 0
  m_AutoTiling: 0
  serializedVersion: 2
  m_Size: {x: 0.88952947, y: 0.6486652}
  m_EdgeRadius: 0
--- !u!114 &7890350577874217719
MonoBehaviour:
  m_ObjectHideFlags: 0
  m_CorrespondingSourceObject: {fileID: 0}
  m_PrefabInstance: {fileID: 0}
  m_PrefabAsset: {fileID: 0}
  m_GameObject: {fileID: 5408623020364848161}
  m_Enabled: 1
  m_EditorHideFlags: 0
  m_Script: {fileID: 11500000, guid: 7ce9489c9799aa24f898217126b045b4, type: 3}
  m_Name: 
  m_EditorClassIdentifier: 
  collisionMask:
    serializedVersion: 2
    m_Bits: 512
  collisionMaskHorizontal:
    serializedVersion: 2
    m_Bits: 0
  useSperateHorizontal: 0
  collisionMasHorizontal:
    serializedVersion: 2
    m_Bits: 0
  horizontalCollide: 1
  horizontalRayCount: 4
  verticalRayCount: 4
  horizontalRaySpacing: 0
  verticalRaySpacing: 0
  boxcollider: {fileID: 0}
  canJumpUp: 1
  canJumpDown: 1
  forceCollideWithThroughPlatform: 0
  inverseGravity: 0
  playerInput: {x: 0, y: 0}
  HandlePhysic: 1
--- !u!95 &8986541160562605281
Animator:
  serializedVersion: 5
  m_ObjectHideFlags: 0
  m_CorrespondingSourceObject: {fileID: 0}
  m_PrefabInstance: {fileID: 0}
  m_PrefabAsset: {fileID: 0}
  m_GameObject: {fileID: 5408623020364848161}
  m_Enabled: 1
  m_Avatar: {fileID: 0}
  m_Controller: {fileID: 22100000, guid: 33a7f4a98807a3343b55ff88cbacbf95, type: 2}
  m_CullingMode: 0
  m_UpdateMode: 0
  m_ApplyRootMotion: 0
  m_LinearVelocityBlending: 0
  m_StabilizeFeet: 0
  m_WarningMessage: 
  m_HasTransformHierarchy: 1
  m_AllowConstantClipSamplingOptimization: 1
  m_KeepAnimatorStateOnDisable: 0
  m_WriteDefaultValuesOnDisable: 0
--- !u!114 &2764597365262093287
MonoBehaviour:
  m_ObjectHideFlags: 0
  m_CorrespondingSourceObject: {fileID: 0}
  m_PrefabInstance: {fileID: 0}
  m_PrefabAsset: {fileID: 0}
  m_GameObject: {fileID: 5408623020364848161}
  m_Enabled: 1
  m_EditorHideFlags: 0
  m_Script: {fileID: 11500000, guid: b4a2e12b8a1c6fb4cb8a8cfd7be737ed, type: 3}
  m_Name: 
  m_EditorClassIdentifier: 
  checkTargetType: 0
  targetLayer:
    serializedVersion: 2
    m_Bits: 0
  checkPoint: {fileID: 4633428476741191233}
  detectDistance: 5
  width: 5
  numberLineCheck: 5
  radius: 3
  circleOffset: {x: 0, y: 0}
  size: {x: 5, y: 2}
  boxOffset: {x: 0, y: 0}
--- !u!114 &2202206747925921362
MonoBehaviour:
  m_ObjectHideFlags: 0
  m_CorrespondingSourceObject: {fileID: 0}
  m_PrefabInstance: {fileID: 0}
  m_PrefabAsset: {fileID: 0}
  m_GameObject: {fileID: 5408623020364848161}
  m_Enabled: 1
  m_EditorHideFlags: 0
  m_Script: {fileID: 11500000, guid: c199d8c0d68a5d34497aed3bed698ba6, type: 3}
  m_Name: 
  m_EditorClassIdentifier: 
  information: Fill some information of this character
  startAction: 0
  startBehavior: 0
  attackType: 5
  detectPlayerAct: 0
  dismissDetectPlayerAct: 0
  hitBehavior: 1
  dieBehavior: 2
  enemyType: 0
  anim: {fileID: 8986541160562605281}
  health: 2
  gravity: 35
  walkSpeed: 1.5
  runSpeed: 3
  runSmokeFX: {fileID: 0}
  jumpShowUpForce: 10
  point: 100
  onlyMoveWhenGrounded: 0
  delayAttackWhenDetectPlayer: 0.5
  checkTarget: {fileID: 0}
  dismissPlayerDistance: 10
  dismissPlayerWhenStandSecond: 5
  countingStanding: 0
  warningIconDetectPlayer: {fileID: 0}
  chasingOffset: {x: 1.2, y: 1}
  rangeAttack: {fileID: 0}
  meleeAttack: {fileID: 0}
  bomberAttack: {fileID: 0}
  throwAttack: {fileID: 0}
  callMinion: {fileID: 0}
  rushIntoPlayerSpeed: 10
  waterLayer:
    serializedVersion: 2
    m_Bits: 0
  waterLimitUp: 0
  sockingTime: 0.5
  destroyTime: 1.5
  pointToGivePlayer: 100
  playerLayer:
    serializedVersion: 2
    m_Bits: 0
  canBeFallDown: 0
  dieFX: {fileID: 0}
  hitFX: {fileID: 0}
  deadForce: 3
  gravityDie: 10
  bloodPuddleFX: {fileID: 0}
  explosionFX: []
  randomHitPoint: {x: 0.2, y: 0.2}
  randomBloodPuddlePoint: {x: 0.5, y: 0.25}
  usePatrolPoint: 0
  waitingTurn: 0.5
  patrolLimitLeft: 5
  patrolLimitRight: 5
  enemyState: 0
  healthBarOffset: {x: 0, y: 1.5}
  canBeFreeze: 1
  timeFreeze: 5
  dieFrozenFX: {fileID: 0}
  canBeBurn: 1
  timeBurn: 2
  dieBurnFX: {fileID: 0}
  canBeShock: 1
  timeShocking: 2
  soundDetectPlayer: {fileID: 0}
  soundHit: {fileID: 0}
  soundDie: {fileID: 8300000, guid: 77d422bbc05bd9444b7f3d9514c8fd00, type: 3}
  soundRushToPlayerAttack: {fileID: 0}
  controller: {fileID: 0}
  ignorePlayerThroughEnemy: 0
  makeDamage: 1
  rateDamage: 0.2
  pushPlayer: {x: 15, y: 10}
  canBeKillOnHead: 1
  dealDamageToPlayer: 1
--- !u!114 &5661908681285360014
MonoBehaviour:
  m_ObjectHideFlags: 0
  m_CorrespondingSourceObject: {fileID: 0}
  m_PrefabInstance: {fileID: 0}
  m_PrefabAsset: {fileID: 0}
  m_GameObject: {fileID: 5408623020364848161}
  m_Enabled: 1
  m_EditorHideFlags: 0
  m_Script: {fileID: 11500000, guid: 98c6b769ce6a508429dd455c2767bdde, type: 3}
  m_Name: 
  m_EditorClassIdentifier: 
  isDestroyWhenHitPlayer: 0
  DestroyFx: {fileID: 0}
  DamageToPlayer: 1
  rateDamage: 0.2
  pushPlayer: {x: 0, y: 10}
  canBeHitByOther: 1
