%YAML 1.1
%TAG !u! tag:unity3d.com,2011:
--- !u!74 &7400000
AnimationClip:
  m_ObjectHideFlags: 0
  m_CorrespondingSourceObject: {fileID: 0}
  m_PrefabInstance: {fileID: 0}
  m_PrefabAsset: {fileID: 0}
  m_Name: Falling Attack A Skill
  serializedVersion: 6
  m_Legacy: 0
  m_Compressed: 0
  m_UseHighQualityCurve: 1
  m_RotationCurves: []
  m_CompressedRotationCurves: []
  m_EulerCurves: []
  m_PositionCurves: []
  m_ScaleCurves: []
  m_FloatCurves: []
  m_PPtrCurves:
  - curve:
    - time: 0
      value: {fileID: -1411547667, guid: 23f616220ca05194e8922c7f9e1aa7bc, type: 3}
    - time: 0.0625
      value: {fileID: -135309696, guid: 23f616220ca05194e8922c7f9e1aa7bc, type: 3}
    - time: 0.125
      value: {fileID: 1348420943, guid: 23f616220ca05194e8922c7f9e1aa7bc, type: 3}
    - time: 0.1875
      value: {fileID: 382841178, guid: 23f616220ca05194e8922c7f9e1aa7bc, type: 3}
    - time: 0.25
      value: {fileID: -767661892, guid: 23f616220ca05194e8922c7f9e1aa7bc, type: 3}
    - time: 0.3125
      value: {fileID: 40190790, guid: 23f616220ca05194e8922c7f9e1aa7bc, type: 3}
    - time: 0.375
      value: {fileID: -494807716, guid: 23f616220ca05194e8922c7f9e1aa7bc, type: 3}
    - time: 0.4375
      value: {fileID: -641589344, guid: 23f616220ca05194e8922c7f9e1aa7bc, type: 3}
    attribute: m_Sprite
    path: Image
    classID: 212
    script: {fileID: 0}
  m_SampleRate: 16
  m_WrapMode: 0
  m_Bounds:
    m_Center: {x: 0, y: 0, z: 0}
    m_Extent: {x: 0, y: 0, z: 0}
  m_ClipBindingConstant:
    genericBindings:
    - serializedVersion: 2
      path: 83635035
      attribute: 0
      script: {fileID: 0}
      typeID: 212
      customType: 23
      isPPtrCurve: 1
    pptrCurveMapping:
    - {fileID: -1411547667, guid: 23f616220ca05194e8922c7f9e1aa7bc, type: 3}
    - {fileID: -135309696, guid: 23f616220ca05194e8922c7f9e1aa7bc, type: 3}
    - {fileID: 1348420943, guid: 23f616220ca05194e8922c7f9e1aa7bc, type: 3}
    - {fileID: 382841178, guid: 23f616220ca05194e8922c7f9e1aa7bc, type: 3}
    - {fileID: -767661892, guid: 23f616220ca05194e8922c7f9e1aa7bc, type: 3}
    - {fileID: 40190790, guid: 23f616220ca05194e8922c7f9e1aa7bc, type: 3}
    - {fileID: -494807716, guid: 23f616220ca05194e8922c7f9e1aa7bc, type: 3}
    - {fileID: -641589344, guid: 23f616220ca05194e8922c7f9e1aa7bc, type: 3}
  m_AnimationClipSettings:
    serializedVersion: 2
    m_AdditiveReferencePoseClip: {fileID: 0}
    m_AdditiveReferencePoseTime: 0
    m_StartTime: 0
    m_StopTime: 0.5
    m_OrientationOffsetY: 0
    m_Level: 0
    m_CycleOffset: 0
    m_HasAdditiveReferencePose: 0
    m_LoopTime: 0
    m_LoopBlend: 0
    m_LoopBlendOrientation: 0
    m_LoopBlendPositionY: 0
    m_LoopBlendPositionXZ: 0
    m_KeepOriginalOrientation: 0
    m_KeepOriginalPositionY: 1
    m_KeepOriginalPositionXZ: 0
    m_HeightFromFeet: 0
    m_Mirror: 0
  m_EditorCurves: []
  m_EulerEditorCurves: []
  m_HasGenericRootTransform: 0
  m_HasMotionFloatCurves: 0
  m_Events: []
