%YAML 1.1
%TAG !u! tag:unity3d.com,2011:
--- !u!74 &7400000
AnimationClip:
  m_ObjectHideFlags: 0
  m_CorrespondingSourceObject: {fileID: 0}
  m_PrefabInstance: {fileID: 0}
  m_PrefabAsset: {fileID: 0}
  m_Name: Attack
  serializedVersion: 6
  m_Legacy: 0
  m_Compressed: 0
  m_UseHighQualityCurve: 1
  m_RotationCurves: []
  m_CompressedRotationCurves: []
  m_EulerCurves: []
  m_PositionCurves: []
  m_ScaleCurves: []
  m_FloatCurves: []
  m_PPtrCurves:
  - curve:
    - time: 0
      value: {fileID: 1158835155, guid: 5ec2a3449488c4b47a915608c33dff1d, type: 3}
    - time: 0.0625
      value: {fileID: -1161118672, guid: 5ec2a3449488c4b47a915608c33dff1d, type: 3}
    - time: 0.125
      value: {fileID: 2043491055, guid: 5ec2a3449488c4b47a915608c33dff1d, type: 3}
    - time: 0.1875
      value: {fileID: -1743316549, guid: 5ec2a3449488c4b47a915608c33dff1d, type: 3}
    - time: 0.25
      value: {fileID: 162824511, guid: 5ec2a3449488c4b47a915608c33dff1d, type: 3}
    - time: 0.3125
      value: {fileID: -1976740559, guid: 5ec2a3449488c4b47a915608c33dff1d, type: 3}
    - time: 0.375
      value: {fileID: 212159329, guid: 5ec2a3449488c4b47a915608c33dff1d, type: 3}
    - time: 0.4375
      value: {fileID: -731420393, guid: 5ec2a3449488c4b47a915608c33dff1d, type: 3}
    - time: 0.5
      value: {fileID: -729753347, guid: 5ec2a3449488c4b47a915608c33dff1d, type: 3}
    - time: 0.5625
      value: {fileID: 935085571, guid: 5ec2a3449488c4b47a915608c33dff1d, type: 3}
    attribute: m_Sprite
    path: Image
    classID: 212
    script: {fileID: 0}
  m_SampleRate: 16
  m_WrapMode: 0
  m_Bounds:
    m_Center: {x: 0, y: 0, z: 0}
    m_Extent: {x: 0, y: 0, z: 0}
  m_ClipBindingConstant:
    genericBindings:
    - serializedVersion: 2
      path: 83635035
      attribute: 0
      script: {fileID: 0}
      typeID: 212
      customType: 23
      isPPtrCurve: 1
    pptrCurveMapping:
    - {fileID: 1158835155, guid: 5ec2a3449488c4b47a915608c33dff1d, type: 3}
    - {fileID: -1161118672, guid: 5ec2a3449488c4b47a915608c33dff1d, type: 3}
    - {fileID: 2043491055, guid: 5ec2a3449488c4b47a915608c33dff1d, type: 3}
    - {fileID: -1743316549, guid: 5ec2a3449488c4b47a915608c33dff1d, type: 3}
    - {fileID: 162824511, guid: 5ec2a3449488c4b47a915608c33dff1d, type: 3}
    - {fileID: -1976740559, guid: 5ec2a3449488c4b47a915608c33dff1d, type: 3}
    - {fileID: 212159329, guid: 5ec2a3449488c4b47a915608c33dff1d, type: 3}
    - {fileID: -731420393, guid: 5ec2a3449488c4b47a915608c33dff1d, type: 3}
    - {fileID: -729753347, guid: 5ec2a3449488c4b47a915608c33dff1d, type: 3}
    - {fileID: 935085571, guid: 5ec2a3449488c4b47a915608c33dff1d, type: 3}
  m_AnimationClipSettings:
    serializedVersion: 2
    m_AdditiveReferencePoseClip: {fileID: 0}
    m_AdditiveReferencePoseTime: 0
    m_StartTime: 0
    m_StopTime: 0.625
    m_OrientationOffsetY: 0
    m_Level: 0
    m_CycleOffset: 0
    m_HasAdditiveReferencePose: 0
    m_LoopTime: 0
    m_LoopBlend: 0
    m_LoopBlendOrientation: 0
    m_LoopBlendPositionY: 0
    m_LoopBlendPositionXZ: 0
    m_KeepOriginalOrientation: 0
    m_KeepOriginalPositionY: 1
    m_KeepOriginalPositionXZ: 0
    m_HeightFromFeet: 0
    m_Mirror: 0
  m_EditorCurves: []
  m_EulerEditorCurves: []
  m_HasGenericRootTransform: 0
  m_HasMotionFloatCurves: 0
  m_Events:
  - time: 0.5625
    functionName: AnimMeleeAttack
    data: 
    objectReferenceParameter: {fileID: 0}
    floatParameter: 0
    intParameter: 0
    messageOptions: 0
