%YAML 1.1
%TAG !u! tag:unity3d.com,2011:
--- !u!74 &7400000
AnimationClip:
  m_ObjectHideFlags: 0
  m_CorrespondingSourceObject: {fileID: 0}
  m_PrefabInstance: {fileID: 0}
  m_PrefabAsset: {fileID: 0}
  m_Name: Attack
  serializedVersion: 6
  m_Legacy: 0
  m_Compressed: 0
  m_UseHighQualityCurve: 1
  m_RotationCurves: []
  m_CompressedRotationCurves: []
  m_EulerCurves: []
  m_PositionCurves: []
  m_ScaleCurves: []
  m_FloatCurves: []
  m_PPtrCurves:
  - curve:
    - time: 0
      value: {fileID: -617037496, guid: 0d62fa836bedfb941aaaab6491af1fc1, type: 3}
    - time: 0.083333336
      value: {fileID: 1491463294, guid: 0d62fa836bedfb941aaaab6491af1fc1, type: 3}
    - time: 0.125
      value: {fileID: 1906374239, guid: 0d62fa836bedfb941aaaab6491af1fc1, type: 3}
    - time: 0.20833333
      value: {fileID: 494400735, guid: 0d62fa836bedfb941aaaab6491af1fc1, type: 3}
    - time: 0.25
      value: {fileID: 930020651, guid: 0d62fa836bedfb941aaaab6491af1fc1, type: 3}
    - time: 0.33333334
      value: {fileID: -73380472, guid: 0d62fa836bedfb941aaaab6491af1fc1, type: 3}
    - time: 0.375
      value: {fileID: 996022728, guid: 0d62fa836bedfb941aaaab6491af1fc1, type: 3}
    - time: 0.45833334
      value: {fileID: 995082185, guid: 0d62fa836bedfb941aaaab6491af1fc1, type: 3}
    - time: 0.5
      value: {fileID: 884618304, guid: 0d62fa836bedfb941aaaab6491af1fc1, type: 3}
    - time: 0.5833333
      value: {fileID: -1815875803, guid: 0d62fa836bedfb941aaaab6491af1fc1, type: 3}
    attribute: m_Sprite
    path: Image
    classID: 212
    script: {fileID: 0}
  m_SampleRate: 24
  m_WrapMode: 0
  m_Bounds:
    m_Center: {x: 0, y: 0, z: 0}
    m_Extent: {x: 0, y: 0, z: 0}
  m_ClipBindingConstant:
    genericBindings:
    - serializedVersion: 2
      path: 83635035
      attribute: 0
      script: {fileID: 0}
      typeID: 212
      customType: 23
      isPPtrCurve: 1
    pptrCurveMapping:
    - {fileID: -617037496, guid: 0d62fa836bedfb941aaaab6491af1fc1, type: 3}
    - {fileID: 1491463294, guid: 0d62fa836bedfb941aaaab6491af1fc1, type: 3}
    - {fileID: 1906374239, guid: 0d62fa836bedfb941aaaab6491af1fc1, type: 3}
    - {fileID: 494400735, guid: 0d62fa836bedfb941aaaab6491af1fc1, type: 3}
    - {fileID: 930020651, guid: 0d62fa836bedfb941aaaab6491af1fc1, type: 3}
    - {fileID: -73380472, guid: 0d62fa836bedfb941aaaab6491af1fc1, type: 3}
    - {fileID: 996022728, guid: 0d62fa836bedfb941aaaab6491af1fc1, type: 3}
    - {fileID: 995082185, guid: 0d62fa836bedfb941aaaab6491af1fc1, type: 3}
    - {fileID: 884618304, guid: 0d62fa836bedfb941aaaab6491af1fc1, type: 3}
    - {fileID: -1815875803, guid: 0d62fa836bedfb941aaaab6491af1fc1, type: 3}
  m_AnimationClipSettings:
    serializedVersion: 2
    m_AdditiveReferencePoseClip: {fileID: 0}
    m_AdditiveReferencePoseTime: 0
    m_StartTime: 0
    m_StopTime: 0.625
    m_OrientationOffsetY: 0
    m_Level: 0
    m_CycleOffset: 0
    m_HasAdditiveReferencePose: 0
    m_LoopTime: 0
    m_LoopBlend: 0
    m_LoopBlendOrientation: 0
    m_LoopBlendPositionY: 0
    m_LoopBlendPositionXZ: 0
    m_KeepOriginalOrientation: 0
    m_KeepOriginalPositionY: 1
    m_KeepOriginalPositionXZ: 0
    m_HeightFromFeet: 0
    m_Mirror: 0
  m_EditorCurves: []
  m_EulerEditorCurves: []
  m_HasGenericRootTransform: 0
  m_HasMotionFloatCurves: 0
  m_Events:
  - time: 0.5833333
    functionName: AnimBoomerang
    data: 
    objectReferenceParameter: {fileID: 0}
    floatParameter: 0
    intParameter: 0
    messageOptions: 0
