%YAML 1.1
%TAG !u! tag:unity3d.com,2011:
--- !u!74 &7400000
AnimationClip:
  m_ObjectHideFlags: 0
  m_CorrespondingSourceObject: {fileID: 0}
  m_PrefabInstance: {fileID: 0}
  m_PrefabAsset: {fileID: 0}
  m_Name: Idle
  serializedVersion: 6
  m_Legacy: 0
  m_Compressed: 0
  m_UseHighQualityCurve: 1
  m_RotationCurves: []
  m_CompressedRotationCurves: []
  m_EulerCurves: []
  m_PositionCurves: []
  m_ScaleCurves: []
  m_FloatCurves: []
  m_PPtrCurves:
  - curve:
    - time: 0
      value: {fileID: 193169511, guid: 7fd3f6295376d4a4796925990e68566b, type: 3}
    - time: 0.1
      value: {fileID: 1332399105, guid: 7fd3f6295376d4a4796925990e68566b, type: 3}
    - time: 0.2
      value: {fileID: -2136266790, guid: 7fd3f6295376d4a4796925990e68566b, type: 3}
    - time: 0.3
      value: {fileID: 440171111, guid: 7fd3f6295376d4a4796925990e68566b, type: 3}
    - time: 0.4
      value: {fileID: -1029295416, guid: 7fd3f6295376d4a4796925990e68566b, type: 3}
    - time: 0.5
      value: {fileID: 329300885, guid: 7fd3f6295376d4a4796925990e68566b, type: 3}
    - time: 0.6
      value: {fileID: -299521506, guid: 7fd3f6295376d4a4796925990e68566b, type: 3}
    - time: 0.7
      value: {fileID: -1775076805, guid: 7fd3f6295376d4a4796925990e68566b, type: 3}
    - time: 0.8
      value: {fileID: -2052344977, guid: 7fd3f6295376d4a4796925990e68566b, type: 3}
    - time: 0.9
      value: {fileID: -564720938, guid: 7fd3f6295376d4a4796925990e68566b, type: 3}
    attribute: m_Sprite
    path: image
    classID: 212
    script: {fileID: 0}
  m_SampleRate: 20
  m_WrapMode: 0
  m_Bounds:
    m_Center: {x: 0, y: 0, z: 0}
    m_Extent: {x: 0, y: 0, z: 0}
  m_ClipBindingConstant:
    genericBindings:
    - serializedVersion: 2
      path: 3309110367
      attribute: 0
      script: {fileID: 0}
      typeID: 212
      customType: 23
      isPPtrCurve: 1
    pptrCurveMapping:
    - {fileID: 193169511, guid: 7fd3f6295376d4a4796925990e68566b, type: 3}
    - {fileID: 1332399105, guid: 7fd3f6295376d4a4796925990e68566b, type: 3}
    - {fileID: -2136266790, guid: 7fd3f6295376d4a4796925990e68566b, type: 3}
    - {fileID: 440171111, guid: 7fd3f6295376d4a4796925990e68566b, type: 3}
    - {fileID: -1029295416, guid: 7fd3f6295376d4a4796925990e68566b, type: 3}
    - {fileID: 329300885, guid: 7fd3f6295376d4a4796925990e68566b, type: 3}
    - {fileID: -299521506, guid: 7fd3f6295376d4a4796925990e68566b, type: 3}
    - {fileID: -1775076805, guid: 7fd3f6295376d4a4796925990e68566b, type: 3}
    - {fileID: -2052344977, guid: 7fd3f6295376d4a4796925990e68566b, type: 3}
    - {fileID: -564720938, guid: 7fd3f6295376d4a4796925990e68566b, type: 3}
  m_AnimationClipSettings:
    serializedVersion: 2
    m_AdditiveReferencePoseClip: {fileID: 0}
    m_AdditiveReferencePoseTime: 0
    m_StartTime: 0
    m_StopTime: 0.95
    m_OrientationOffsetY: 0
    m_Level: 0
    m_CycleOffset: 0
    m_HasAdditiveReferencePose: 0
    m_LoopTime: 0
    m_LoopBlend: 0
    m_LoopBlendOrientation: 0
    m_LoopBlendPositionY: 0
    m_LoopBlendPositionXZ: 0
    m_KeepOriginalOrientation: 0
    m_KeepOriginalPositionY: 1
    m_KeepOriginalPositionXZ: 0
    m_HeightFromFeet: 0
    m_Mirror: 0
  m_EditorCurves: []
  m_EulerEditorCurves: []
  m_HasGenericRootTransform: 0
  m_HasMotionFloatCurves: 0
  m_Events: []
