%YAML 1.1
%TAG !u! tag:unity3d.com,2011:
--- !u!221 &22100000
AnimatorOverrideController:
  m_ObjectHideFlags: 0
  m_CorrespondingSourceObject: {fileID: 0}
  m_PrefabInstance: {fileID: 0}
  m_PrefabAsset: {fileID: 0}
  m_Name: '[BOSS] Stone Monster'
  m_Controller: {fileID: 9100000, guid: 049357a1ee8e74a289cc18bed49ba463, type: 2}
  m_Clips:
  - m_OriginalClip: {fileID: 7400000, guid: fcbebf30e10a545a4b6624b3eb6fb7ae, type: 2}
    m_OverrideClip: {fileID: 7400000, guid: 9963bea5c4167ad4ebeeae1144a27415, type: 2}
  - m_OriginalClip: {fileID: 7400000, guid: ae276b762de9a4986a080d9d7d011c5c, type: 2}
    m_OverrideClip: {fileID: 7400000, guid: e48142d5045d6924aa1941a9530b1e5b, type: 2}
  - m_OriginalClip: {fileID: 7400000, guid: 103a328cea93645288a2d23f4c1213dd, type: 2}
    m_OverrideClip: {fileID: 7400000, guid: d7f968bed89dee846bd0ef79e920c608, type: 2}
  - m_OriginalClip: {fileID: 7400000, guid: 59dac633fdcae45a18f8f25eadc158b3, type: 2}
    m_OverrideClip: {fileID: 7400000, guid: 11b18e4dc1f96594f9cca021824cb796, type: 2}
  - m_OriginalClip: {fileID: 7400000, guid: f0e3527cc7aa64f44b6afac9d3ec1fc7, type: 2}
    m_OverrideClip: {fileID: 7400000, guid: 7be3f6bcb02dfa744a3960830a1098bb, type: 2}
  - m_OriginalClip: {fileID: 7400000, guid: 6e317d304e1149a4b982b4b6704e8091, type: 2}
    m_OverrideClip: {fileID: 7400000, guid: b79e0c39b813d644298f917f3e5e6c60, type: 2}
  - m_OriginalClip: {fileID: 7400000, guid: eaeb65302a4271246a198923c60a70ea, type: 2}
    m_OverrideClip: {fileID: 7400000, guid: d173224e6c69c5f448ad5b8ae5d21697, type: 2}
