%YAML 1.1
%TAG !u! tag:unity3d.com,2011:
--- !u!1 &5699413642881483399
GameObject:
  m_ObjectHideFlags: 0
  m_CorrespondingSourceObject: {fileID: 0}
  m_PrefabInstance: {fileID: 0}
  m_PrefabAsset: {fileID: 0}
  serializedVersion: 6
  m_Component:
  - component: {fileID: 1429554946008595881}
  - component: {fileID: 4269066851843853108}
  m_Layer: 0
  m_Name: Desert Village
  m_TagString: Untagged
  m_Icon: {fileID: 0}
  m_NavMeshLayer: 0
  m_StaticEditorFlags: 0
  m_IsActive: 1
--- !u!4 &1429554946008595881
Transform:
  m_ObjectHideFlags: 0
  m_CorrespondingSourceObject: {fileID: 0}
  m_PrefabInstance: {fileID: 0}
  m_PrefabAsset: {fileID: 0}
  m_GameObject: {fileID: 5699413642881483399}
  m_LocalRotation: {x: 0, y: 0, z: 0, w: 1}
  m_LocalPosition: {x: 0, y: 0, z: 0}
  m_LocalScale: {x: 1, y: 1, z: 1}
  m_ConstrainProportionsScale: 0
  m_Children:
  - {fileID: 4635612672556541951}
  m_Father: {fileID: 0}
  m_RootOrder: 0
  m_LocalEulerAnglesHint: {x: 0, y: 0, z: 0}
--- !u!156049354 &4269066851843853108
Grid:
  m_ObjectHideFlags: 0
  m_CorrespondingSourceObject: {fileID: 0}
  m_PrefabInstance: {fileID: 0}
  m_PrefabAsset: {fileID: 0}
  m_GameObject: {fileID: 5699413642881483399}
  m_Enabled: 1
  m_CellSize: {x: 0.64, y: 0.64, z: 0}
  m_CellGap: {x: 0, y: 0, z: 0}
  m_CellLayout: 0
  m_CellSwizzle: 0
--- !u!1 &5735924836149737104
GameObject:
  m_ObjectHideFlags: 0
  m_CorrespondingSourceObject: {fileID: 0}
  m_PrefabInstance: {fileID: 0}
  m_PrefabAsset: {fileID: 0}
  serializedVersion: 6
  m_Component:
  - component: {fileID: 4635612672556541951}
  - component: {fileID: 6324351438116556670}
  - component: {fileID: 8043150691044288291}
  m_Layer: 0
  m_Name: Layer1
  m_TagString: Untagged
  m_Icon: {fileID: 0}
  m_NavMeshLayer: 0
  m_StaticEditorFlags: 0
  m_IsActive: 1
--- !u!4 &4635612672556541951
Transform:
  m_ObjectHideFlags: 0
  m_CorrespondingSourceObject: {fileID: 0}
  m_PrefabInstance: {fileID: 0}
  m_PrefabAsset: {fileID: 0}
  m_GameObject: {fileID: 5735924836149737104}
  m_LocalRotation: {x: -0, y: -0, z: -0, w: 1}
  m_LocalPosition: {x: 0, y: 0, z: 0}
  m_LocalScale: {x: 1, y: 1, z: 1}
  m_ConstrainProportionsScale: 0
  m_Children: []
  m_Father: {fileID: 1429554946008595881}
  m_RootOrder: 0
  m_LocalEulerAnglesHint: {x: 0, y: 0, z: 0}
--- !u!1839735485 &6324351438116556670
Tilemap:
  m_ObjectHideFlags: 0
  m_CorrespondingSourceObject: {fileID: 0}
  m_PrefabInstance: {fileID: 0}
  m_PrefabAsset: {fileID: 0}
  m_GameObject: {fileID: 5735924836149737104}
  m_Enabled: 1
  m_Tiles:
  - first: {x: 2, y: -6, z: 0}
    second:
      serializedVersion: 2
      m_TileIndex: 55
      m_TileSpriteIndex: 55
      m_TileMatrixIndex: 0
      m_TileColorIndex: 0
      m_TileObjectToInstantiateIndex: 65535
      dummyAlignment: 0
      m_AllTileFlags: 1073741825
  - first: {x: 3, y: -6, z: 0}
    second:
      serializedVersion: 2
      m_TileIndex: 56
      m_TileSpriteIndex: 56
      m_TileMatrixIndex: 0
      m_TileColorIndex: 0
      m_TileObjectToInstantiateIndex: 65535
      dummyAlignment: 0
      m_AllTileFlags: 1073741825
  - first: {x: 2, y: -5, z: 0}
    second:
      serializedVersion: 2
      m_TileIndex: 48
      m_TileSpriteIndex: 48
      m_TileMatrixIndex: 0
      m_TileColorIndex: 0
      m_TileObjectToInstantiateIndex: 65535
      dummyAlignment: 0
      m_AllTileFlags: 1073741825
  - first: {x: 3, y: -5, z: 0}
    second:
      serializedVersion: 2
      m_TileIndex: 49
      m_TileSpriteIndex: 49
      m_TileMatrixIndex: 0
      m_TileColorIndex: 0
      m_TileObjectToInstantiateIndex: 65535
      dummyAlignment: 0
      m_AllTileFlags: 1073741825
  - first: {x: 4, y: -5, z: 0}
    second:
      serializedVersion: 2
      m_TileIndex: 50
      m_TileSpriteIndex: 50
      m_TileMatrixIndex: 0
      m_TileColorIndex: 0
      m_TileObjectToInstantiateIndex: 65535
      dummyAlignment: 0
      m_AllTileFlags: 1073741825
  - first: {x: 5, y: -5, z: 0}
    second:
      serializedVersion: 2
      m_TileIndex: 51
      m_TileSpriteIndex: 51
      m_TileMatrixIndex: 0
      m_TileColorIndex: 0
      m_TileObjectToInstantiateIndex: 65535
      dummyAlignment: 0
      m_AllTileFlags: 1073741825
  - first: {x: 6, y: -5, z: 0}
    second:
      serializedVersion: 2
      m_TileIndex: 52
      m_TileSpriteIndex: 52
      m_TileMatrixIndex: 0
      m_TileColorIndex: 0
      m_TileObjectToInstantiateIndex: 65535
      dummyAlignment: 0
      m_AllTileFlags: 1073741825
  - first: {x: 7, y: -5, z: 0}
    second:
      serializedVersion: 2
      m_TileIndex: 53
      m_TileSpriteIndex: 53
      m_TileMatrixIndex: 0
      m_TileColorIndex: 0
      m_TileObjectToInstantiateIndex: 65535
      dummyAlignment: 0
      m_AllTileFlags: 1073741825
  - first: {x: 8, y: -5, z: 0}
    second:
      serializedVersion: 2
      m_TileIndex: 54
      m_TileSpriteIndex: 54
      m_TileMatrixIndex: 0
      m_TileColorIndex: 0
      m_TileObjectToInstantiateIndex: 65535
      dummyAlignment: 0
      m_AllTileFlags: 1073741825
  - first: {x: 2, y: -4, z: 0}
    second:
      serializedVersion: 2
      m_TileIndex: 41
      m_TileSpriteIndex: 41
      m_TileMatrixIndex: 0
      m_TileColorIndex: 0
      m_TileObjectToInstantiateIndex: 65535
      dummyAlignment: 0
      m_AllTileFlags: 1073741825
  - first: {x: 3, y: -4, z: 0}
    second:
      serializedVersion: 2
      m_TileIndex: 42
      m_TileSpriteIndex: 42
      m_TileMatrixIndex: 0
      m_TileColorIndex: 0
      m_TileObjectToInstantiateIndex: 65535
      dummyAlignment: 0
      m_AllTileFlags: 1073741825
  - first: {x: 4, y: -4, z: 0}
    second:
      serializedVersion: 2
      m_TileIndex: 43
      m_TileSpriteIndex: 43
      m_TileMatrixIndex: 0
      m_TileColorIndex: 0
      m_TileObjectToInstantiateIndex: 65535
      dummyAlignment: 0
      m_AllTileFlags: 1073741825
  - first: {x: 5, y: -4, z: 0}
    second:
      serializedVersion: 2
      m_TileIndex: 44
      m_TileSpriteIndex: 44
      m_TileMatrixIndex: 0
      m_TileColorIndex: 0
      m_TileObjectToInstantiateIndex: 65535
      dummyAlignment: 0
      m_AllTileFlags: 1073741825
  - first: {x: 6, y: -4, z: 0}
    second:
      serializedVersion: 2
      m_TileIndex: 45
      m_TileSpriteIndex: 45
      m_TileMatrixIndex: 0
      m_TileColorIndex: 0
      m_TileObjectToInstantiateIndex: 65535
      dummyAlignment: 0
      m_AllTileFlags: 1073741825
  - first: {x: 7, y: -4, z: 0}
    second:
      serializedVersion: 2
      m_TileIndex: 46
      m_TileSpriteIndex: 46
      m_TileMatrixIndex: 0
      m_TileColorIndex: 0
      m_TileObjectToInstantiateIndex: 65535
      dummyAlignment: 0
      m_AllTileFlags: 1073741825
  - first: {x: 8, y: -4, z: 0}
    second:
      serializedVersion: 2
      m_TileIndex: 47
      m_TileSpriteIndex: 47
      m_TileMatrixIndex: 0
      m_TileColorIndex: 0
      m_TileObjectToInstantiateIndex: 65535
      dummyAlignment: 0
      m_AllTileFlags: 1073741825
  - first: {x: -3, y: -3, z: 0}
    second:
      serializedVersion: 2
      m_TileIndex: 12
      m_TileSpriteIndex: 12
      m_TileMatrixIndex: 0
      m_TileColorIndex: 0
      m_TileObjectToInstantiateIndex: 65535
      dummyAlignment: 0
      m_AllTileFlags: 1073741825
  - first: {x: 2, y: -3, z: 0}
    second:
      serializedVersion: 2
      m_TileIndex: 34
      m_TileSpriteIndex: 34
      m_TileMatrixIndex: 0
      m_TileColorIndex: 0
      m_TileObjectToInstantiateIndex: 65535
      dummyAlignment: 0
      m_AllTileFlags: 1073741825
  - first: {x: 3, y: -3, z: 0}
    second:
      serializedVersion: 2
      m_TileIndex: 35
      m_TileSpriteIndex: 35
      m_TileMatrixIndex: 0
      m_TileColorIndex: 0
      m_TileObjectToInstantiateIndex: 65535
      dummyAlignment: 0
      m_AllTileFlags: 1073741825
  - first: {x: 4, y: -3, z: 0}
    second:
      serializedVersion: 2
      m_TileIndex: 36
      m_TileSpriteIndex: 36
      m_TileMatrixIndex: 0
      m_TileColorIndex: 0
      m_TileObjectToInstantiateIndex: 65535
      dummyAlignment: 0
      m_AllTileFlags: 1073741825
  - first: {x: 5, y: -3, z: 0}
    second:
      serializedVersion: 2
      m_TileIndex: 37
      m_TileSpriteIndex: 37
      m_TileMatrixIndex: 0
      m_TileColorIndex: 0
      m_TileObjectToInstantiateIndex: 65535
      dummyAlignment: 0
      m_AllTileFlags: 1073741825
  - first: {x: 6, y: -3, z: 0}
    second:
      serializedVersion: 2
      m_TileIndex: 38
      m_TileSpriteIndex: 38
      m_TileMatrixIndex: 0
      m_TileColorIndex: 0
      m_TileObjectToInstantiateIndex: 65535
      dummyAlignment: 0
      m_AllTileFlags: 1073741825
  - first: {x: 7, y: -3, z: 0}
    second:
      serializedVersion: 2
      m_TileIndex: 39
      m_TileSpriteIndex: 39
      m_TileMatrixIndex: 0
      m_TileColorIndex: 0
      m_TileObjectToInstantiateIndex: 65535
      dummyAlignment: 0
      m_AllTileFlags: 1073741825
  - first: {x: 8, y: -3, z: 0}
    second:
      serializedVersion: 2
      m_TileIndex: 40
      m_TileSpriteIndex: 40
      m_TileMatrixIndex: 0
      m_TileColorIndex: 0
      m_TileObjectToInstantiateIndex: 65535
      dummyAlignment: 0
      m_AllTileFlags: 1073741825
  - first: {x: -3, y: -2, z: 0}
    second:
      serializedVersion: 2
      m_TileIndex: 8
      m_TileSpriteIndex: 8
      m_TileMatrixIndex: 0
      m_TileColorIndex: 0
      m_TileObjectToInstantiateIndex: 65535
      dummyAlignment: 0
      m_AllTileFlags: 1073741825
  - first: {x: -2, y: -2, z: 0}
    second:
      serializedVersion: 2
      m_TileIndex: 9
      m_TileSpriteIndex: 9
      m_TileMatrixIndex: 0
      m_TileColorIndex: 0
      m_TileObjectToInstantiateIndex: 65535
      dummyAlignment: 0
      m_AllTileFlags: 1073741825
  - first: {x: -1, y: -2, z: 0}
    second:
      serializedVersion: 2
      m_TileIndex: 10
      m_TileSpriteIndex: 10
      m_TileMatrixIndex: 0
      m_TileColorIndex: 0
      m_TileObjectToInstantiateIndex: 65535
      dummyAlignment: 0
      m_AllTileFlags: 1073741825
  - first: {x: 0, y: -2, z: 0}
    second:
      serializedVersion: 2
      m_TileIndex: 11
      m_TileSpriteIndex: 11
      m_TileMatrixIndex: 0
      m_TileColorIndex: 0
      m_TileObjectToInstantiateIndex: 65535
      dummyAlignment: 0
      m_AllTileFlags: 1073741825
  - first: {x: 2, y: -2, z: 0}
    second:
      serializedVersion: 2
      m_TileIndex: 27
      m_TileSpriteIndex: 27
      m_TileMatrixIndex: 0
      m_TileColorIndex: 0
      m_TileObjectToInstantiateIndex: 65535
      dummyAlignment: 0
      m_AllTileFlags: 1073741825
  - first: {x: 3, y: -2, z: 0}
    second:
      serializedVersion: 2
      m_TileIndex: 28
      m_TileSpriteIndex: 28
      m_TileMatrixIndex: 0
      m_TileColorIndex: 0
      m_TileObjectToInstantiateIndex: 65535
      dummyAlignment: 0
      m_AllTileFlags: 1073741825
  - first: {x: 4, y: -2, z: 0}
    second:
      serializedVersion: 2
      m_TileIndex: 29
      m_TileSpriteIndex: 29
      m_TileMatrixIndex: 0
      m_TileColorIndex: 0
      m_TileObjectToInstantiateIndex: 65535
      dummyAlignment: 0
      m_AllTileFlags: 1073741825
  - first: {x: 5, y: -2, z: 0}
    second:
      serializedVersion: 2
      m_TileIndex: 30
      m_TileSpriteIndex: 30
      m_TileMatrixIndex: 0
      m_TileColorIndex: 0
      m_TileObjectToInstantiateIndex: 65535
      dummyAlignment: 0
      m_AllTileFlags: 1073741825
  - first: {x: 6, y: -2, z: 0}
    second:
      serializedVersion: 2
      m_TileIndex: 31
      m_TileSpriteIndex: 31
      m_TileMatrixIndex: 0
      m_TileColorIndex: 0
      m_TileObjectToInstantiateIndex: 65535
      dummyAlignment: 0
      m_AllTileFlags: 1073741825
  - first: {x: 7, y: -2, z: 0}
    second:
      serializedVersion: 2
      m_TileIndex: 32
      m_TileSpriteIndex: 32
      m_TileMatrixIndex: 0
      m_TileColorIndex: 0
      m_TileObjectToInstantiateIndex: 65535
      dummyAlignment: 0
      m_AllTileFlags: 1073741825
  - first: {x: 8, y: -2, z: 0}
    second:
      serializedVersion: 2
      m_TileIndex: 33
      m_TileSpriteIndex: 33
      m_TileMatrixIndex: 0
      m_TileColorIndex: 0
      m_TileObjectToInstantiateIndex: 65535
      dummyAlignment: 0
      m_AllTileFlags: 1073741825
  - first: {x: -3, y: -1, z: 0}
    second:
      serializedVersion: 2
      m_TileIndex: 4
      m_TileSpriteIndex: 4
      m_TileMatrixIndex: 0
      m_TileColorIndex: 0
      m_TileObjectToInstantiateIndex: 65535
      dummyAlignment: 0
      m_AllTileFlags: 1073741825
  - first: {x: -2, y: -1, z: 0}
    second:
      serializedVersion: 2
      m_TileIndex: 5
      m_TileSpriteIndex: 5
      m_TileMatrixIndex: 0
      m_TileColorIndex: 0
      m_TileObjectToInstantiateIndex: 65535
      dummyAlignment: 0
      m_AllTileFlags: 1073741825
  - first: {x: -1, y: -1, z: 0}
    second:
      serializedVersion: 2
      m_TileIndex: 6
      m_TileSpriteIndex: 6
      m_TileMatrixIndex: 0
      m_TileColorIndex: 0
      m_TileObjectToInstantiateIndex: 65535
      dummyAlignment: 0
      m_AllTileFlags: 1073741825
  - first: {x: 0, y: -1, z: 0}
    second:
      serializedVersion: 2
      m_TileIndex: 7
      m_TileSpriteIndex: 7
      m_TileMatrixIndex: 0
      m_TileColorIndex: 0
      m_TileObjectToInstantiateIndex: 65535
      dummyAlignment: 0
      m_AllTileFlags: 1073741825
  - first: {x: 2, y: -1, z: 0}
    second:
      serializedVersion: 2
      m_TileIndex: 20
      m_TileSpriteIndex: 20
      m_TileMatrixIndex: 0
      m_TileColorIndex: 0
      m_TileObjectToInstantiateIndex: 65535
      dummyAlignment: 0
      m_AllTileFlags: 1073741825
  - first: {x: 3, y: -1, z: 0}
    second:
      serializedVersion: 2
      m_TileIndex: 21
      m_TileSpriteIndex: 21
      m_TileMatrixIndex: 0
      m_TileColorIndex: 0
      m_TileObjectToInstantiateIndex: 65535
      dummyAlignment: 0
      m_AllTileFlags: 1073741825
  - first: {x: 4, y: -1, z: 0}
    second:
      serializedVersion: 2
      m_TileIndex: 22
      m_TileSpriteIndex: 22
      m_TileMatrixIndex: 0
      m_TileColorIndex: 0
      m_TileObjectToInstantiateIndex: 65535
      dummyAlignment: 0
      m_AllTileFlags: 1073741825
  - first: {x: 5, y: -1, z: 0}
    second:
      serializedVersion: 2
      m_TileIndex: 23
      m_TileSpriteIndex: 23
      m_TileMatrixIndex: 0
      m_TileColorIndex: 0
      m_TileObjectToInstantiateIndex: 65535
      dummyAlignment: 0
      m_AllTileFlags: 1073741825
  - first: {x: 6, y: -1, z: 0}
    second:
      serializedVersion: 2
      m_TileIndex: 24
      m_TileSpriteIndex: 24
      m_TileMatrixIndex: 0
      m_TileColorIndex: 0
      m_TileObjectToInstantiateIndex: 65535
      dummyAlignment: 0
      m_AllTileFlags: 1073741825
  - first: {x: 7, y: -1, z: 0}
    second:
      serializedVersion: 2
      m_TileIndex: 25
      m_TileSpriteIndex: 25
      m_TileMatrixIndex: 0
      m_TileColorIndex: 0
      m_TileObjectToInstantiateIndex: 65535
      dummyAlignment: 0
      m_AllTileFlags: 1073741825
  - first: {x: 8, y: -1, z: 0}
    second:
      serializedVersion: 2
      m_TileIndex: 26
      m_TileSpriteIndex: 26
      m_TileMatrixIndex: 0
      m_TileColorIndex: 0
      m_TileObjectToInstantiateIndex: 65535
      dummyAlignment: 0
      m_AllTileFlags: 1073741825
  - first: {x: -3, y: 0, z: 0}
    second:
      serializedVersion: 2
      m_TileIndex: 0
      m_TileSpriteIndex: 0
      m_TileMatrixIndex: 0
      m_TileColorIndex: 0
      m_TileObjectToInstantiateIndex: 65535
      dummyAlignment: 0
      m_AllTileFlags: 1073741825
  - first: {x: -2, y: 0, z: 0}
    second:
      serializedVersion: 2
      m_TileIndex: 1
      m_TileSpriteIndex: 1
      m_TileMatrixIndex: 0
      m_TileColorIndex: 0
      m_TileObjectToInstantiateIndex: 65535
      dummyAlignment: 0
      m_AllTileFlags: 1073741825
  - first: {x: -1, y: 0, z: 0}
    second:
      serializedVersion: 2
      m_TileIndex: 2
      m_TileSpriteIndex: 2
      m_TileMatrixIndex: 0
      m_TileColorIndex: 0
      m_TileObjectToInstantiateIndex: 65535
      dummyAlignment: 0
      m_AllTileFlags: 1073741825
  - first: {x: 0, y: 0, z: 0}
    second:
      serializedVersion: 2
      m_TileIndex: 3
      m_TileSpriteIndex: 3
      m_TileMatrixIndex: 0
      m_TileColorIndex: 0
      m_TileObjectToInstantiateIndex: 65535
      dummyAlignment: 0
      m_AllTileFlags: 1073741825
  - first: {x: 2, y: 0, z: 0}
    second:
      serializedVersion: 2
      m_TileIndex: 13
      m_TileSpriteIndex: 13
      m_TileMatrixIndex: 0
      m_TileColorIndex: 0
      m_TileObjectToInstantiateIndex: 65535
      dummyAlignment: 0
      m_AllTileFlags: 1073741825
  - first: {x: 3, y: 0, z: 0}
    second:
      serializedVersion: 2
      m_TileIndex: 14
      m_TileSpriteIndex: 14
      m_TileMatrixIndex: 0
      m_TileColorIndex: 0
      m_TileObjectToInstantiateIndex: 65535
      dummyAlignment: 0
      m_AllTileFlags: 1073741825
  - first: {x: 4, y: 0, z: 0}
    second:
      serializedVersion: 2
      m_TileIndex: 15
      m_TileSpriteIndex: 15
      m_TileMatrixIndex: 0
      m_TileColorIndex: 0
      m_TileObjectToInstantiateIndex: 65535
      dummyAlignment: 0
      m_AllTileFlags: 1073741825
  - first: {x: 5, y: 0, z: 0}
    second:
      serializedVersion: 2
      m_TileIndex: 16
      m_TileSpriteIndex: 16
      m_TileMatrixIndex: 0
      m_TileColorIndex: 0
      m_TileObjectToInstantiateIndex: 65535
      dummyAlignment: 0
      m_AllTileFlags: 1073741825
  - first: {x: 6, y: 0, z: 0}
    second:
      serializedVersion: 2
      m_TileIndex: 17
      m_TileSpriteIndex: 17
      m_TileMatrixIndex: 0
      m_TileColorIndex: 0
      m_TileObjectToInstantiateIndex: 65535
      dummyAlignment: 0
      m_AllTileFlags: 1073741825
  - first: {x: 7, y: 0, z: 0}
    second:
      serializedVersion: 2
      m_TileIndex: 18
      m_TileSpriteIndex: 18
      m_TileMatrixIndex: 0
      m_TileColorIndex: 0
      m_TileObjectToInstantiateIndex: 65535
      dummyAlignment: 0
      m_AllTileFlags: 1073741825
  - first: {x: 8, y: 0, z: 0}
    second:
      serializedVersion: 2
      m_TileIndex: 19
      m_TileSpriteIndex: 19
      m_TileMatrixIndex: 0
      m_TileColorIndex: 0
      m_TileObjectToInstantiateIndex: 65535
      dummyAlignment: 0
      m_AllTileFlags: 1073741825
  m_AnimatedTiles: {}
  m_TileAssetArray:
  - m_RefCount: 1
    m_Data: {fileID: 11400000, guid: 44732317ce4b12a4f97749cbf56026b5, type: 2}
  - m_RefCount: 1
    m_Data: {fileID: 11400000, guid: 6d3b7978821f00349919b3ab412fe750, type: 2}
  - m_RefCount: 1
    m_Data: {fileID: 11400000, guid: 34717a7b9897e2241911eec0b70e95a8, type: 2}
  - m_RefCount: 1
    m_Data: {fileID: 11400000, guid: 550c25b91ccc35744b0c97042100fd7f, type: 2}
  - m_RefCount: 1
    m_Data: {fileID: 11400000, guid: 05e46f95afcfdaa4182a18bbe84cfc4b, type: 2}
  - m_RefCount: 1
    m_Data: {fileID: 11400000, guid: 749ce78cf98fa5941bc14843ed25163c, type: 2}
  - m_RefCount: 1
    m_Data: {fileID: 11400000, guid: 866d100612bc789469e2d16aeb0a5906, type: 2}
  - m_RefCount: 1
    m_Data: {fileID: 11400000, guid: 12a2e17ee26212d46b9c08e32c0053fd, type: 2}
  - m_RefCount: 1
    m_Data: {fileID: 11400000, guid: 33f6c4127a4c9bd4b8e94fa5cf705dff, type: 2}
  - m_RefCount: 1
    m_Data: {fileID: 11400000, guid: a63e7daa4b2ad844a8972c5606a2203d, type: 2}
  - m_RefCount: 1
    m_Data: {fileID: 11400000, guid: 13c6c7c9f91424842a836429e81df626, type: 2}
  - m_RefCount: 1
    m_Data: {fileID: 11400000, guid: 09f94ec6a73ff194fb0cf6f3cfd5054b, type: 2}
  - m_RefCount: 1
    m_Data: {fileID: 11400000, guid: 666c7e30247d8004eab91197c6e16703, type: 2}
  - m_RefCount: 1
    m_Data: {fileID: 11400000, guid: 6615976a301916e4e9e213a72848a6a2, type: 2}
  - m_RefCount: 1
    m_Data: {fileID: 11400000, guid: 8328c8bd85eb1a045b4b6052ffca2e10, type: 2}
  - m_RefCount: 1
    m_Data: {fileID: 11400000, guid: a53d6dd4feed0124fb76ae8ffc5bc455, type: 2}
  - m_RefCount: 1
    m_Data: {fileID: 11400000, guid: e11b8b1b7433f844f9fc297f218db27f, type: 2}
  - m_RefCount: 1
    m_Data: {fileID: 11400000, guid: c487a56d1bc79d04d8bfa9f1dcb90557, type: 2}
  - m_RefCount: 1
    m_Data: {fileID: 11400000, guid: 679b156fe3faa254c8bb0e2acc1d86d9, type: 2}
  - m_RefCount: 1
    m_Data: {fileID: 11400000, guid: d04a3eec448cbc343bc289c4daf0a2f2, type: 2}
  - m_RefCount: 1
    m_Data: {fileID: 11400000, guid: adb40039e3233374fa5a2facb6ae48a6, type: 2}
  - m_RefCount: 1
    m_Data: {fileID: 11400000, guid: 3c0fac7e9e47c7f4d89af48f9923b1cf, type: 2}
  - m_RefCount: 1
    m_Data: {fileID: 11400000, guid: 0f27460968a4a2b45b4d1d3651ff5a63, type: 2}
  - m_RefCount: 1
    m_Data: {fileID: 11400000, guid: 05bb0a1f916a02f4582ff175f7169722, type: 2}
  - m_RefCount: 1
    m_Data: {fileID: 11400000, guid: 310a00c2b9c3da143b97dce7f6836b7f, type: 2}
  - m_RefCount: 1
    m_Data: {fileID: 11400000, guid: ab980f207eee36443a13c682a567daf8, type: 2}
  - m_RefCount: 1
    m_Data: {fileID: 11400000, guid: ffdc899504368884cb5ce30db650db44, type: 2}
  - m_RefCount: 1
    m_Data: {fileID: 11400000, guid: fb90a527384f85d4abe5da4f5d120f58, type: 2}
  - m_RefCount: 1
    m_Data: {fileID: 11400000, guid: 5bed584e0a97074428f99edc288173b1, type: 2}
  - m_RefCount: 1
    m_Data: {fileID: 11400000, guid: dedc9eba4e2809948bcfd9eb772a975a, type: 2}
  - m_RefCount: 1
    m_Data: {fileID: 11400000, guid: 7e970fbbdae91574abbcc73c165371f6, type: 2}
  - m_RefCount: 1
    m_Data: {fileID: 11400000, guid: fb68002759b753a48978932368a67652, type: 2}
  - m_RefCount: 1
    m_Data: {fileID: 11400000, guid: ef2a6d65e6ad288479384a7c761b0c52, type: 2}
  - m_RefCount: 1
    m_Data: {fileID: 11400000, guid: 83f5c978e12b1ce4fa01f24d38d8055e, type: 2}
  - m_RefCount: 1
    m_Data: {fileID: 11400000, guid: c654471669453a648b9f310caac66903, type: 2}
  - m_RefCount: 1
    m_Data: {fileID: 11400000, guid: 30dcd950e9e0cc342b880c9beddc1f7b, type: 2}
  - m_RefCount: 1
    m_Data: {fileID: 11400000, guid: b500b685a4e09e4429c3059efee43119, type: 2}
  - m_RefCount: 1
    m_Data: {fileID: 11400000, guid: 54a0d26b931b5d94cb647fe6662a1bab, type: 2}
  - m_RefCount: 1
    m_Data: {fileID: 11400000, guid: 668e819a04ed1e347a0b7febc9f47122, type: 2}
  - m_RefCount: 1
    m_Data: {fileID: 11400000, guid: 862e589f34bc8154287e1481af628fe6, type: 2}
  - m_RefCount: 1
    m_Data: {fileID: 11400000, guid: 052e2cf0ad117cb4aa30aa21efbbeb9d, type: 2}
  - m_RefCount: 1
    m_Data: {fileID: 11400000, guid: 68d2138f329363140b199a8e833bbbf5, type: 2}
  - m_RefCount: 1
    m_Data: {fileID: 11400000, guid: c009c921c95facd498af5cbb4f373d26, type: 2}
  - m_RefCount: 1
    m_Data: {fileID: 11400000, guid: 8517369defd54ad45b6b967f583f9eda, type: 2}
  - m_RefCount: 1
    m_Data: {fileID: 11400000, guid: 9f53618b92e1a644b96f0910fdcd84a6, type: 2}
  - m_RefCount: 1
    m_Data: {fileID: 11400000, guid: eb690a67594cbe446886baed1fd81007, type: 2}
  - m_RefCount: 1
    m_Data: {fileID: 11400000, guid: 926af378d2d5c114b84a960a6c934963, type: 2}
  - m_RefCount: 1
    m_Data: {fileID: 11400000, guid: 8283db757d239ad48b5f2fceb26a397d, type: 2}
  - m_RefCount: 1
    m_Data: {fileID: 11400000, guid: 3d6357df059cfce49b76da276e8f673e, type: 2}
  - m_RefCount: 1
    m_Data: {fileID: 11400000, guid: 758b923df135334458b893ed3040afb8, type: 2}
  - m_RefCount: 1
    m_Data: {fileID: 11400000, guid: 87987f8aa9d4e5c4081892be4312c8ae, type: 2}
  - m_RefCount: 1
    m_Data: {fileID: 11400000, guid: 87601cb350a849646b8c8727812f1cad, type: 2}
  - m_RefCount: 1
    m_Data: {fileID: 11400000, guid: a3c5f8eb5ac06274eb321c72fb299cd7, type: 2}
  - m_RefCount: 1
    m_Data: {fileID: 11400000, guid: 6cedc576b13b18a44be545a11579dc80, type: 2}
  - m_RefCount: 1
    m_Data: {fileID: 11400000, guid: 45e4f49f3cce8224fa58231acde30809, type: 2}
  - m_RefCount: 1
    m_Data: {fileID: 11400000, guid: 22795a612c7a46141b14a45dc7a92bc6, type: 2}
  - m_RefCount: 1
    m_Data: {fileID: 11400000, guid: fc2fe9d06a9eca74480f0502427a41e0, type: 2}
  m_TileSpriteArray:
  - m_RefCount: 1
    m_Data: {fileID: 21300000, guid: 7e83eb5ca30a3a84db20280f75bac49f, type: 3}
  - m_RefCount: 1
    m_Data: {fileID: 21300000, guid: 22d0e03984451e144873b7e6d91a33be, type: 3}
  - m_RefCount: 1
    m_Data: {fileID: 21300000, guid: d4adfc6bbb4346649a92c4cfa798abb5, type: 3}
  - m_RefCount: 1
    m_Data: {fileID: 21300000, guid: aff063ba01b326243ad29ee3c06aeecc, type: 3}
  - m_RefCount: 1
    m_Data: {fileID: 21300000, guid: 80b19ff9c7c11244998131cc2ae8db35, type: 3}
  - m_RefCount: 1
    m_Data: {fileID: 21300000, guid: 161ca8bef5a3ac44c8c7d3f199d2bee8, type: 3}
  - m_RefCount: 1
    m_Data: {fileID: 21300000, guid: d5f6f140bceff4042a17b5396646680d, type: 3}
  - m_RefCount: 1
    m_Data: {fileID: 21300000, guid: 8a3fb23d22b3b85478d0aa863a238c02, type: 3}
  - m_RefCount: 1
    m_Data: {fileID: 21300000, guid: d0ca1ba3307c0e745850ed59d5312f4c, type: 3}
  - m_RefCount: 1
    m_Data: {fileID: 21300000, guid: c2a1aacc2a0acf14c805403c672aac5d, type: 3}
  - m_RefCount: 1
    m_Data: {fileID: 21300000, guid: 0e4ec8a4187730d4a8958ca21c1eb2c1, type: 3}
  - m_RefCount: 1
    m_Data: {fileID: 21300000, guid: fccb391139051d0498c7fa78763c1275, type: 3}
  - m_RefCount: 1
    m_Data: {fileID: 21300000, guid: 60851161e568767428ab7cda5a0267e8, type: 3}
  - m_RefCount: 1
    m_Data: {fileID: 21300000, guid: 7170ae86094804446b7e4c946b0bdc07, type: 3}
  - m_RefCount: 1
    m_Data: {fileID: 21300000, guid: 442e5b36e62dcc84ba9c9469c410c809, type: 3}
  - m_RefCount: 1
    m_Data: {fileID: 21300000, guid: 28c5a35c699808e42af156498cff5c71, type: 3}
  - m_RefCount: 1
    m_Data: {fileID: 21300000, guid: f9b06dc7bbbd0094b8e27f8431625939, type: 3}
  - m_RefCount: 1
    m_Data: {fileID: 21300000, guid: 281c2e93c052c074388bd8e801953a9e, type: 3}
  - m_RefCount: 1
    m_Data: {fileID: 21300000, guid: 84f5b5633bb33424ea9e8fa533a3cd69, type: 3}
  - m_RefCount: 1
    m_Data: {fileID: 21300000, guid: a85d6f10b09b1a14db9bc159c4f5af34, type: 3}
  - m_RefCount: 1
    m_Data: {fileID: 21300000, guid: afb54c971e615224e8865c22a2c5caa7, type: 3}
  - m_RefCount: 1
    m_Data: {fileID: 21300000, guid: 049fae3b16e5aae4fbdad45adab4acd5, type: 3}
  - m_RefCount: 1
    m_Data: {fileID: 21300000, guid: 36e33517b9fc90542b5322f832fcd3f2, type: 3}
  - m_RefCount: 1
    m_Data: {fileID: 21300000, guid: d9a2cf5a2c05c2441ad6d1460a415eca, type: 3}
  - m_RefCount: 1
    m_Data: {fileID: 21300000, guid: 58ebca1ddacd6fe46ae163de9c5bec76, type: 3}
  - m_RefCount: 1
    m_Data: {fileID: 21300000, guid: 3283bf92b8cac6245b6a61125a2847c2, type: 3}
  - m_RefCount: 1
    m_Data: {fileID: 21300000, guid: 7a1530b78eba53b4ebb1ae57d2c951c2, type: 3}
  - m_RefCount: 1
    m_Data: {fileID: 21300000, guid: 6cfdaf4262ac63542bf0f910fa3a72f9, type: 3}
  - m_RefCount: 1
    m_Data: {fileID: 21300000, guid: 0f1eed7ce92ea7446a3149cfadeac246, type: 3}
  - m_RefCount: 1
    m_Data: {fileID: 21300000, guid: d7b3c595ffde5b4428a82acb931707a3, type: 3}
  - m_RefCount: 1
    m_Data: {fileID: 21300000, guid: 53bd0a39aa54de6429fab77025e26346, type: 3}
  - m_RefCount: 1
    m_Data: {fileID: 21300000, guid: 5d3e7d3a8a050e64280d0c6cc1fa352c, type: 3}
  - m_RefCount: 1
    m_Data: {fileID: 21300000, guid: 0f4a9b962e484ee4db83a6124615b4c4, type: 3}
  - m_RefCount: 1
    m_Data: {fileID: 21300000, guid: eb128cc9f3a5d9b4a82312dd69b8f8c9, type: 3}
  - m_RefCount: 1
    m_Data: {fileID: 21300000, guid: ec1bcfe02f2cd4b41825598ed780fc02, type: 3}
  - m_RefCount: 1
    m_Data: {fileID: 21300000, guid: 8935790e046faf244b804ede3b8c35df, type: 3}
  - m_RefCount: 1
    m_Data: {fileID: 21300000, guid: a7a5b41d1e74d27439cbbb2cf421da62, type: 3}
  - m_RefCount: 1
    m_Data: {fileID: 21300000, guid: a1393e9edbafe834698a08b9f62e5960, type: 3}
  - m_RefCount: 1
    m_Data: {fileID: 21300000, guid: 8f1cb0957a0731d4dae52e58ccc6116a, type: 3}
  - m_RefCount: 1
    m_Data: {fileID: 21300000, guid: 861f7e8cbf8c01b4eb04a5e3188488f2, type: 3}
  - m_RefCount: 1
    m_Data: {fileID: 21300000, guid: f4ff0e249d0a25941a32c174529be666, type: 3}
  - m_RefCount: 1
    m_Data: {fileID: 21300000, guid: e03ddd730aece4f46b9a30eb58e7f075, type: 3}
  - m_RefCount: 1
    m_Data: {fileID: 21300000, guid: 6c89c29b999ebf84e825fc5b94683068, type: 3}
  - m_RefCount: 1
    m_Data: {fileID: 21300000, guid: d4019a99b83e74d48893cc7d2536ca20, type: 3}
  - m_RefCount: 1
    m_Data: {fileID: 21300000, guid: dfa0081afa34d894fae796461a170ec0, type: 3}
  - m_RefCount: 1
    m_Data: {fileID: 21300000, guid: 3babd6e9cdf179a40a5c81dcba9fd34e, type: 3}
  - m_RefCount: 1
    m_Data: {fileID: 21300000, guid: 48920f1312b75ad44a0c1340f0ea42db, type: 3}
  - m_RefCount: 1
    m_Data: {fileID: 21300000, guid: 2055b375f76e8ca448d7f349110445af, type: 3}
  - m_RefCount: 1
    m_Data: {fileID: 21300000, guid: 09199ba154f31364389fca8ac73961a2, type: 3}
  - m_RefCount: 1
    m_Data: {fileID: 21300000, guid: 9e8d2502c0b64b54ca11bfe7276e8d5e, type: 3}
  - m_RefCount: 1
    m_Data: {fileID: 21300000, guid: 2f11a838ebcf2894e97d09e42a55fc5c, type: 3}
  - m_RefCount: 1
    m_Data: {fileID: 21300000, guid: 381ddb9f005d3244c94ac67bf904548f, type: 3}
  - m_RefCount: 1
    m_Data: {fileID: 21300000, guid: bfffd880fda4ad34b8e5fa6fa8fb98b4, type: 3}
  - m_RefCount: 1
    m_Data: {fileID: 21300000, guid: cf31477ba4f6f2544ad221fe8a18d78c, type: 3}
  - m_RefCount: 1
    m_Data: {fileID: 21300000, guid: d6b46c15b174adf43889d26f1a080f54, type: 3}
  - m_RefCount: 1
    m_Data: {fileID: 21300000, guid: 712e1bde9f86f5b4fa50f42c25429807, type: 3}
  - m_RefCount: 1
    m_Data: {fileID: 21300000, guid: 191156bc4b337db44959223f310ba1d2, type: 3}
  m_TileMatrixArray:
  - m_RefCount: 57
    m_Data:
      e00: 1
      e01: 0
      e02: 0
      e03: 0
      e10: 0
      e11: 1
      e12: 0
      e13: 0
      e20: 0
      e21: 0
      e22: 1
      e23: 0
      e30: 0
      e31: 0
      e32: 0
      e33: 1
  m_TileColorArray:
  - m_RefCount: 57
    m_Data: {r: 1, g: 1, b: 1, a: 1}
  m_TileObjectToInstantiateArray: []
  m_AnimationFrameRate: 1
  m_Color: {r: 1, g: 1, b: 1, a: 1}
  m_Origin: {x: -3, y: -6, z: 0}
  m_Size: {x: 12, y: 7, z: 1}
  m_TileAnchor: {x: 0.5, y: 0.5, z: 0}
  m_TileOrientation: 0
  m_TileOrientationMatrix:
    e00: 1
    e01: 0
    e02: 0
    e03: 0
    e10: 0
    e11: 1
    e12: 0
    e13: 0
    e20: 0
    e21: 0
    e22: 1
    e23: 0
    e30: 0
    e31: 0
    e32: 0
    e33: 1
--- !u!483693784 &8043150691044288291
TilemapRenderer:
  m_ObjectHideFlags: 0
  m_CorrespondingSourceObject: {fileID: 0}
  m_PrefabInstance: {fileID: 0}
  m_PrefabAsset: {fileID: 0}
  m_GameObject: {fileID: 5735924836149737104}
  m_Enabled: 1
  m_CastShadows: 0
  m_ReceiveShadows: 0
  m_DynamicOccludee: 0
  m_StaticShadowCaster: 0
  m_MotionVectors: 1
  m_LightProbeUsage: 0
  m_ReflectionProbeUsage: 0
  m_RayTracingMode: 0
  m_RayTraceProcedural: 0
  m_RenderingLayerMask: 1
  m_RendererPriority: 0
  m_Materials:
  - {fileID: 10754, guid: 0000000000000000f000000000000000, type: 0}
  m_StaticBatchInfo:
    firstSubMesh: 0
    subMeshCount: 0
  m_StaticBatchRoot: {fileID: 0}
  m_ProbeAnchor: {fileID: 0}
  m_LightProbeVolumeOverride: {fileID: 0}
  m_ScaleInLightmap: 1
  m_ReceiveGI: 1
  m_PreserveUVs: 0
  m_IgnoreNormalsForChartDetection: 0
  m_ImportantGI: 0
  m_StitchLightmapSeams: 1
  m_SelectedEditorRenderState: 0
  m_MinimumChartSize: 4
  m_AutoUVMaxDistance: 0.5
  m_AutoUVMaxAngle: 89
  m_LightmapParameters: {fileID: 0}
  m_SortingLayerID: 0
  m_SortingLayer: 0
  m_SortingOrder: 0
  m_ChunkSize: {x: 32, y: 32, z: 32}
  m_ChunkCullingBounds: {x: 0, y: 0, z: 0}
  m_MaxChunkCount: 16
  m_MaxFrameAge: 16
  m_SortOrder: 0
  m_Mode: 0
  m_DetectChunkCullingBounds: 0
  m_MaskInteraction: 0
--- !u!114 &4777600469704558275
MonoBehaviour:
  m_ObjectHideFlags: 0
  m_CorrespondingSourceObject: {fileID: 0}
  m_PrefabInstance: {fileID: 0}
  m_PrefabAsset: {fileID: 0}
  m_GameObject: {fileID: 0}
  m_Enabled: 1
  m_EditorHideFlags: 0
  m_Script: {fileID: 12395, guid: 0000000000000000e000000000000000, type: 0}
  m_Name: Palette Settings
  m_EditorClassIdentifier: 
  cellSizing: 0
  m_TransparencySortMode: 0
  m_TransparencySortAxis: {x: 0, y: 0, z: 1}
