%YAML 1.1
%TAG !u! tag:unity3d.com,2011:
--- !u!221 &22100000
AnimatorOverrideController:
  m_ObjectHideFlags: 0
  m_CorrespondingSourceObject: {fileID: 0}
  m_PrefabInstance: {fileID: 0}
  m_PrefabAsset: {fileID: 0}
  m_Name: '[BOSS] Stone Monster'
  m_Controller: {fileID: 9100000, guid: 049357a1ee8e74a289cc18bed49ba463, type: 2}
  m_Clips:
  - m_OriginalClip: {fileID: 7400000, guid: fcbebf30e10a545a4b6624b3eb6fb7ae, type: 2}
    m_OverrideClip: {fileID: 7400000, guid: 7a1381c9603199d4c97f5312dc5f4be5, type: 2}
  - m_OriginalClip: {fileID: 7400000, guid: ae276b762de9a4986a080d9d7d011c5c, type: 2}
    m_OverrideClip: {fileID: 7400000, guid: 5f387b51bb4ceca409b25a21e627385d, type: 2}
  - m_OriginalClip: {fileID: 7400000, guid: 103a328cea93645288a2d23f4c1213dd, type: 2}
    m_OverrideClip: {fileID: 7400000, guid: 542fb791aae747a4080b11309ce04310, type: 2}
  - m_OriginalClip: {fileID: 7400000, guid: 59dac633fdcae45a18f8f25eadc158b3, type: 2}
    m_OverrideClip: {fileID: 7400000, guid: f2a4b85bad259ae41a5dd6c05d5e6ea5, type: 2}
  - m_OriginalClip: {fileID: 7400000, guid: f0e3527cc7aa64f44b6afac9d3ec1fc7, type: 2}
    m_OverrideClip: {fileID: 7400000, guid: cc4ab5129c0fc804b9cd9ffd5554e69f, type: 2}
  - m_OriginalClip: {fileID: 7400000, guid: 6e317d304e1149a4b982b4b6704e8091, type: 2}
    m_OverrideClip: {fileID: 7400000, guid: 3d65e9b8fa381f14b8631884c89c694b, type: 2}
  - m_OriginalClip: {fileID: 7400000, guid: eaeb65302a4271246a198923c60a70ea, type: 2}
    m_OverrideClip: {fileID: 7400000, guid: 96c7af139d4556345ab1a4f3eae79180, type: 2}
