%YAML 1.1
%TAG !u! tag:unity3d.com,2011:
--- !u!74 &7400000
AnimationClip:
  m_ObjectHideFlags: 0
  m_CorrespondingSourceObject: {fileID: 0}
  m_PrefabInstance: {fileID: 0}
  m_PrefabAsset: {fileID: 0}
  m_Name: shoot
  serializedVersion: 6
  m_Legacy: 0
  m_Compressed: 0
  m_UseHighQualityCurve: 1
  m_RotationCurves: []
  m_CompressedRotationCurves: []
  m_EulerCurves: []
  m_PositionCurves: []
  m_ScaleCurves: []
  m_FloatCurves: []
  m_PPtrCurves:
  - curve:
    - time: 0
      value: {fileID: 1397410899, guid: d4e8d10e4bf776d4db15f3c16bd176e1, type: 3}
    - time: 0.055555556
      value: {fileID: -2072820843, guid: d4e8d10e4bf776d4db15f3c16bd176e1, type: 3}
    - time: 0.11111111
      value: {fileID: -2111075942, guid: d4e8d10e4bf776d4db15f3c16bd176e1, type: 3}
    - time: 0.16666667
      value: {fileID: 2106683845, guid: d4e8d10e4bf776d4db15f3c16bd176e1, type: 3}
    - time: 0.22222222
      value: {fileID: -543713227, guid: d4e8d10e4bf776d4db15f3c16bd176e1, type: 3}
    - time: 0.2777778
      value: {fileID: 192468703, guid: d4e8d10e4bf776d4db15f3c16bd176e1, type: 3}
    - time: 0.33333334
      value: {fileID: -115140091, guid: d4e8d10e4bf776d4db15f3c16bd176e1, type: 3}
    - time: 0.3888889
      value: {fileID: 1253020574, guid: d4e8d10e4bf776d4db15f3c16bd176e1, type: 3}
    - time: 0.44444445
      value: {fileID: -978296687, guid: d4e8d10e4bf776d4db15f3c16bd176e1, type: 3}
    - time: 0.5
      value: {fileID: 1274990029, guid: d4e8d10e4bf776d4db15f3c16bd176e1, type: 3}
    attribute: m_Sprite
    path: image
    classID: 212
    script: {fileID: 0}
  m_SampleRate: 18
  m_WrapMode: 0
  m_Bounds:
    m_Center: {x: 0, y: 0, z: 0}
    m_Extent: {x: 0, y: 0, z: 0}
  m_ClipBindingConstant:
    genericBindings:
    - serializedVersion: 2
      path: 3309110367
      attribute: 0
      script: {fileID: 0}
      typeID: 212
      customType: 23
      isPPtrCurve: 1
    pptrCurveMapping:
    - {fileID: 1397410899, guid: d4e8d10e4bf776d4db15f3c16bd176e1, type: 3}
    - {fileID: -2072820843, guid: d4e8d10e4bf776d4db15f3c16bd176e1, type: 3}
    - {fileID: -2111075942, guid: d4e8d10e4bf776d4db15f3c16bd176e1, type: 3}
    - {fileID: 2106683845, guid: d4e8d10e4bf776d4db15f3c16bd176e1, type: 3}
    - {fileID: -543713227, guid: d4e8d10e4bf776d4db15f3c16bd176e1, type: 3}
    - {fileID: 192468703, guid: d4e8d10e4bf776d4db15f3c16bd176e1, type: 3}
    - {fileID: -115140091, guid: d4e8d10e4bf776d4db15f3c16bd176e1, type: 3}
    - {fileID: 1253020574, guid: d4e8d10e4bf776d4db15f3c16bd176e1, type: 3}
    - {fileID: -978296687, guid: d4e8d10e4bf776d4db15f3c16bd176e1, type: 3}
    - {fileID: 1274990029, guid: d4e8d10e4bf776d4db15f3c16bd176e1, type: 3}
  m_AnimationClipSettings:
    serializedVersion: 2
    m_AdditiveReferencePoseClip: {fileID: 0}
    m_AdditiveReferencePoseTime: 0
    m_StartTime: 0
    m_StopTime: 0.5555556
    m_OrientationOffsetY: 0
    m_Level: 0
    m_CycleOffset: 0
    m_HasAdditiveReferencePose: 0
    m_LoopTime: 0
    m_LoopBlend: 0
    m_LoopBlendOrientation: 0
    m_LoopBlendPositionY: 0
    m_LoopBlendPositionXZ: 0
    m_KeepOriginalOrientation: 0
    m_KeepOriginalPositionY: 1
    m_KeepOriginalPositionXZ: 0
    m_HeightFromFeet: 0
    m_Mirror: 0
  m_EditorCurves: []
  m_EulerEditorCurves: []
  m_HasGenericRootTransform: 0
  m_HasMotionFloatCurves: 0
  m_Events: []
