%YAML 1.1
%TAG !u! tag:unity3d.com,2011:
--- !u!114 &11400000
MonoBehaviour:
  m_ObjectHideFlags: 0
  m_CorrespondingSourceObject: {fileID: 0}
  m_PrefabInstance: {fileID: 0}
  m_PrefabAsset: {fileID: 0}
  m_GameObject: {fileID: 0}
  m_Enabled: 1
  m_EditorHideFlags: 0
  m_Script: {fileID: 11500000, guid: 9d1514134bc4fbd41bb739b1b9a49231, type: 3}
  m_Name: Lava rule 1
  m_EditorClassIdentifier: 
  m_DefaultSprite: {fileID: 21300000, guid: 488c9b8a9bb94f84fa3341fdfa52cacf, type: 3}
  m_DefaultGameObject: {fileID: 0}
  m_DefaultColliderType: 2
  m_TilingRules:
  - m_Id: 0
    m_Sprites:
    - {fileID: 21300000, guid: 8b2d0948366fe7049a3b0d40a60da5ec, type: 3}
    m_GameObject: {fileID: 0}
    m_MinAnimationSpeed: 1
    m_MaxAnimationSpeed: 1
    m_PerlinScale: 0.5
    m_Output: 0
    m_ColliderType: 2
    m_RandomTransform: 0
    m_Neighbors: 0000000002000000000000000200000001000000000000000000000000000000
    m_NeighborPositions:
    - {x: -1, y: 1, z: 0}
    - {x: 0, y: 1, z: 0}
    - {x: 1, y: 1, z: 0}
    - {x: -1, y: 0, z: 0}
    - {x: 1, y: 0, z: 0}
    - {x: -1, y: -1, z: 0}
    - {x: 0, y: -1, z: 0}
    - {x: 1, y: -1, z: 0}
    m_RuleTransform: 0
  - m_Id: 0
    m_Sprites:
    - {fileID: 21300000, guid: 19880d8afd8c6c04d897068db9f7e29f, type: 3}
    m_GameObject: {fileID: 0}
    m_MinAnimationSpeed: 1
    m_MaxAnimationSpeed: 1
    m_PerlinScale: 0.5
    m_Output: 0
    m_ColliderType: 2
    m_RandomTransform: 0
    m_Neighbors: 0000000002000000000000000100000002000000000000000000000000000000
    m_NeighborPositions:
    - {x: -1, y: 1, z: 0}
    - {x: 0, y: 1, z: 0}
    - {x: 1, y: 1, z: 0}
    - {x: -1, y: 0, z: 0}
    - {x: 1, y: 0, z: 0}
    - {x: -1, y: -1, z: 0}
    - {x: 0, y: -1, z: 0}
    - {x: 1, y: -1, z: 0}
    m_RuleTransform: 0
  - m_Id: 0
    m_Sprites:
    - {fileID: 21300000, guid: d3c41614933058f4bb7e02a4032917d4, type: 3}
    m_GameObject: {fileID: 0}
    m_MinAnimationSpeed: 1
    m_MaxAnimationSpeed: 1
    m_PerlinScale: 0.5
    m_Output: 0
    m_ColliderType: 2
    m_RandomTransform: 0
    m_Neighbors: 0000000001000000000000000100000002000000000000000100000000000000
    m_NeighborPositions:
    - {x: -1, y: 1, z: 0}
    - {x: 0, y: 1, z: 0}
    - {x: 1, y: 1, z: 0}
    - {x: -1, y: 0, z: 0}
    - {x: 1, y: 0, z: 0}
    - {x: -1, y: -1, z: 0}
    - {x: 0, y: -1, z: 0}
    - {x: 1, y: -1, z: 0}
    m_RuleTransform: 0
  - m_Id: 0
    m_Sprites:
    - {fileID: 21300000, guid: 6d176d3fb12ecaa438c1cb61bcab4d1a, type: 3}
    m_GameObject: {fileID: 0}
    m_MinAnimationSpeed: 1
    m_MaxAnimationSpeed: 1
    m_PerlinScale: 0.5
    m_Output: 0
    m_ColliderType: 2
    m_RandomTransform: 0
    m_Neighbors: 0000000001000000020000000000000001000000000000000000000000000000
    m_NeighborPositions:
    - {x: -1, y: 1, z: 0}
    - {x: 0, y: 1, z: 0}
    - {x: 1, y: 1, z: 0}
    - {x: -1, y: 0, z: 0}
    - {x: 1, y: 0, z: 0}
    - {x: -1, y: -1, z: 0}
    - {x: 0, y: -1, z: 0}
    - {x: 1, y: -1, z: 0}
    m_RuleTransform: 0
  - m_Id: 0
    m_Sprites:
    - {fileID: 21300000, guid: 7f788e6aadb855b4a9800d9bbef297f2, type: 3}
    m_GameObject: {fileID: 0}
    m_MinAnimationSpeed: 1
    m_MaxAnimationSpeed: 1
    m_PerlinScale: 0.5
    m_Output: 0
    m_ColliderType: 2
    m_RandomTransform: 0
    m_Neighbors: 0200000001000000000000000100000000000000000000000000000000000000
    m_NeighborPositions:
    - {x: -1, y: 1, z: 0}
    - {x: 0, y: 1, z: 0}
    - {x: 1, y: 1, z: 0}
    - {x: -1, y: 0, z: 0}
    - {x: 1, y: 0, z: 0}
    - {x: -1, y: -1, z: 0}
    - {x: 0, y: -1, z: 0}
    - {x: 1, y: -1, z: 0}
    m_RuleTransform: 0
  - m_Id: 0
    m_Sprites:
    - {fileID: 21300000, guid: abdea7da6fd6b5348be83a1b49667f93, type: 3}
    m_GameObject: {fileID: 0}
    m_MinAnimationSpeed: 1
    m_MaxAnimationSpeed: 1
    m_PerlinScale: 0.5
    m_Output: 0
    m_ColliderType: 2
    m_RandomTransform: 0
    m_Neighbors: 0000000001000000000000000100000001000000000000000100000002000000
    m_NeighborPositions:
    - {x: -1, y: 1, z: 0}
    - {x: 0, y: 1, z: 0}
    - {x: 1, y: 1, z: 0}
    - {x: -1, y: 0, z: 0}
    - {x: 1, y: 0, z: 0}
    - {x: -1, y: -1, z: 0}
    - {x: 0, y: -1, z: 0}
    - {x: 1, y: -1, z: 0}
    m_RuleTransform: 0
  - m_Id: 0
    m_Sprites:
    - {fileID: 21300000, guid: abdea7da6fd6b5348be83a1b49667f93, type: 3}
    m_GameObject: {fileID: 0}
    m_MinAnimationSpeed: 1
    m_MaxAnimationSpeed: 1
    m_PerlinScale: 0.5
    m_Output: 0
    m_ColliderType: 2
    m_RandomTransform: 0
    m_Neighbors: 0000000001000000000000000100000001000000020000000100000000000000
    m_NeighborPositions:
    - {x: -1, y: 1, z: 0}
    - {x: 0, y: 1, z: 0}
    - {x: 1, y: 1, z: 0}
    - {x: -1, y: 0, z: 0}
    - {x: 1, y: 0, z: 0}
    - {x: -1, y: -1, z: 0}
    - {x: 0, y: -1, z: 0}
    - {x: 1, y: -1, z: 0}
    m_RuleTransform: 0
  - m_Id: 0
    m_Sprites:
    - {fileID: 21300000, guid: abdea7da6fd6b5348be83a1b49667f93, type: 3}
    m_GameObject: {fileID: 0}
    m_MinAnimationSpeed: 1
    m_MaxAnimationSpeed: 1
    m_PerlinScale: 0.5
    m_Output: 0
    m_ColliderType: 2
    m_RandomTransform: 0
    m_Neighbors: 0000000001000000000000000100000001000000000000000100000000000000
    m_NeighborPositions:
    - {x: -1, y: 1, z: 0}
    - {x: 0, y: 1, z: 0}
    - {x: 1, y: 1, z: 0}
    - {x: -1, y: 0, z: 0}
    - {x: 1, y: 0, z: 0}
    - {x: -1, y: -1, z: 0}
    - {x: 0, y: -1, z: 0}
    - {x: 1, y: -1, z: 0}
    m_RuleTransform: 0
  - m_Id: 0
    m_Sprites:
    - {fileID: 21300000, guid: d0553c7b25bfc0947b1ac3c01faa2706, type: 3}
    m_GameObject: {fileID: 0}
    m_MinAnimationSpeed: 1
    m_MaxAnimationSpeed: 1
    m_PerlinScale: 0.5
    m_Output: 0
    m_ColliderType: 2
    m_RandomTransform: 0
    m_Neighbors: 0000000001000000000000000200000001000000000000000100000000000000
    m_NeighborPositions:
    - {x: -1, y: 1, z: 0}
    - {x: 0, y: 1, z: 0}
    - {x: 1, y: 1, z: 0}
    - {x: -1, y: 0, z: 0}
    - {x: 1, y: 0, z: 0}
    - {x: -1, y: -1, z: 0}
    - {x: 0, y: -1, z: 0}
    - {x: 1, y: -1, z: 0}
    m_RuleTransform: 0
  - m_Id: 0
    m_Sprites:
    - {fileID: 21300000, guid: d0553c7b25bfc0947b1ac3c01faa2706, type: 3}
    m_GameObject: {fileID: 0}
    m_MinAnimationSpeed: 1
    m_MaxAnimationSpeed: 1
    m_PerlinScale: 0.5
    m_Output: 0
    m_ColliderType: 2
    m_RandomTransform: 0
    m_Neighbors: 0000000001000000000000000200000001000000000000000200000000000000
    m_NeighborPositions:
    - {x: -1, y: 1, z: 0}
    - {x: 0, y: 1, z: 0}
    - {x: 1, y: 1, z: 0}
    - {x: -1, y: 0, z: 0}
    - {x: 1, y: 0, z: 0}
    - {x: -1, y: -1, z: 0}
    - {x: 0, y: -1, z: 0}
    - {x: 1, y: -1, z: 0}
    m_RuleTransform: 0
  - m_Id: 0
    m_Sprites:
    - {fileID: 21300000, guid: d3c41614933058f4bb7e02a4032917d4, type: 3}
    m_GameObject: {fileID: 0}
    m_MinAnimationSpeed: 1
    m_MaxAnimationSpeed: 1
    m_PerlinScale: 0.5
    m_Output: 0
    m_ColliderType: 2
    m_RandomTransform: 0
    m_Neighbors: 0000000001000000000000000100000002000000000000000200000000000000
    m_NeighborPositions:
    - {x: -1, y: 1, z: 0}
    - {x: 0, y: 1, z: 0}
    - {x: 1, y: 1, z: 0}
    - {x: -1, y: 0, z: 0}
    - {x: 1, y: 0, z: 0}
    - {x: -1, y: -1, z: 0}
    - {x: 0, y: -1, z: 0}
    - {x: 1, y: -1, z: 0}
    m_RuleTransform: 0
  - m_Id: 0
    m_Sprites:
    - {fileID: 21300000, guid: 0923991455f8efa42bc3e62081dc323b, type: 3}
    m_GameObject: {fileID: 0}
    m_MinAnimationSpeed: 1
    m_MaxAnimationSpeed: 1
    m_PerlinScale: 0.5
    m_Output: 0
    m_ColliderType: 2
    m_RandomTransform: 0
    m_Neighbors: 0000000002000000000000000100000001000000000000000100000000000000
    m_NeighborPositions:
    - {x: -1, y: 1, z: 0}
    - {x: 0, y: 1, z: 0}
    - {x: 1, y: 1, z: 0}
    - {x: -1, y: 0, z: 0}
    - {x: 1, y: 0, z: 0}
    - {x: -1, y: -1, z: 0}
    - {x: 0, y: -1, z: 0}
    - {x: 1, y: -1, z: 0}
    m_RuleTransform: 0
  - m_Id: 0
    m_Sprites:
    - {fileID: 21300000, guid: abdea7da6fd6b5348be83a1b49667f93, type: 3}
    m_GameObject: {fileID: 0}
    m_MinAnimationSpeed: 1
    m_MaxAnimationSpeed: 1
    m_PerlinScale: 0.5
    m_Output: 0
    m_ColliderType: 2
    m_RandomTransform: 0
    m_Neighbors: 0000000001000000000000000100000001000000000000000200000000000000
    m_NeighborPositions:
    - {x: -1, y: 1, z: 0}
    - {x: 0, y: 1, z: 0}
    - {x: 1, y: 1, z: 0}
    - {x: -1, y: 0, z: 0}
    - {x: 1, y: 0, z: 0}
    - {x: -1, y: -1, z: 0}
    - {x: 0, y: -1, z: 0}
    - {x: 1, y: -1, z: 0}
    m_RuleTransform: 0
