%YAML 1.1
%TAG !u! tag:unity3d.com,2011:
--- !u!1 &5608805041439637967
GameObject:
  m_ObjectHideFlags: 0
  m_CorrespondingSourceObject: {fileID: 0}
  m_PrefabInstance: {fileID: 0}
  m_PrefabAsset: {fileID: 0}
  serializedVersion: 6
  m_Component:
  - component: {fileID: 8885916803760600119}
  - component: {fileID: 2389415207581906411}
  m_Layer: 0
  m_Name: Village
  m_TagString: Untagged
  m_Icon: {fileID: 0}
  m_NavMeshLayer: 0
  m_StaticEditorFlags: 0
  m_IsActive: 1
--- !u!4 &8885916803760600119
Transform:
  m_ObjectHideFlags: 0
  m_CorrespondingSourceObject: {fileID: 0}
  m_PrefabInstance: {fileID: 0}
  m_PrefabAsset: {fileID: 0}
  m_GameObject: {fileID: 5608805041439637967}
  m_LocalRotation: {x: 0, y: 0, z: 0, w: 1}
  m_LocalPosition: {x: 0, y: 0, z: 0}
  m_LocalScale: {x: 1, y: 1, z: 1}
  m_ConstrainProportionsScale: 0
  m_Children:
  - {fileID: 8015538735356911779}
  m_Father: {fileID: 0}
  m_RootOrder: 0
  m_LocalEulerAnglesHint: {x: 0, y: 0, z: 0}
--- !u!156049354 &2389415207581906411
Grid:
  m_ObjectHideFlags: 0
  m_CorrespondingSourceObject: {fileID: 0}
  m_PrefabInstance: {fileID: 0}
  m_PrefabAsset: {fileID: 0}
  m_GameObject: {fileID: 5608805041439637967}
  m_Enabled: 1
  m_CellSize: {x: 0.64, y: 0.64, z: 0}
  m_CellGap: {x: 0, y: 0, z: 0}
  m_CellLayout: 0
  m_CellSwizzle: 0
--- !u!1 &5694061961649698932
GameObject:
  m_ObjectHideFlags: 0
  m_CorrespondingSourceObject: {fileID: 0}
  m_PrefabInstance: {fileID: 0}
  m_PrefabAsset: {fileID: 0}
  serializedVersion: 6
  m_Component:
  - component: {fileID: 8015538735356911779}
  - component: {fileID: 1823082780061994340}
  - component: {fileID: 1575864231165424139}
  m_Layer: 0
  m_Name: Layer1
  m_TagString: Untagged
  m_Icon: {fileID: 0}
  m_NavMeshLayer: 0
  m_StaticEditorFlags: 0
  m_IsActive: 1
--- !u!4 &8015538735356911779
Transform:
  m_ObjectHideFlags: 0
  m_CorrespondingSourceObject: {fileID: 0}
  m_PrefabInstance: {fileID: 0}
  m_PrefabAsset: {fileID: 0}
  m_GameObject: {fileID: 5694061961649698932}
  m_LocalRotation: {x: -0, y: -0, z: -0, w: 1}
  m_LocalPosition: {x: 0, y: 0, z: 0}
  m_LocalScale: {x: 1, y: 1, z: 1}
  m_ConstrainProportionsScale: 0
  m_Children: []
  m_Father: {fileID: 8885916803760600119}
  m_RootOrder: 0
  m_LocalEulerAnglesHint: {x: 0, y: 0, z: 0}
--- !u!1839735485 &1823082780061994340
Tilemap:
  m_ObjectHideFlags: 0
  m_CorrespondingSourceObject: {fileID: 0}
  m_PrefabInstance: {fileID: 0}
  m_PrefabAsset: {fileID: 0}
  m_GameObject: {fileID: 5694061961649698932}
  m_Enabled: 1
  m_Tiles:
  - first: {x: 3, y: -6, z: 0}
    second:
      serializedVersion: 2
      m_TileIndex: 55
      m_TileSpriteIndex: 55
      m_TileMatrixIndex: 0
      m_TileColorIndex: 0
      m_TileObjectToInstantiateIndex: 65535
      dummyAlignment: 0
      m_AllTileFlags: 1073741825
  - first: {x: 4, y: -6, z: 0}
    second:
      serializedVersion: 2
      m_TileIndex: 56
      m_TileSpriteIndex: 56
      m_TileMatrixIndex: 0
      m_TileColorIndex: 0
      m_TileObjectToInstantiateIndex: 65535
      dummyAlignment: 0
      m_AllTileFlags: 1073741825
  - first: {x: 3, y: -5, z: 0}
    second:
      serializedVersion: 2
      m_TileIndex: 48
      m_TileSpriteIndex: 48
      m_TileMatrixIndex: 0
      m_TileColorIndex: 0
      m_TileObjectToInstantiateIndex: 65535
      dummyAlignment: 0
      m_AllTileFlags: 1073741825
  - first: {x: 4, y: -5, z: 0}
    second:
      serializedVersion: 2
      m_TileIndex: 49
      m_TileSpriteIndex: 49
      m_TileMatrixIndex: 0
      m_TileColorIndex: 0
      m_TileObjectToInstantiateIndex: 65535
      dummyAlignment: 0
      m_AllTileFlags: 1073741825
  - first: {x: 5, y: -5, z: 0}
    second:
      serializedVersion: 2
      m_TileIndex: 50
      m_TileSpriteIndex: 50
      m_TileMatrixIndex: 0
      m_TileColorIndex: 0
      m_TileObjectToInstantiateIndex: 65535
      dummyAlignment: 0
      m_AllTileFlags: 1073741825
  - first: {x: 6, y: -5, z: 0}
    second:
      serializedVersion: 2
      m_TileIndex: 51
      m_TileSpriteIndex: 51
      m_TileMatrixIndex: 0
      m_TileColorIndex: 0
      m_TileObjectToInstantiateIndex: 65535
      dummyAlignment: 0
      m_AllTileFlags: 1073741825
  - first: {x: 7, y: -5, z: 0}
    second:
      serializedVersion: 2
      m_TileIndex: 52
      m_TileSpriteIndex: 52
      m_TileMatrixIndex: 0
      m_TileColorIndex: 0
      m_TileObjectToInstantiateIndex: 65535
      dummyAlignment: 0
      m_AllTileFlags: 1073741825
  - first: {x: 8, y: -5, z: 0}
    second:
      serializedVersion: 2
      m_TileIndex: 53
      m_TileSpriteIndex: 53
      m_TileMatrixIndex: 0
      m_TileColorIndex: 0
      m_TileObjectToInstantiateIndex: 65535
      dummyAlignment: 0
      m_AllTileFlags: 1073741825
  - first: {x: 9, y: -5, z: 0}
    second:
      serializedVersion: 2
      m_TileIndex: 54
      m_TileSpriteIndex: 54
      m_TileMatrixIndex: 0
      m_TileColorIndex: 0
      m_TileObjectToInstantiateIndex: 65535
      dummyAlignment: 0
      m_AllTileFlags: 1073741825
  - first: {x: 3, y: -4, z: 0}
    second:
      serializedVersion: 2
      m_TileIndex: 41
      m_TileSpriteIndex: 41
      m_TileMatrixIndex: 0
      m_TileColorIndex: 0
      m_TileObjectToInstantiateIndex: 65535
      dummyAlignment: 0
      m_AllTileFlags: 1073741825
  - first: {x: 4, y: -4, z: 0}
    second:
      serializedVersion: 2
      m_TileIndex: 42
      m_TileSpriteIndex: 42
      m_TileMatrixIndex: 0
      m_TileColorIndex: 0
      m_TileObjectToInstantiateIndex: 65535
      dummyAlignment: 0
      m_AllTileFlags: 1073741825
  - first: {x: 5, y: -4, z: 0}
    second:
      serializedVersion: 2
      m_TileIndex: 43
      m_TileSpriteIndex: 43
      m_TileMatrixIndex: 0
      m_TileColorIndex: 0
      m_TileObjectToInstantiateIndex: 65535
      dummyAlignment: 0
      m_AllTileFlags: 1073741825
  - first: {x: 6, y: -4, z: 0}
    second:
      serializedVersion: 2
      m_TileIndex: 44
      m_TileSpriteIndex: 44
      m_TileMatrixIndex: 0
      m_TileColorIndex: 0
      m_TileObjectToInstantiateIndex: 65535
      dummyAlignment: 0
      m_AllTileFlags: 1073741825
  - first: {x: 7, y: -4, z: 0}
    second:
      serializedVersion: 2
      m_TileIndex: 45
      m_TileSpriteIndex: 45
      m_TileMatrixIndex: 0
      m_TileColorIndex: 0
      m_TileObjectToInstantiateIndex: 65535
      dummyAlignment: 0
      m_AllTileFlags: 1073741825
  - first: {x: 8, y: -4, z: 0}
    second:
      serializedVersion: 2
      m_TileIndex: 46
      m_TileSpriteIndex: 46
      m_TileMatrixIndex: 0
      m_TileColorIndex: 0
      m_TileObjectToInstantiateIndex: 65535
      dummyAlignment: 0
      m_AllTileFlags: 1073741825
  - first: {x: 9, y: -4, z: 0}
    second:
      serializedVersion: 2
      m_TileIndex: 47
      m_TileSpriteIndex: 47
      m_TileMatrixIndex: 0
      m_TileColorIndex: 0
      m_TileObjectToInstantiateIndex: 65535
      dummyAlignment: 0
      m_AllTileFlags: 1073741825
  - first: {x: -2, y: -3, z: 0}
    second:
      serializedVersion: 2
      m_TileIndex: 12
      m_TileSpriteIndex: 12
      m_TileMatrixIndex: 0
      m_TileColorIndex: 0
      m_TileObjectToInstantiateIndex: 65535
      dummyAlignment: 0
      m_AllTileFlags: 1073741825
  - first: {x: 3, y: -3, z: 0}
    second:
      serializedVersion: 2
      m_TileIndex: 34
      m_TileSpriteIndex: 34
      m_TileMatrixIndex: 0
      m_TileColorIndex: 0
      m_TileObjectToInstantiateIndex: 65535
      dummyAlignment: 0
      m_AllTileFlags: 1073741825
  - first: {x: 4, y: -3, z: 0}
    second:
      serializedVersion: 2
      m_TileIndex: 35
      m_TileSpriteIndex: 35
      m_TileMatrixIndex: 0
      m_TileColorIndex: 0
      m_TileObjectToInstantiateIndex: 65535
      dummyAlignment: 0
      m_AllTileFlags: 1073741825
  - first: {x: 5, y: -3, z: 0}
    second:
      serializedVersion: 2
      m_TileIndex: 36
      m_TileSpriteIndex: 36
      m_TileMatrixIndex: 0
      m_TileColorIndex: 0
      m_TileObjectToInstantiateIndex: 65535
      dummyAlignment: 0
      m_AllTileFlags: 1073741825
  - first: {x: 6, y: -3, z: 0}
    second:
      serializedVersion: 2
      m_TileIndex: 37
      m_TileSpriteIndex: 37
      m_TileMatrixIndex: 0
      m_TileColorIndex: 0
      m_TileObjectToInstantiateIndex: 65535
      dummyAlignment: 0
      m_AllTileFlags: 1073741825
  - first: {x: 7, y: -3, z: 0}
    second:
      serializedVersion: 2
      m_TileIndex: 38
      m_TileSpriteIndex: 38
      m_TileMatrixIndex: 0
      m_TileColorIndex: 0
      m_TileObjectToInstantiateIndex: 65535
      dummyAlignment: 0
      m_AllTileFlags: 1073741825
  - first: {x: 8, y: -3, z: 0}
    second:
      serializedVersion: 2
      m_TileIndex: 39
      m_TileSpriteIndex: 39
      m_TileMatrixIndex: 0
      m_TileColorIndex: 0
      m_TileObjectToInstantiateIndex: 65535
      dummyAlignment: 0
      m_AllTileFlags: 1073741825
  - first: {x: 9, y: -3, z: 0}
    second:
      serializedVersion: 2
      m_TileIndex: 40
      m_TileSpriteIndex: 40
      m_TileMatrixIndex: 0
      m_TileColorIndex: 0
      m_TileObjectToInstantiateIndex: 65535
      dummyAlignment: 0
      m_AllTileFlags: 1073741825
  - first: {x: -2, y: -2, z: 0}
    second:
      serializedVersion: 2
      m_TileIndex: 8
      m_TileSpriteIndex: 8
      m_TileMatrixIndex: 0
      m_TileColorIndex: 0
      m_TileObjectToInstantiateIndex: 65535
      dummyAlignment: 0
      m_AllTileFlags: 1073741825
  - first: {x: -1, y: -2, z: 0}
    second:
      serializedVersion: 2
      m_TileIndex: 9
      m_TileSpriteIndex: 9
      m_TileMatrixIndex: 0
      m_TileColorIndex: 0
      m_TileObjectToInstantiateIndex: 65535
      dummyAlignment: 0
      m_AllTileFlags: 1073741825
  - first: {x: 0, y: -2, z: 0}
    second:
      serializedVersion: 2
      m_TileIndex: 10
      m_TileSpriteIndex: 10
      m_TileMatrixIndex: 0
      m_TileColorIndex: 0
      m_TileObjectToInstantiateIndex: 65535
      dummyAlignment: 0
      m_AllTileFlags: 1073741825
  - first: {x: 1, y: -2, z: 0}
    second:
      serializedVersion: 2
      m_TileIndex: 11
      m_TileSpriteIndex: 11
      m_TileMatrixIndex: 0
      m_TileColorIndex: 0
      m_TileObjectToInstantiateIndex: 65535
      dummyAlignment: 0
      m_AllTileFlags: 1073741825
  - first: {x: 3, y: -2, z: 0}
    second:
      serializedVersion: 2
      m_TileIndex: 27
      m_TileSpriteIndex: 27
      m_TileMatrixIndex: 0
      m_TileColorIndex: 0
      m_TileObjectToInstantiateIndex: 65535
      dummyAlignment: 0
      m_AllTileFlags: 1073741825
  - first: {x: 4, y: -2, z: 0}
    second:
      serializedVersion: 2
      m_TileIndex: 28
      m_TileSpriteIndex: 28
      m_TileMatrixIndex: 0
      m_TileColorIndex: 0
      m_TileObjectToInstantiateIndex: 65535
      dummyAlignment: 0
      m_AllTileFlags: 1073741825
  - first: {x: 5, y: -2, z: 0}
    second:
      serializedVersion: 2
      m_TileIndex: 29
      m_TileSpriteIndex: 29
      m_TileMatrixIndex: 0
      m_TileColorIndex: 0
      m_TileObjectToInstantiateIndex: 65535
      dummyAlignment: 0
      m_AllTileFlags: 1073741825
  - first: {x: 6, y: -2, z: 0}
    second:
      serializedVersion: 2
      m_TileIndex: 30
      m_TileSpriteIndex: 30
      m_TileMatrixIndex: 0
      m_TileColorIndex: 0
      m_TileObjectToInstantiateIndex: 65535
      dummyAlignment: 0
      m_AllTileFlags: 1073741825
  - first: {x: 7, y: -2, z: 0}
    second:
      serializedVersion: 2
      m_TileIndex: 31
      m_TileSpriteIndex: 31
      m_TileMatrixIndex: 0
      m_TileColorIndex: 0
      m_TileObjectToInstantiateIndex: 65535
      dummyAlignment: 0
      m_AllTileFlags: 1073741825
  - first: {x: 8, y: -2, z: 0}
    second:
      serializedVersion: 2
      m_TileIndex: 32
      m_TileSpriteIndex: 32
      m_TileMatrixIndex: 0
      m_TileColorIndex: 0
      m_TileObjectToInstantiateIndex: 65535
      dummyAlignment: 0
      m_AllTileFlags: 1073741825
  - first: {x: 9, y: -2, z: 0}
    second:
      serializedVersion: 2
      m_TileIndex: 33
      m_TileSpriteIndex: 33
      m_TileMatrixIndex: 0
      m_TileColorIndex: 0
      m_TileObjectToInstantiateIndex: 65535
      dummyAlignment: 0
      m_AllTileFlags: 1073741825
  - first: {x: -2, y: -1, z: 0}
    second:
      serializedVersion: 2
      m_TileIndex: 4
      m_TileSpriteIndex: 4
      m_TileMatrixIndex: 0
      m_TileColorIndex: 0
      m_TileObjectToInstantiateIndex: 65535
      dummyAlignment: 0
      m_AllTileFlags: 1073741825
  - first: {x: -1, y: -1, z: 0}
    second:
      serializedVersion: 2
      m_TileIndex: 5
      m_TileSpriteIndex: 5
      m_TileMatrixIndex: 0
      m_TileColorIndex: 0
      m_TileObjectToInstantiateIndex: 65535
      dummyAlignment: 0
      m_AllTileFlags: 1073741825
  - first: {x: 0, y: -1, z: 0}
    second:
      serializedVersion: 2
      m_TileIndex: 6
      m_TileSpriteIndex: 6
      m_TileMatrixIndex: 0
      m_TileColorIndex: 0
      m_TileObjectToInstantiateIndex: 65535
      dummyAlignment: 0
      m_AllTileFlags: 1073741825
  - first: {x: 1, y: -1, z: 0}
    second:
      serializedVersion: 2
      m_TileIndex: 7
      m_TileSpriteIndex: 7
      m_TileMatrixIndex: 0
      m_TileColorIndex: 0
      m_TileObjectToInstantiateIndex: 65535
      dummyAlignment: 0
      m_AllTileFlags: 1073741825
  - first: {x: 3, y: -1, z: 0}
    second:
      serializedVersion: 2
      m_TileIndex: 20
      m_TileSpriteIndex: 20
      m_TileMatrixIndex: 0
      m_TileColorIndex: 0
      m_TileObjectToInstantiateIndex: 65535
      dummyAlignment: 0
      m_AllTileFlags: 1073741825
  - first: {x: 4, y: -1, z: 0}
    second:
      serializedVersion: 2
      m_TileIndex: 21
      m_TileSpriteIndex: 21
      m_TileMatrixIndex: 0
      m_TileColorIndex: 0
      m_TileObjectToInstantiateIndex: 65535
      dummyAlignment: 0
      m_AllTileFlags: 1073741825
  - first: {x: 5, y: -1, z: 0}
    second:
      serializedVersion: 2
      m_TileIndex: 22
      m_TileSpriteIndex: 22
      m_TileMatrixIndex: 0
      m_TileColorIndex: 0
      m_TileObjectToInstantiateIndex: 65535
      dummyAlignment: 0
      m_AllTileFlags: 1073741825
  - first: {x: 6, y: -1, z: 0}
    second:
      serializedVersion: 2
      m_TileIndex: 23
      m_TileSpriteIndex: 23
      m_TileMatrixIndex: 0
      m_TileColorIndex: 0
      m_TileObjectToInstantiateIndex: 65535
      dummyAlignment: 0
      m_AllTileFlags: 1073741825
  - first: {x: 7, y: -1, z: 0}
    second:
      serializedVersion: 2
      m_TileIndex: 24
      m_TileSpriteIndex: 24
      m_TileMatrixIndex: 0
      m_TileColorIndex: 0
      m_TileObjectToInstantiateIndex: 65535
      dummyAlignment: 0
      m_AllTileFlags: 1073741825
  - first: {x: 8, y: -1, z: 0}
    second:
      serializedVersion: 2
      m_TileIndex: 25
      m_TileSpriteIndex: 25
      m_TileMatrixIndex: 0
      m_TileColorIndex: 0
      m_TileObjectToInstantiateIndex: 65535
      dummyAlignment: 0
      m_AllTileFlags: 1073741825
  - first: {x: 9, y: -1, z: 0}
    second:
      serializedVersion: 2
      m_TileIndex: 26
      m_TileSpriteIndex: 26
      m_TileMatrixIndex: 0
      m_TileColorIndex: 0
      m_TileObjectToInstantiateIndex: 65535
      dummyAlignment: 0
      m_AllTileFlags: 1073741825
  - first: {x: -2, y: 0, z: 0}
    second:
      serializedVersion: 2
      m_TileIndex: 0
      m_TileSpriteIndex: 0
      m_TileMatrixIndex: 0
      m_TileColorIndex: 0
      m_TileObjectToInstantiateIndex: 65535
      dummyAlignment: 0
      m_AllTileFlags: 1073741825
  - first: {x: -1, y: 0, z: 0}
    second:
      serializedVersion: 2
      m_TileIndex: 1
      m_TileSpriteIndex: 1
      m_TileMatrixIndex: 0
      m_TileColorIndex: 0
      m_TileObjectToInstantiateIndex: 65535
      dummyAlignment: 0
      m_AllTileFlags: 1073741825
  - first: {x: 0, y: 0, z: 0}
    second:
      serializedVersion: 2
      m_TileIndex: 2
      m_TileSpriteIndex: 2
      m_TileMatrixIndex: 0
      m_TileColorIndex: 0
      m_TileObjectToInstantiateIndex: 65535
      dummyAlignment: 0
      m_AllTileFlags: 1073741825
  - first: {x: 1, y: 0, z: 0}
    second:
      serializedVersion: 2
      m_TileIndex: 3
      m_TileSpriteIndex: 3
      m_TileMatrixIndex: 0
      m_TileColorIndex: 0
      m_TileObjectToInstantiateIndex: 65535
      dummyAlignment: 0
      m_AllTileFlags: 1073741825
  - first: {x: 3, y: 0, z: 0}
    second:
      serializedVersion: 2
      m_TileIndex: 13
      m_TileSpriteIndex: 13
      m_TileMatrixIndex: 0
      m_TileColorIndex: 0
      m_TileObjectToInstantiateIndex: 65535
      dummyAlignment: 0
      m_AllTileFlags: 1073741825
  - first: {x: 4, y: 0, z: 0}
    second:
      serializedVersion: 2
      m_TileIndex: 14
      m_TileSpriteIndex: 14
      m_TileMatrixIndex: 0
      m_TileColorIndex: 0
      m_TileObjectToInstantiateIndex: 65535
      dummyAlignment: 0
      m_AllTileFlags: 1073741825
  - first: {x: 5, y: 0, z: 0}
    second:
      serializedVersion: 2
      m_TileIndex: 15
      m_TileSpriteIndex: 15
      m_TileMatrixIndex: 0
      m_TileColorIndex: 0
      m_TileObjectToInstantiateIndex: 65535
      dummyAlignment: 0
      m_AllTileFlags: 1073741825
  - first: {x: 6, y: 0, z: 0}
    second:
      serializedVersion: 2
      m_TileIndex: 16
      m_TileSpriteIndex: 16
      m_TileMatrixIndex: 0
      m_TileColorIndex: 0
      m_TileObjectToInstantiateIndex: 65535
      dummyAlignment: 0
      m_AllTileFlags: 1073741825
  - first: {x: 7, y: 0, z: 0}
    second:
      serializedVersion: 2
      m_TileIndex: 17
      m_TileSpriteIndex: 17
      m_TileMatrixIndex: 0
      m_TileColorIndex: 0
      m_TileObjectToInstantiateIndex: 65535
      dummyAlignment: 0
      m_AllTileFlags: 1073741825
  - first: {x: 8, y: 0, z: 0}
    second:
      serializedVersion: 2
      m_TileIndex: 18
      m_TileSpriteIndex: 18
      m_TileMatrixIndex: 0
      m_TileColorIndex: 0
      m_TileObjectToInstantiateIndex: 65535
      dummyAlignment: 0
      m_AllTileFlags: 1073741825
  - first: {x: 9, y: 0, z: 0}
    second:
      serializedVersion: 2
      m_TileIndex: 19
      m_TileSpriteIndex: 19
      m_TileMatrixIndex: 0
      m_TileColorIndex: 0
      m_TileObjectToInstantiateIndex: 65535
      dummyAlignment: 0
      m_AllTileFlags: 1073741825
  m_AnimatedTiles: {}
  m_TileAssetArray:
  - m_RefCount: 1
    m_Data: {fileID: 11400000, guid: 2c831d492b018224eb1354847d227025, type: 2}
  - m_RefCount: 1
    m_Data: {fileID: 11400000, guid: a805cb80a6faef44cb90ee6f0db591a9, type: 2}
  - m_RefCount: 1
    m_Data: {fileID: 11400000, guid: 8437c61952af5c24481f34e3e1d3d2d4, type: 2}
  - m_RefCount: 1
    m_Data: {fileID: 11400000, guid: 5edae1080a9304a4da9370119a0d0a7e, type: 2}
  - m_RefCount: 1
    m_Data: {fileID: 11400000, guid: 58b6c47df25554c4a87e94130e129a59, type: 2}
  - m_RefCount: 1
    m_Data: {fileID: 11400000, guid: 6158f7928794579499547953cb02890b, type: 2}
  - m_RefCount: 1
    m_Data: {fileID: 11400000, guid: 909132987e8e451439cea4d47617867c, type: 2}
  - m_RefCount: 1
    m_Data: {fileID: 11400000, guid: b98400ca516866f43b639caffdaa7d48, type: 2}
  - m_RefCount: 1
    m_Data: {fileID: 11400000, guid: 2d51570f5ca627842b9d89220ff77a48, type: 2}
  - m_RefCount: 1
    m_Data: {fileID: 11400000, guid: b4fe947daf3154d4da726e11d47a1d59, type: 2}
  - m_RefCount: 1
    m_Data: {fileID: 11400000, guid: af99d50af71037343a25d14a0f1fea19, type: 2}
  - m_RefCount: 1
    m_Data: {fileID: 11400000, guid: eb3c411c036eb894fbae2275c6e2b84d, type: 2}
  - m_RefCount: 1
    m_Data: {fileID: 11400000, guid: f8326aca581081d42905f2c22bd5ba78, type: 2}
  - m_RefCount: 1
    m_Data: {fileID: 11400000, guid: 961086c7bab4a284fbbf94373d12035d, type: 2}
  - m_RefCount: 1
    m_Data: {fileID: 11400000, guid: 12cafda72fe93fb4e8400a50f624c44c, type: 2}
  - m_RefCount: 1
    m_Data: {fileID: 11400000, guid: f5bd660b6a1f79446baad65618cc2d1a, type: 2}
  - m_RefCount: 1
    m_Data: {fileID: 11400000, guid: c9427cd7055569e429e95f0ac1127eb5, type: 2}
  - m_RefCount: 1
    m_Data: {fileID: 11400000, guid: dc59e8228f8a7cc48b33b0da658c986d, type: 2}
  - m_RefCount: 1
    m_Data: {fileID: 11400000, guid: d0361fff3ae8da74ab41ee4d6284f30b, type: 2}
  - m_RefCount: 1
    m_Data: {fileID: 11400000, guid: d1890768c79fea745bc381b9e6c05db5, type: 2}
  - m_RefCount: 1
    m_Data: {fileID: 11400000, guid: 9115f4e53e1de5c44b118843b6b0814f, type: 2}
  - m_RefCount: 1
    m_Data: {fileID: 11400000, guid: d6cda7e03ad826c4f8fa323963e8eebb, type: 2}
  - m_RefCount: 1
    m_Data: {fileID: 11400000, guid: d37671c99e8c0d84c9c968944fead630, type: 2}
  - m_RefCount: 1
    m_Data: {fileID: 11400000, guid: 9f8a4daa6db429f4fa7be95ccd9e7d32, type: 2}
  - m_RefCount: 1
    m_Data: {fileID: 11400000, guid: 086b6aeda5acc4143a483372fb0cfaf0, type: 2}
  - m_RefCount: 1
    m_Data: {fileID: 11400000, guid: 70a093e05fc791d4f9abef64d7668469, type: 2}
  - m_RefCount: 1
    m_Data: {fileID: 11400000, guid: 551b9f2f8fd6f954b8cb8bf13a0527ee, type: 2}
  - m_RefCount: 1
    m_Data: {fileID: 11400000, guid: c250dae32575f994ea53d350340769ed, type: 2}
  - m_RefCount: 1
    m_Data: {fileID: 11400000, guid: 3aad80d6d96ccda489df6adac2c1fdcc, type: 2}
  - m_RefCount: 1
    m_Data: {fileID: 11400000, guid: be9eb658db36cac4c9316274d1aea849, type: 2}
  - m_RefCount: 1
    m_Data: {fileID: 11400000, guid: bfcf2045d95f8684dbb74b6c78dbbc89, type: 2}
  - m_RefCount: 1
    m_Data: {fileID: 11400000, guid: 4ed9e8e9a763ea648b816081210cc909, type: 2}
  - m_RefCount: 1
    m_Data: {fileID: 11400000, guid: 597f1fc0c97d4664c91044ab6545a945, type: 2}
  - m_RefCount: 1
    m_Data: {fileID: 11400000, guid: e84200db5a077f34cb856d3ad6b65315, type: 2}
  - m_RefCount: 1
    m_Data: {fileID: 11400000, guid: 162a82bec1ba0e74b90e05c36fc9a322, type: 2}
  - m_RefCount: 1
    m_Data: {fileID: 11400000, guid: 0bb1d9dba3ad66844a7a4c69579c342a, type: 2}
  - m_RefCount: 1
    m_Data: {fileID: 11400000, guid: 8522108228fc0fc4cb0f2280f0b3ded7, type: 2}
  - m_RefCount: 1
    m_Data: {fileID: 11400000, guid: 978a2b3e74f22704981aca8b3f07784f, type: 2}
  - m_RefCount: 1
    m_Data: {fileID: 11400000, guid: 177048e9681c4a9418584ec67f394a03, type: 2}
  - m_RefCount: 1
    m_Data: {fileID: 11400000, guid: a9c2c7d3c932f164da8591583eee5374, type: 2}
  - m_RefCount: 1
    m_Data: {fileID: 11400000, guid: 0a8a4c7d2f34d0e47971290e831535f3, type: 2}
  - m_RefCount: 1
    m_Data: {fileID: 11400000, guid: bd1fc506a015c4546b0d00a0852266fd, type: 2}
  - m_RefCount: 1
    m_Data: {fileID: 11400000, guid: 9512a9cc272259449aaa9224584de526, type: 2}
  - m_RefCount: 1
    m_Data: {fileID: 11400000, guid: 3812437e141aad842a87f0cd08d1bc9a, type: 2}
  - m_RefCount: 1
    m_Data: {fileID: 11400000, guid: 01f295ab72fe18e47b8204a06b15beab, type: 2}
  - m_RefCount: 1
    m_Data: {fileID: 11400000, guid: 65b98482fe45bfc47a2d5bbfcdc5f710, type: 2}
  - m_RefCount: 1
    m_Data: {fileID: 11400000, guid: d078a6d957bc6654184c819937177b6d, type: 2}
  - m_RefCount: 1
    m_Data: {fileID: 11400000, guid: c4eb84c589414ad4591f5e375940140c, type: 2}
  - m_RefCount: 1
    m_Data: {fileID: 11400000, guid: 4150e563a0a27ac4da9062d23db851c2, type: 2}
  - m_RefCount: 1
    m_Data: {fileID: 11400000, guid: 5273ae5036cfc6644a254fbf2895a7fb, type: 2}
  - m_RefCount: 1
    m_Data: {fileID: 11400000, guid: d3ce00d0d0e594d40abd5154a9b66045, type: 2}
  - m_RefCount: 1
    m_Data: {fileID: 11400000, guid: 121460f21a314b546acb68cf3fd6a5d7, type: 2}
  - m_RefCount: 1
    m_Data: {fileID: 11400000, guid: ce0e00e31d66dc440916714fafaf716e, type: 2}
  - m_RefCount: 1
    m_Data: {fileID: 11400000, guid: 4fe6d8325121aa748ac0ac153eaa41a8, type: 2}
  - m_RefCount: 1
    m_Data: {fileID: 11400000, guid: 2da80f8313df02247ae4a095efeaa626, type: 2}
  - m_RefCount: 1
    m_Data: {fileID: 11400000, guid: a603d808335431245913141300f4ea24, type: 2}
  - m_RefCount: 1
    m_Data: {fileID: 11400000, guid: 190c6c3e3cf393645a41c3cfa3807631, type: 2}
  m_TileSpriteArray:
  - m_RefCount: 1
    m_Data: {fileID: 21300000, guid: 56d98d896b3920440aa602bf2734b169, type: 3}
  - m_RefCount: 1
    m_Data: {fileID: 21300000, guid: ecc8a5dc4b339fa409d2bb330f1bfb30, type: 3}
  - m_RefCount: 1
    m_Data: {fileID: 21300000, guid: ea07bb1b077ac574f9fe59f27e5dc2c9, type: 3}
  - m_RefCount: 1
    m_Data: {fileID: 21300000, guid: 6296f6c61580144418d7bde7d4cde891, type: 3}
  - m_RefCount: 1
    m_Data: {fileID: 21300000, guid: 63909ba4dc62a11418847059cffc49b9, type: 3}
  - m_RefCount: 1
    m_Data: {fileID: 21300000, guid: 6955f66c7fee2eb488cf750cdc13a032, type: 3}
  - m_RefCount: 1
    m_Data: {fileID: 21300000, guid: 47881200f2a419d4cbab52086716371b, type: 3}
  - m_RefCount: 1
    m_Data: {fileID: 21300000, guid: b5bf911e59484e44fa5166eb4f142e5d, type: 3}
  - m_RefCount: 1
    m_Data: {fileID: 21300000, guid: e3a7a7f222a775141b1c4679b5e3fa76, type: 3}
  - m_RefCount: 1
    m_Data: {fileID: 21300000, guid: 3c8b4acfc4767204ca5c8f67c1e88185, type: 3}
  - m_RefCount: 1
    m_Data: {fileID: 21300000, guid: 44311314fd6b1b34b8f095c68a157bcd, type: 3}
  - m_RefCount: 1
    m_Data: {fileID: 21300000, guid: 8554998721c1f514ab50f52ed6aeed6f, type: 3}
  - m_RefCount: 1
    m_Data: {fileID: 21300000, guid: f4f600903f8b19c46a837741f84ec722, type: 3}
  - m_RefCount: 1
    m_Data: {fileID: 21300000, guid: 9803b7cf09db13348916715df4c8fa49, type: 3}
  - m_RefCount: 1
    m_Data: {fileID: 21300000, guid: 0a58fe005c2ea3041a003182b46c36bf, type: 3}
  - m_RefCount: 1
    m_Data: {fileID: 21300000, guid: 6737f1629bb6aae48aeff73d5ab2a9d7, type: 3}
  - m_RefCount: 1
    m_Data: {fileID: 21300000, guid: 565adad40bd82244fa317ca88a21a332, type: 3}
  - m_RefCount: 1
    m_Data: {fileID: 21300000, guid: d80b31b5f00aad74ab0f6054491f9960, type: 3}
  - m_RefCount: 1
    m_Data: {fileID: 21300000, guid: e8088f7b6be59994b9b73337a18dfe85, type: 3}
  - m_RefCount: 1
    m_Data: {fileID: 21300000, guid: 8eda5ef73c609d9479846c8606c630c7, type: 3}
  - m_RefCount: 1
    m_Data: {fileID: 21300000, guid: 8ac8ec4a1c9c5a64db89f32d364e0dab, type: 3}
  - m_RefCount: 1
    m_Data: {fileID: 21300000, guid: 2da5bfa64c2d88d4c85ec369307749dd, type: 3}
  - m_RefCount: 1
    m_Data: {fileID: 21300000, guid: fc3db58fbff94114899b2d8c7cfbacd1, type: 3}
  - m_RefCount: 1
    m_Data: {fileID: 21300000, guid: ef4d3f9b696dfb34dbd78e423273c9ac, type: 3}
  - m_RefCount: 1
    m_Data: {fileID: 21300000, guid: a359888a8f37f494db7e03d202c290b8, type: 3}
  - m_RefCount: 1
    m_Data: {fileID: 21300000, guid: 9b64f6ded5cc41245b423e85532e78b9, type: 3}
  - m_RefCount: 1
    m_Data: {fileID: 21300000, guid: dbbde436d981be44cbd95d1d5d72a55f, type: 3}
  - m_RefCount: 1
    m_Data: {fileID: 21300000, guid: 422abe52052183d4397e779ffeac1a14, type: 3}
  - m_RefCount: 1
    m_Data: {fileID: 21300000, guid: 89818a2a101c040419ffa916c61d5483, type: 3}
  - m_RefCount: 1
    m_Data: {fileID: 21300000, guid: e975106aceeb9ee45baca4ef96f114fa, type: 3}
  - m_RefCount: 1
    m_Data: {fileID: 21300000, guid: ea7f360a82721fc44a244d2522ac1b1d, type: 3}
  - m_RefCount: 1
    m_Data: {fileID: 21300000, guid: 120ec613a6078534b967c5eed2c08c5f, type: 3}
  - m_RefCount: 1
    m_Data: {fileID: 21300000, guid: c5a6cd0427fe3b4478420ffd1fe840e3, type: 3}
  - m_RefCount: 1
    m_Data: {fileID: 21300000, guid: 58b3f8622e12ec14abcacf9052a87335, type: 3}
  - m_RefCount: 1
    m_Data: {fileID: 21300000, guid: c361fc3b7eae10b4e8a2615254e0cbb4, type: 3}
  - m_RefCount: 1
    m_Data: {fileID: 21300000, guid: 204414b4abf32a345b75d1fd44af56d0, type: 3}
  - m_RefCount: 1
    m_Data: {fileID: 21300000, guid: b074ea5ebeafc4d479e7643f00496a16, type: 3}
  - m_RefCount: 1
    m_Data: {fileID: 21300000, guid: 235a0f4cd45706d42a3059ec75834b94, type: 3}
  - m_RefCount: 1
    m_Data: {fileID: 21300000, guid: ac6d473a0d6bb0248a8b8a1b8cfb0b1e, type: 3}
  - m_RefCount: 1
    m_Data: {fileID: 21300000, guid: 8725987eb63132643941284faa3642f3, type: 3}
  - m_RefCount: 1
    m_Data: {fileID: 21300000, guid: a5d11b66c6ee02145b34ed9787cae91a, type: 3}
  - m_RefCount: 1
    m_Data: {fileID: 21300000, guid: 2b4b3af9defdc4048888c9e3c528aad8, type: 3}
  - m_RefCount: 1
    m_Data: {fileID: 21300000, guid: 5f27c84dc7210f9439ba3f2840fc995b, type: 3}
  - m_RefCount: 1
    m_Data: {fileID: 21300000, guid: 743dca467911d3742807319f2ac4652c, type: 3}
  - m_RefCount: 1
    m_Data: {fileID: 21300000, guid: 403abe11872f8f64484e8c129c77d283, type: 3}
  - m_RefCount: 1
    m_Data: {fileID: 21300000, guid: 1cf3088054f3ebf49a9bb9306c8d40e4, type: 3}
  - m_RefCount: 1
    m_Data: {fileID: 21300000, guid: 4e51b9883a3390043b5210420ccc3b73, type: 3}
  - m_RefCount: 1
    m_Data: {fileID: 21300000, guid: 656c31fa00acec340939a092e468e326, type: 3}
  - m_RefCount: 1
    m_Data: {fileID: 21300000, guid: 585f86080df8a3e4382fff50766a5872, type: 3}
  - m_RefCount: 1
    m_Data: {fileID: 21300000, guid: 21b749328d550a94c8f9dfe2c320ae52, type: 3}
  - m_RefCount: 1
    m_Data: {fileID: 21300000, guid: e6e903c00dbe26744bec6f0bab678785, type: 3}
  - m_RefCount: 1
    m_Data: {fileID: 21300000, guid: e8a17d18fdd14b3479a929a5a76cadd3, type: 3}
  - m_RefCount: 1
    m_Data: {fileID: 21300000, guid: 157cf3a26aec63f45b6cf2675a2a5b9a, type: 3}
  - m_RefCount: 1
    m_Data: {fileID: 21300000, guid: 9c59f01bf36c6c84988d995755487a67, type: 3}
  - m_RefCount: 1
    m_Data: {fileID: 21300000, guid: f3c6bb64dcdba9a42babb2c7c50e10e5, type: 3}
  - m_RefCount: 1
    m_Data: {fileID: 21300000, guid: 6275ef57bcd88a54897c69bf20c56ae3, type: 3}
  - m_RefCount: 1
    m_Data: {fileID: 21300000, guid: c81fe61658b8fb045aa9cdceddd647e8, type: 3}
  m_TileMatrixArray:
  - m_RefCount: 57
    m_Data:
      e00: 1
      e01: 0
      e02: 0
      e03: 0
      e10: 0
      e11: 1
      e12: 0
      e13: 0
      e20: 0
      e21: 0
      e22: 1
      e23: 0
      e30: 0
      e31: 0
      e32: 0
      e33: 1
  m_TileColorArray:
  - m_RefCount: 57
    m_Data: {r: 1, g: 1, b: 1, a: 1}
  m_TileObjectToInstantiateArray: []
  m_AnimationFrameRate: 1
  m_Color: {r: 1, g: 1, b: 1, a: 1}
  m_Origin: {x: -2, y: -6, z: 0}
  m_Size: {x: 12, y: 7, z: 1}
  m_TileAnchor: {x: 0.5, y: 0.5, z: 0}
  m_TileOrientation: 0
  m_TileOrientationMatrix:
    e00: 1
    e01: 0
    e02: 0
    e03: 0
    e10: 0
    e11: 1
    e12: 0
    e13: 0
    e20: 0
    e21: 0
    e22: 1
    e23: 0
    e30: 0
    e31: 0
    e32: 0
    e33: 1
--- !u!483693784 &1575864231165424139
TilemapRenderer:
  m_ObjectHideFlags: 0
  m_CorrespondingSourceObject: {fileID: 0}
  m_PrefabInstance: {fileID: 0}
  m_PrefabAsset: {fileID: 0}
  m_GameObject: {fileID: 5694061961649698932}
  m_Enabled: 1
  m_CastShadows: 0
  m_ReceiveShadows: 0
  m_DynamicOccludee: 0
  m_StaticShadowCaster: 0
  m_MotionVectors: 1
  m_LightProbeUsage: 0
  m_ReflectionProbeUsage: 0
  m_RayTracingMode: 0
  m_RayTraceProcedural: 0
  m_RenderingLayerMask: 1
  m_RendererPriority: 0
  m_Materials:
  - {fileID: 10754, guid: 0000000000000000f000000000000000, type: 0}
  m_StaticBatchInfo:
    firstSubMesh: 0
    subMeshCount: 0
  m_StaticBatchRoot: {fileID: 0}
  m_ProbeAnchor: {fileID: 0}
  m_LightProbeVolumeOverride: {fileID: 0}
  m_ScaleInLightmap: 1
  m_ReceiveGI: 1
  m_PreserveUVs: 0
  m_IgnoreNormalsForChartDetection: 0
  m_ImportantGI: 0
  m_StitchLightmapSeams: 1
  m_SelectedEditorRenderState: 0
  m_MinimumChartSize: 4
  m_AutoUVMaxDistance: 0.5
  m_AutoUVMaxAngle: 89
  m_LightmapParameters: {fileID: 0}
  m_SortingLayerID: 0
  m_SortingLayer: 0
  m_SortingOrder: 0
  m_ChunkSize: {x: 32, y: 32, z: 32}
  m_ChunkCullingBounds: {x: 0, y: 0, z: 0}
  m_MaxChunkCount: 16
  m_MaxFrameAge: 16
  m_SortOrder: 0
  m_Mode: 0
  m_DetectChunkCullingBounds: 0
  m_MaskInteraction: 0
--- !u!114 &4679439057634589666
MonoBehaviour:
  m_ObjectHideFlags: 0
  m_CorrespondingSourceObject: {fileID: 0}
  m_PrefabInstance: {fileID: 0}
  m_PrefabAsset: {fileID: 0}
  m_GameObject: {fileID: 0}
  m_Enabled: 1
  m_EditorHideFlags: 0
  m_Script: {fileID: 12395, guid: 0000000000000000e000000000000000, type: 0}
  m_Name: Palette Settings
  m_EditorClassIdentifier: 
  cellSizing: 0
  m_TransparencySortMode: 0
  m_TransparencySortAxis: {x: 0, y: 0, z: 1}
