%YAML 1.1
%TAG !u! tag:unity3d.com,2011:
--- !u!74 &7400000
AnimationClip:
  m_ObjectHideFlags: 0
  m_CorrespondingSourceObject: {fileID: 0}
  m_PrefabInstance: {fileID: 0}
  m_PrefabAsset: {fileID: 0}
  m_Name: walk
  serializedVersion: 6
  m_Legacy: 0
  m_Compressed: 0
  m_UseHighQualityCurve: 1
  m_RotationCurves: []
  m_CompressedRotationCurves: []
  m_EulerCurves: []
  m_PositionCurves: []
  m_ScaleCurves: []
  m_FloatCurves: []
  m_PPtrCurves:
  - curve:
    - time: 0
      value: {fileID: 776382594, guid: 65f22f0b929a41440b1235b8b06a4543, type: 3}
    - time: 0.0625
      value: {fileID: 927715231, guid: 65f22f0b929a41440b1235b8b06a4543, type: 3}
    - time: 0.125
      value: {fileID: -519759482, guid: 65f22f0b929a41440b1235b8b06a4543, type: 3}
    - time: 0.1875
      value: {fileID: 249353203, guid: 65f22f0b929a41440b1235b8b06a4543, type: 3}
    - time: 0.25
      value: {fileID: -1428068847, guid: 65f22f0b929a41440b1235b8b06a4543, type: 3}
    - time: 0.3125
      value: {fileID: 2041088663, guid: 65f22f0b929a41440b1235b8b06a4543, type: 3}
    - time: 0.375
      value: {fileID: 1106214117, guid: 65f22f0b929a41440b1235b8b06a4543, type: 3}
    - time: 0.4375
      value: {fileID: 1173171275, guid: 65f22f0b929a41440b1235b8b06a4543, type: 3}
    - time: 0.5
      value: {fileID: -2026469594, guid: 65f22f0b929a41440b1235b8b06a4543, type: 3}
    - time: 0.5625
      value: {fileID: -236356458, guid: 65f22f0b929a41440b1235b8b06a4543, type: 3}
    - time: 0.625
      value: {fileID: 10226975, guid: 65f22f0b929a41440b1235b8b06a4543, type: 3}
    - time: 0.6875
      value: {fileID: 395781537, guid: 65f22f0b929a41440b1235b8b06a4543, type: 3}
    - time: 0.75
      value: {fileID: -1682319484, guid: 65f22f0b929a41440b1235b8b06a4543, type: 3}
    attribute: m_Sprite
    path: image
    classID: 212
    script: {fileID: 0}
  m_SampleRate: 16
  m_WrapMode: 0
  m_Bounds:
    m_Center: {x: 0, y: 0, z: 0}
    m_Extent: {x: 0, y: 0, z: 0}
  m_ClipBindingConstant:
    genericBindings:
    - serializedVersion: 2
      path: 3309110367
      attribute: 0
      script: {fileID: 0}
      typeID: 212
      customType: 23
      isPPtrCurve: 1
    pptrCurveMapping:
    - {fileID: 776382594, guid: 65f22f0b929a41440b1235b8b06a4543, type: 3}
    - {fileID: 927715231, guid: 65f22f0b929a41440b1235b8b06a4543, type: 3}
    - {fileID: -519759482, guid: 65f22f0b929a41440b1235b8b06a4543, type: 3}
    - {fileID: 249353203, guid: 65f22f0b929a41440b1235b8b06a4543, type: 3}
    - {fileID: -1428068847, guid: 65f22f0b929a41440b1235b8b06a4543, type: 3}
    - {fileID: 2041088663, guid: 65f22f0b929a41440b1235b8b06a4543, type: 3}
    - {fileID: 1106214117, guid: 65f22f0b929a41440b1235b8b06a4543, type: 3}
    - {fileID: 1173171275, guid: 65f22f0b929a41440b1235b8b06a4543, type: 3}
    - {fileID: -2026469594, guid: 65f22f0b929a41440b1235b8b06a4543, type: 3}
    - {fileID: -236356458, guid: 65f22f0b929a41440b1235b8b06a4543, type: 3}
    - {fileID: 10226975, guid: 65f22f0b929a41440b1235b8b06a4543, type: 3}
    - {fileID: 395781537, guid: 65f22f0b929a41440b1235b8b06a4543, type: 3}
    - {fileID: -1682319484, guid: 65f22f0b929a41440b1235b8b06a4543, type: 3}
  m_AnimationClipSettings:
    serializedVersion: 2
    m_AdditiveReferencePoseClip: {fileID: 0}
    m_AdditiveReferencePoseTime: 0
    m_StartTime: 0
    m_StopTime: 0.8125
    m_OrientationOffsetY: 0
    m_Level: 0
    m_CycleOffset: 0
    m_HasAdditiveReferencePose: 0
    m_LoopTime: 1
    m_LoopBlend: 0
    m_LoopBlendOrientation: 0
    m_LoopBlendPositionY: 0
    m_LoopBlendPositionXZ: 0
    m_KeepOriginalOrientation: 0
    m_KeepOriginalPositionY: 1
    m_KeepOriginalPositionXZ: 0
    m_HeightFromFeet: 0
    m_Mirror: 0
  m_EditorCurves: []
  m_EulerEditorCurves: []
  m_HasGenericRootTransform: 0
  m_HasMotionFloatCurves: 0
  m_Events: []
