%YAML 1.1
%TAG !u! tag:unity3d.com,2011:
--- !u!221 &22100000
AnimatorOverrideController:
  m_ObjectHideFlags: 0
  m_CorrespondingSourceObject: {fileID: 0}
  m_PrefabInstance: {fileID: 0}
  m_PrefabAsset: {fileID: 0}
  m_Name: '[BOSS] Caveman'
  m_Controller: {fileID: 9100000, guid: 049357a1ee8e74a289cc18bed49ba463, type: 2}
  m_Clips:
  - m_OriginalClip: {fileID: 7400000, guid: 6e317d304e1149a4b982b4b6704e8091, type: 2}
    m_OverrideClip: {fileID: 7400000, guid: 66e7578aee80a49409167d1ce676640c, type: 2}
  - m_OriginalClip: {fileID: 7400000, guid: ae276b762de9a4986a080d9d7d011c5c, type: 2}
    m_OverrideClip: {fileID: 7400000, guid: d12cbf5feafc9f54faf01113d9bfe6eb, type: 2}
  - m_OriginalClip: {fileID: 7400000, guid: 103a328cea93645288a2d23f4c1213dd, type: 2}
    m_OverrideClip: {fileID: 7400000, guid: d95d47ebd7c1afb498f3bc52c6f8ad87, type: 2}
  - m_OriginalClip: {fileID: 7400000, guid: 59dac633fdcae45a18f8f25eadc158b3, type: 2}
    m_OverrideClip: {fileID: 7400000, guid: 90e5d78c4f142ba4fb79996701ac1908, type: 2}
  - m_OriginalClip: {fileID: 7400000, guid: eaeb65302a4271246a198923c60a70ea, type: 2}
    m_OverrideClip: {fileID: 7400000, guid: 66e7578aee80a49409167d1ce676640c, type: 2}
  - m_OriginalClip: {fileID: 7400000, guid: e3292b2d59467024a950a040a19941c1, type: 2}
    m_OverrideClip: {fileID: 7400000, guid: 0b66150231d268540bc6ec0491d7bfa3, type: 2}
  - m_OriginalClip: {fileID: 7400000, guid: f0e3527cc7aa64f44b6afac9d3ec1fc7, type: 2}
    m_OverrideClip: {fileID: 7400000, guid: e03343068c5deae429f4b537150060b0, type: 2}
