%YAML 1.1
%TAG !u! tag:unity3d.com,2011:
--- !u!74 &7400000
AnimationClip:
  m_ObjectHideFlags: 0
  m_CorrespondingSourceObject: {fileID: 0}
  m_PrefabInstance: {fileID: 0}
  m_PrefabAsset: {fileID: 0}
  m_Name: Warior_Walk
  serializedVersion: 6
  m_Legacy: 0
  m_Compressed: 0
  m_UseHighQualityCurve: 1
  m_RotationCurves: []
  m_CompressedRotationCurves: []
  m_EulerCurves: []
  m_PositionCurves: []
  m_ScaleCurves: []
  m_FloatCurves: []
  m_PPtrCurves:
  - curve:
    - time: 0
      value: {fileID: -1937301338, guid: f66db177a60108642986b79a2c3f8688, type: 3}
    - time: 0.05
      value: {fileID: -601906979, guid: f66db177a60108642986b79a2c3f8688, type: 3}
    - time: 0.1
      value: {fileID: 1582964729, guid: f66db177a60108642986b79a2c3f8688, type: 3}
    - time: 0.15
      value: {fileID: -1897681052, guid: f66db177a60108642986b79a2c3f8688, type: 3}
    - time: 0.2
      value: {fileID: 885944438, guid: f66db177a60108642986b79a2c3f8688, type: 3}
    - time: 0.25
      value: {fileID: 1635105108, guid: f66db177a60108642986b79a2c3f8688, type: 3}
    - time: 0.3
      value: {fileID: 719740056, guid: f66db177a60108642986b79a2c3f8688, type: 3}
    - time: 0.35
      value: {fileID: -1313142777, guid: f66db177a60108642986b79a2c3f8688, type: 3}
    - time: 0.4
      value: {fileID: -156656461, guid: f66db177a60108642986b79a2c3f8688, type: 3}
    - time: 0.45
      value: {fileID: -1942233069, guid: f66db177a60108642986b79a2c3f8688, type: 3}
    attribute: m_Sprite
    path: image
    classID: 212
    script: {fileID: 0}
  m_SampleRate: 20
  m_WrapMode: 0
  m_Bounds:
    m_Center: {x: 0, y: 0, z: 0}
    m_Extent: {x: 0, y: 0, z: 0}
  m_ClipBindingConstant:
    genericBindings:
    - serializedVersion: 2
      path: 3309110367
      attribute: 0
      script: {fileID: 0}
      typeID: 212
      customType: 23
      isPPtrCurve: 1
    pptrCurveMapping:
    - {fileID: -1937301338, guid: f66db177a60108642986b79a2c3f8688, type: 3}
    - {fileID: -601906979, guid: f66db177a60108642986b79a2c3f8688, type: 3}
    - {fileID: 1582964729, guid: f66db177a60108642986b79a2c3f8688, type: 3}
    - {fileID: -1897681052, guid: f66db177a60108642986b79a2c3f8688, type: 3}
    - {fileID: 885944438, guid: f66db177a60108642986b79a2c3f8688, type: 3}
    - {fileID: 1635105108, guid: f66db177a60108642986b79a2c3f8688, type: 3}
    - {fileID: 719740056, guid: f66db177a60108642986b79a2c3f8688, type: 3}
    - {fileID: -1313142777, guid: f66db177a60108642986b79a2c3f8688, type: 3}
    - {fileID: -156656461, guid: f66db177a60108642986b79a2c3f8688, type: 3}
    - {fileID: -1942233069, guid: f66db177a60108642986b79a2c3f8688, type: 3}
  m_AnimationClipSettings:
    serializedVersion: 2
    m_AdditiveReferencePoseClip: {fileID: 0}
    m_AdditiveReferencePoseTime: 0
    m_StartTime: 0
    m_StopTime: 0.5
    m_OrientationOffsetY: 0
    m_Level: 0
    m_CycleOffset: 0
    m_HasAdditiveReferencePose: 0
    m_LoopTime: 1
    m_LoopBlend: 0
    m_LoopBlendOrientation: 0
    m_LoopBlendPositionY: 0
    m_LoopBlendPositionXZ: 0
    m_KeepOriginalOrientation: 0
    m_KeepOriginalPositionY: 1
    m_KeepOriginalPositionXZ: 0
    m_HeightFromFeet: 0
    m_Mirror: 0
  m_EditorCurves: []
  m_EulerEditorCurves: []
  m_HasGenericRootTransform: 0
  m_HasMotionFloatCurves: 0
  m_Events: []
