%YAML 1.1
%TAG !u! tag:unity3d.com,2011:
--- !u!1 &3201692635318637543
GameObject:
  m_ObjectHideFlags: 0
  m_CorrespondingSourceObject: {fileID: 0}
  m_PrefabInstance: {fileID: 0}
  m_PrefabAsset: {fileID: 0}
  serializedVersion: 6
  m_Component:
  - component: {fileID: 4201501735894637730}
  - component: {fileID: 2489211724542255805}
  - component: {fileID: 5461040734805593226}
  m_Layer: 0
  m_Name: Layer1
  m_TagString: Untagged
  m_Icon: {fileID: 0}
  m_NavMeshLayer: 0
  m_StaticEditorFlags: 0
  m_IsActive: 1
--- !u!4 &4201501735894637730
Transform:
  m_ObjectHideFlags: 0
  m_CorrespondingSourceObject: {fileID: 0}
  m_PrefabInstance: {fileID: 0}
  m_PrefabAsset: {fileID: 0}
  m_GameObject: {fileID: 3201692635318637543}
  m_LocalRotation: {x: -0, y: -0, z: -0, w: 1}
  m_LocalPosition: {x: 0, y: 0, z: 0}
  m_LocalScale: {x: 1, y: 1, z: 1}
  m_ConstrainProportionsScale: 0
  m_Children: []
  m_Father: {fileID: 5189612929174218759}
  m_RootOrder: 0
  m_LocalEulerAnglesHint: {x: 0, y: 0, z: 0}
--- !u!1839735485 &2489211724542255805
Tilemap:
  m_ObjectHideFlags: 0
  m_CorrespondingSourceObject: {fileID: 0}
  m_PrefabInstance: {fileID: 0}
  m_PrefabAsset: {fileID: 0}
  m_GameObject: {fileID: 3201692635318637543}
  m_Enabled: 1
  m_Tiles:
  - first: {x: -2, y: -5, z: 0}
    second:
      serializedVersion: 2
      m_TileIndex: 25
      m_TileSpriteIndex: 25
      m_TileMatrixIndex: 0
      m_TileColorIndex: 0
      m_TileObjectToInstantiateIndex: 65535
      dummyAlignment: 0
      m_AllTileFlags: 1073741825
  - first: {x: -1, y: -5, z: 0}
    second:
      serializedVersion: 2
      m_TileIndex: 26
      m_TileSpriteIndex: 26
      m_TileMatrixIndex: 0
      m_TileColorIndex: 0
      m_TileObjectToInstantiateIndex: 65535
      dummyAlignment: 0
      m_AllTileFlags: 1073741825
  - first: {x: 0, y: -5, z: 0}
    second:
      serializedVersion: 2
      m_TileIndex: 27
      m_TileSpriteIndex: 27
      m_TileMatrixIndex: 0
      m_TileColorIndex: 0
      m_TileObjectToInstantiateIndex: 65535
      dummyAlignment: 0
      m_AllTileFlags: 1073741825
  - first: {x: 1, y: -5, z: 0}
    second:
      serializedVersion: 2
      m_TileIndex: 28
      m_TileSpriteIndex: 28
      m_TileMatrixIndex: 0
      m_TileColorIndex: 0
      m_TileObjectToInstantiateIndex: 65535
      dummyAlignment: 0
      m_AllTileFlags: 1073741825
  - first: {x: 2, y: -5, z: 0}
    second:
      serializedVersion: 2
      m_TileIndex: 29
      m_TileSpriteIndex: 29
      m_TileMatrixIndex: 0
      m_TileColorIndex: 0
      m_TileObjectToInstantiateIndex: 65535
      dummyAlignment: 0
      m_AllTileFlags: 1073741825
  - first: {x: -2, y: -4, z: 0}
    second:
      serializedVersion: 2
      m_TileIndex: 20
      m_TileSpriteIndex: 20
      m_TileMatrixIndex: 0
      m_TileColorIndex: 0
      m_TileObjectToInstantiateIndex: 65535
      dummyAlignment: 0
      m_AllTileFlags: 1073741825
  - first: {x: -1, y: -4, z: 0}
    second:
      serializedVersion: 2
      m_TileIndex: 21
      m_TileSpriteIndex: 21
      m_TileMatrixIndex: 0
      m_TileColorIndex: 0
      m_TileObjectToInstantiateIndex: 65535
      dummyAlignment: 0
      m_AllTileFlags: 1073741825
  - first: {x: 0, y: -4, z: 0}
    second:
      serializedVersion: 2
      m_TileIndex: 22
      m_TileSpriteIndex: 22
      m_TileMatrixIndex: 0
      m_TileColorIndex: 0
      m_TileObjectToInstantiateIndex: 65535
      dummyAlignment: 0
      m_AllTileFlags: 1073741825
  - first: {x: 1, y: -4, z: 0}
    second:
      serializedVersion: 2
      m_TileIndex: 23
      m_TileSpriteIndex: 23
      m_TileMatrixIndex: 0
      m_TileColorIndex: 0
      m_TileObjectToInstantiateIndex: 65535
      dummyAlignment: 0
      m_AllTileFlags: 1073741825
  - first: {x: 2, y: -4, z: 0}
    second:
      serializedVersion: 2
      m_TileIndex: 24
      m_TileSpriteIndex: 24
      m_TileMatrixIndex: 0
      m_TileColorIndex: 0
      m_TileObjectToInstantiateIndex: 65535
      dummyAlignment: 0
      m_AllTileFlags: 1073741825
  - first: {x: 4, y: -4, z: 0}
    second:
      serializedVersion: 2
      m_TileIndex: 50
      m_TileSpriteIndex: 50
      m_TileMatrixIndex: 0
      m_TileColorIndex: 0
      m_TileObjectToInstantiateIndex: 65535
      dummyAlignment: 0
      m_AllTileFlags: 1073741825
  - first: {x: 5, y: -4, z: 0}
    second:
      serializedVersion: 2
      m_TileIndex: 51
      m_TileSpriteIndex: 51
      m_TileMatrixIndex: 0
      m_TileColorIndex: 0
      m_TileObjectToInstantiateIndex: 65535
      dummyAlignment: 0
      m_AllTileFlags: 1073741825
  - first: {x: 6, y: -4, z: 0}
    second:
      serializedVersion: 2
      m_TileIndex: 52
      m_TileSpriteIndex: 52
      m_TileMatrixIndex: 0
      m_TileColorIndex: 0
      m_TileObjectToInstantiateIndex: 65535
      dummyAlignment: 0
      m_AllTileFlags: 1073741825
  - first: {x: -2, y: -3, z: 0}
    second:
      serializedVersion: 2
      m_TileIndex: 15
      m_TileSpriteIndex: 15
      m_TileMatrixIndex: 0
      m_TileColorIndex: 0
      m_TileObjectToInstantiateIndex: 65535
      dummyAlignment: 0
      m_AllTileFlags: 1073741825
  - first: {x: -1, y: -3, z: 0}
    second:
      serializedVersion: 2
      m_TileIndex: 16
      m_TileSpriteIndex: 16
      m_TileMatrixIndex: 0
      m_TileColorIndex: 0
      m_TileObjectToInstantiateIndex: 65535
      dummyAlignment: 0
      m_AllTileFlags: 1073741825
  - first: {x: 0, y: -3, z: 0}
    second:
      serializedVersion: 2
      m_TileIndex: 17
      m_TileSpriteIndex: 17
      m_TileMatrixIndex: 0
      m_TileColorIndex: 0
      m_TileObjectToInstantiateIndex: 65535
      dummyAlignment: 0
      m_AllTileFlags: 1073741825
  - first: {x: 1, y: -3, z: 0}
    second:
      serializedVersion: 2
      m_TileIndex: 18
      m_TileSpriteIndex: 18
      m_TileMatrixIndex: 0
      m_TileColorIndex: 0
      m_TileObjectToInstantiateIndex: 65535
      dummyAlignment: 0
      m_AllTileFlags: 1073741825
  - first: {x: 2, y: -3, z: 0}
    second:
      serializedVersion: 2
      m_TileIndex: 19
      m_TileSpriteIndex: 19
      m_TileMatrixIndex: 0
      m_TileColorIndex: 0
      m_TileObjectToInstantiateIndex: 65535
      dummyAlignment: 0
      m_AllTileFlags: 1073741825
  - first: {x: 4, y: -3, z: 0}
    second:
      serializedVersion: 2
      m_TileIndex: 45
      m_TileSpriteIndex: 45
      m_TileMatrixIndex: 0
      m_TileColorIndex: 0
      m_TileObjectToInstantiateIndex: 65535
      dummyAlignment: 0
      m_AllTileFlags: 1073741825
  - first: {x: 5, y: -3, z: 0}
    second:
      serializedVersion: 2
      m_TileIndex: 46
      m_TileSpriteIndex: 46
      m_TileMatrixIndex: 0
      m_TileColorIndex: 0
      m_TileObjectToInstantiateIndex: 65535
      dummyAlignment: 0
      m_AllTileFlags: 1073741825
  - first: {x: 6, y: -3, z: 0}
    second:
      serializedVersion: 2
      m_TileIndex: 47
      m_TileSpriteIndex: 47
      m_TileMatrixIndex: 0
      m_TileColorIndex: 0
      m_TileObjectToInstantiateIndex: 65535
      dummyAlignment: 0
      m_AllTileFlags: 1073741825
  - first: {x: 7, y: -3, z: 0}
    second:
      serializedVersion: 2
      m_TileIndex: 48
      m_TileSpriteIndex: 48
      m_TileMatrixIndex: 0
      m_TileColorIndex: 0
      m_TileObjectToInstantiateIndex: 65535
      dummyAlignment: 0
      m_AllTileFlags: 1073741825
  - first: {x: 8, y: -3, z: 0}
    second:
      serializedVersion: 2
      m_TileIndex: 49
      m_TileSpriteIndex: 49
      m_TileMatrixIndex: 0
      m_TileColorIndex: 0
      m_TileObjectToInstantiateIndex: 65535
      dummyAlignment: 0
      m_AllTileFlags: 1073741825
  - first: {x: -2, y: -2, z: 0}
    second:
      serializedVersion: 2
      m_TileIndex: 10
      m_TileSpriteIndex: 10
      m_TileMatrixIndex: 0
      m_TileColorIndex: 0
      m_TileObjectToInstantiateIndex: 65535
      dummyAlignment: 0
      m_AllTileFlags: 1073741825
  - first: {x: -1, y: -2, z: 0}
    second:
      serializedVersion: 2
      m_TileIndex: 11
      m_TileSpriteIndex: 11
      m_TileMatrixIndex: 0
      m_TileColorIndex: 0
      m_TileObjectToInstantiateIndex: 65535
      dummyAlignment: 0
      m_AllTileFlags: 1073741825
  - first: {x: 0, y: -2, z: 0}
    second:
      serializedVersion: 2
      m_TileIndex: 12
      m_TileSpriteIndex: 12
      m_TileMatrixIndex: 0
      m_TileColorIndex: 0
      m_TileObjectToInstantiateIndex: 65535
      dummyAlignment: 0
      m_AllTileFlags: 1073741825
  - first: {x: 1, y: -2, z: 0}
    second:
      serializedVersion: 2
      m_TileIndex: 13
      m_TileSpriteIndex: 13
      m_TileMatrixIndex: 0
      m_TileColorIndex: 0
      m_TileObjectToInstantiateIndex: 65535
      dummyAlignment: 0
      m_AllTileFlags: 1073741825
  - first: {x: 2, y: -2, z: 0}
    second:
      serializedVersion: 2
      m_TileIndex: 14
      m_TileSpriteIndex: 14
      m_TileMatrixIndex: 0
      m_TileColorIndex: 0
      m_TileObjectToInstantiateIndex: 65535
      dummyAlignment: 0
      m_AllTileFlags: 1073741825
  - first: {x: 4, y: -2, z: 0}
    second:
      serializedVersion: 2
      m_TileIndex: 40
      m_TileSpriteIndex: 40
      m_TileMatrixIndex: 0
      m_TileColorIndex: 0
      m_TileObjectToInstantiateIndex: 65535
      dummyAlignment: 0
      m_AllTileFlags: 1073741825
  - first: {x: 5, y: -2, z: 0}
    second:
      serializedVersion: 2
      m_TileIndex: 41
      m_TileSpriteIndex: 41
      m_TileMatrixIndex: 0
      m_TileColorIndex: 0
      m_TileObjectToInstantiateIndex: 65535
      dummyAlignment: 0
      m_AllTileFlags: 1073741825
  - first: {x: 6, y: -2, z: 0}
    second:
      serializedVersion: 2
      m_TileIndex: 42
      m_TileSpriteIndex: 42
      m_TileMatrixIndex: 0
      m_TileColorIndex: 0
      m_TileObjectToInstantiateIndex: 65535
      dummyAlignment: 0
      m_AllTileFlags: 1073741825
  - first: {x: 7, y: -2, z: 0}
    second:
      serializedVersion: 2
      m_TileIndex: 43
      m_TileSpriteIndex: 43
      m_TileMatrixIndex: 0
      m_TileColorIndex: 0
      m_TileObjectToInstantiateIndex: 65535
      dummyAlignment: 0
      m_AllTileFlags: 1073741825
  - first: {x: 8, y: -2, z: 0}
    second:
      serializedVersion: 2
      m_TileIndex: 44
      m_TileSpriteIndex: 44
      m_TileMatrixIndex: 0
      m_TileColorIndex: 0
      m_TileObjectToInstantiateIndex: 65535
      dummyAlignment: 0
      m_AllTileFlags: 1073741825
  - first: {x: -2, y: -1, z: 0}
    second:
      serializedVersion: 2
      m_TileIndex: 5
      m_TileSpriteIndex: 5
      m_TileMatrixIndex: 0
      m_TileColorIndex: 0
      m_TileObjectToInstantiateIndex: 65535
      dummyAlignment: 0
      m_AllTileFlags: 1073741825
  - first: {x: -1, y: -1, z: 0}
    second:
      serializedVersion: 2
      m_TileIndex: 6
      m_TileSpriteIndex: 6
      m_TileMatrixIndex: 0
      m_TileColorIndex: 0
      m_TileObjectToInstantiateIndex: 65535
      dummyAlignment: 0
      m_AllTileFlags: 1073741825
  - first: {x: 0, y: -1, z: 0}
    second:
      serializedVersion: 2
      m_TileIndex: 7
      m_TileSpriteIndex: 7
      m_TileMatrixIndex: 0
      m_TileColorIndex: 0
      m_TileObjectToInstantiateIndex: 65535
      dummyAlignment: 0
      m_AllTileFlags: 1073741825
  - first: {x: 1, y: -1, z: 0}
    second:
      serializedVersion: 2
      m_TileIndex: 8
      m_TileSpriteIndex: 8
      m_TileMatrixIndex: 0
      m_TileColorIndex: 0
      m_TileObjectToInstantiateIndex: 65535
      dummyAlignment: 0
      m_AllTileFlags: 1073741825
  - first: {x: 2, y: -1, z: 0}
    second:
      serializedVersion: 2
      m_TileIndex: 9
      m_TileSpriteIndex: 9
      m_TileMatrixIndex: 0
      m_TileColorIndex: 0
      m_TileObjectToInstantiateIndex: 65535
      dummyAlignment: 0
      m_AllTileFlags: 1073741825
  - first: {x: 4, y: -1, z: 0}
    second:
      serializedVersion: 2
      m_TileIndex: 35
      m_TileSpriteIndex: 35
      m_TileMatrixIndex: 0
      m_TileColorIndex: 0
      m_TileObjectToInstantiateIndex: 65535
      dummyAlignment: 0
      m_AllTileFlags: 1073741825
  - first: {x: 5, y: -1, z: 0}
    second:
      serializedVersion: 2
      m_TileIndex: 36
      m_TileSpriteIndex: 36
      m_TileMatrixIndex: 0
      m_TileColorIndex: 0
      m_TileObjectToInstantiateIndex: 65535
      dummyAlignment: 0
      m_AllTileFlags: 1073741825
  - first: {x: 6, y: -1, z: 0}
    second:
      serializedVersion: 2
      m_TileIndex: 37
      m_TileSpriteIndex: 37
      m_TileMatrixIndex: 0
      m_TileColorIndex: 0
      m_TileObjectToInstantiateIndex: 65535
      dummyAlignment: 0
      m_AllTileFlags: 1073741825
  - first: {x: 7, y: -1, z: 0}
    second:
      serializedVersion: 2
      m_TileIndex: 38
      m_TileSpriteIndex: 38
      m_TileMatrixIndex: 0
      m_TileColorIndex: 0
      m_TileObjectToInstantiateIndex: 65535
      dummyAlignment: 0
      m_AllTileFlags: 1073741825
  - first: {x: 8, y: -1, z: 0}
    second:
      serializedVersion: 2
      m_TileIndex: 39
      m_TileSpriteIndex: 39
      m_TileMatrixIndex: 0
      m_TileColorIndex: 0
      m_TileObjectToInstantiateIndex: 65535
      dummyAlignment: 0
      m_AllTileFlags: 1073741825
  - first: {x: -2, y: 0, z: 0}
    second:
      serializedVersion: 2
      m_TileIndex: 0
      m_TileSpriteIndex: 0
      m_TileMatrixIndex: 0
      m_TileColorIndex: 0
      m_TileObjectToInstantiateIndex: 65535
      dummyAlignment: 0
      m_AllTileFlags: 1073741825
  - first: {x: -1, y: 0, z: 0}
    second:
      serializedVersion: 2
      m_TileIndex: 1
      m_TileSpriteIndex: 1
      m_TileMatrixIndex: 0
      m_TileColorIndex: 0
      m_TileObjectToInstantiateIndex: 65535
      dummyAlignment: 0
      m_AllTileFlags: 1073741825
  - first: {x: 0, y: 0, z: 0}
    second:
      serializedVersion: 2
      m_TileIndex: 2
      m_TileSpriteIndex: 2
      m_TileMatrixIndex: 0
      m_TileColorIndex: 0
      m_TileObjectToInstantiateIndex: 65535
      dummyAlignment: 0
      m_AllTileFlags: 1073741825
  - first: {x: 1, y: 0, z: 0}
    second:
      serializedVersion: 2
      m_TileIndex: 3
      m_TileSpriteIndex: 3
      m_TileMatrixIndex: 0
      m_TileColorIndex: 0
      m_TileObjectToInstantiateIndex: 65535
      dummyAlignment: 0
      m_AllTileFlags: 1073741825
  - first: {x: 2, y: 0, z: 0}
    second:
      serializedVersion: 2
      m_TileIndex: 4
      m_TileSpriteIndex: 4
      m_TileMatrixIndex: 0
      m_TileColorIndex: 0
      m_TileObjectToInstantiateIndex: 65535
      dummyAlignment: 0
      m_AllTileFlags: 1073741825
  - first: {x: 4, y: 0, z: 0}
    second:
      serializedVersion: 2
      m_TileIndex: 30
      m_TileSpriteIndex: 30
      m_TileMatrixIndex: 0
      m_TileColorIndex: 0
      m_TileObjectToInstantiateIndex: 65535
      dummyAlignment: 0
      m_AllTileFlags: 1073741825
  - first: {x: 5, y: 0, z: 0}
    second:
      serializedVersion: 2
      m_TileIndex: 31
      m_TileSpriteIndex: 31
      m_TileMatrixIndex: 0
      m_TileColorIndex: 0
      m_TileObjectToInstantiateIndex: 65535
      dummyAlignment: 0
      m_AllTileFlags: 1073741825
  - first: {x: 6, y: 0, z: 0}
    second:
      serializedVersion: 2
      m_TileIndex: 32
      m_TileSpriteIndex: 32
      m_TileMatrixIndex: 0
      m_TileColorIndex: 0
      m_TileObjectToInstantiateIndex: 65535
      dummyAlignment: 0
      m_AllTileFlags: 1073741825
  - first: {x: 7, y: 0, z: 0}
    second:
      serializedVersion: 2
      m_TileIndex: 33
      m_TileSpriteIndex: 33
      m_TileMatrixIndex: 0
      m_TileColorIndex: 0
      m_TileObjectToInstantiateIndex: 65535
      dummyAlignment: 0
      m_AllTileFlags: 1073741825
  - first: {x: 8, y: 0, z: 0}
    second:
      serializedVersion: 2
      m_TileIndex: 34
      m_TileSpriteIndex: 34
      m_TileMatrixIndex: 0
      m_TileColorIndex: 0
      m_TileObjectToInstantiateIndex: 65535
      dummyAlignment: 0
      m_AllTileFlags: 1073741825
  m_AnimatedTiles: {}
  m_TileAssetArray:
  - m_RefCount: 1
    m_Data: {fileID: 11400000, guid: 58497cbf0e616f84c9b917834737bf69, type: 2}
  - m_RefCount: 1
    m_Data: {fileID: 11400000, guid: d424aec29ee1cb8489e6d0bd7d0595d7, type: 2}
  - m_RefCount: 1
    m_Data: {fileID: 11400000, guid: 3b60e5ae3d9d0eb4f8bea55a79079ed4, type: 2}
  - m_RefCount: 1
    m_Data: {fileID: 11400000, guid: 958aec4f6c7ca32408bfd839f3cfd12f, type: 2}
  - m_RefCount: 1
    m_Data: {fileID: 11400000, guid: bd985e31724c0124599051fc2860e63d, type: 2}
  - m_RefCount: 1
    m_Data: {fileID: 11400000, guid: 7d9d2d25ddac4e84fba8cbd8025ffbc5, type: 2}
  - m_RefCount: 1
    m_Data: {fileID: 11400000, guid: 8b9240c53fabd18448aa468543600ee0, type: 2}
  - m_RefCount: 1
    m_Data: {fileID: 11400000, guid: c8981e8d68ad2a14cbd828cc5229c696, type: 2}
  - m_RefCount: 1
    m_Data: {fileID: 11400000, guid: ea29f2a50d7bb084f8edd91556708bd2, type: 2}
  - m_RefCount: 1
    m_Data: {fileID: 11400000, guid: 074cab41af8616043bea5dd78a281eb2, type: 2}
  - m_RefCount: 1
    m_Data: {fileID: 11400000, guid: 042132110f2b83e42b381d34a7c68e55, type: 2}
  - m_RefCount: 1
    m_Data: {fileID: 11400000, guid: 9f91abc7dbf7e5b44aa53d8e60680803, type: 2}
  - m_RefCount: 1
    m_Data: {fileID: 11400000, guid: b7d56c270c3757a45843ce1e516c4c73, type: 2}
  - m_RefCount: 1
    m_Data: {fileID: 11400000, guid: c81e77b45804bda4aa691a8661b6ad7e, type: 2}
  - m_RefCount: 1
    m_Data: {fileID: 11400000, guid: 445c644a8c1c3cf46882f24426b708e1, type: 2}
  - m_RefCount: 1
    m_Data: {fileID: 11400000, guid: d1f23d45d2a25a64095071462b17a52f, type: 2}
  - m_RefCount: 1
    m_Data: {fileID: 11400000, guid: dd641211dc1e5e04183e39be2c4e880d, type: 2}
  - m_RefCount: 1
    m_Data: {fileID: 11400000, guid: 43e418f97c7e22f4896b250abf11185e, type: 2}
  - m_RefCount: 1
    m_Data: {fileID: 11400000, guid: c92d95d90c831f04eb582ce8e6062bfc, type: 2}
  - m_RefCount: 1
    m_Data: {fileID: 11400000, guid: 0394ad89f3aa4ed4385e8a07037aa460, type: 2}
  - m_RefCount: 1
    m_Data: {fileID: 11400000, guid: 68ba34a20ba7bf941ba0f099560d3b07, type: 2}
  - m_RefCount: 1
    m_Data: {fileID: 11400000, guid: 938d041df20500448a6ccdc431ed094d, type: 2}
  - m_RefCount: 1
    m_Data: {fileID: 11400000, guid: 5f951ae0f75637041a5cc4fda0c61790, type: 2}
  - m_RefCount: 1
    m_Data: {fileID: 11400000, guid: 97550f138ccebbb41b62576b4ed818a6, type: 2}
  - m_RefCount: 1
    m_Data: {fileID: 11400000, guid: 91f451531e27c8e448e9956c5c289174, type: 2}
  - m_RefCount: 1
    m_Data: {fileID: 11400000, guid: 4f5e63e1c33b7e6488a5a798fdddebe3, type: 2}
  - m_RefCount: 1
    m_Data: {fileID: 11400000, guid: 37d1f6593612e2a468d78f0b17ed3444, type: 2}
  - m_RefCount: 1
    m_Data: {fileID: 11400000, guid: e03223a356d3bb5479be964a21f6864e, type: 2}
  - m_RefCount: 1
    m_Data: {fileID: 11400000, guid: 2bf56f0557f073142b19788bcdbe7ff6, type: 2}
  - m_RefCount: 1
    m_Data: {fileID: 11400000, guid: f1dac5d9e8b886e46aeb043a572b28a4, type: 2}
  - m_RefCount: 1
    m_Data: {fileID: 11400000, guid: 5bbd8908cb1c6d3479246ae2a11dd6d3, type: 2}
  - m_RefCount: 1
    m_Data: {fileID: 11400000, guid: 45fa8eef9cf3d2245a44a83711849d50, type: 2}
  - m_RefCount: 1
    m_Data: {fileID: 11400000, guid: 046d24ce2bed6314d9cd36c9cb99ffe0, type: 2}
  - m_RefCount: 1
    m_Data: {fileID: 11400000, guid: 075341664f2b61145b005c7a9fdacff3, type: 2}
  - m_RefCount: 1
    m_Data: {fileID: 11400000, guid: b0767a55d51059f47a411f9a2b207442, type: 2}
  - m_RefCount: 1
    m_Data: {fileID: 11400000, guid: 2a78d8b0d98b5db4a8d82c738e411009, type: 2}
  - m_RefCount: 1
    m_Data: {fileID: 11400000, guid: c8071aa4be5779c4db981e6ce29b923c, type: 2}
  - m_RefCount: 1
    m_Data: {fileID: 11400000, guid: 461fafc1803500741aeb0a81832304f4, type: 2}
  - m_RefCount: 1
    m_Data: {fileID: 11400000, guid: df4d6a8dfbdcd444db29f2f512bc6a18, type: 2}
  - m_RefCount: 1
    m_Data: {fileID: 11400000, guid: 4e6102f5523570b4cb7f0331a5a8ae97, type: 2}
  - m_RefCount: 1
    m_Data: {fileID: 11400000, guid: 204c0eec33513be439c9407fa87e3ceb, type: 2}
  - m_RefCount: 1
    m_Data: {fileID: 11400000, guid: 8fc61342526cc5c4195d6c4801894c4c, type: 2}
  - m_RefCount: 1
    m_Data: {fileID: 11400000, guid: 4aac0513695335642828a7e43acd761c, type: 2}
  - m_RefCount: 1
    m_Data: {fileID: 11400000, guid: e8d7d2034d2b38740aecc62c6bf491f6, type: 2}
  - m_RefCount: 1
    m_Data: {fileID: 11400000, guid: ada17ff5e592f8a4897afd7fc96bb865, type: 2}
  - m_RefCount: 1
    m_Data: {fileID: 11400000, guid: 0d0b8ff96a3155040989c6dcdb5b9720, type: 2}
  - m_RefCount: 1
    m_Data: {fileID: 11400000, guid: dbdb4f06a880eaa4fa93fb501ff68b64, type: 2}
  - m_RefCount: 1
    m_Data: {fileID: 11400000, guid: 85413dedf73fea4458f782c4cc0811ec, type: 2}
  - m_RefCount: 1
    m_Data: {fileID: 11400000, guid: 28f9b48f89020a04687831a665108e13, type: 2}
  - m_RefCount: 1
    m_Data: {fileID: 11400000, guid: ca22014a2e3c5294b82cda0f822aa50f, type: 2}
  - m_RefCount: 1
    m_Data: {fileID: 11400000, guid: d41ffbc34edb97a4d96833afb80967c1, type: 2}
  - m_RefCount: 1
    m_Data: {fileID: 11400000, guid: 9e8d4ce236c0d3f46baa60d49bd48209, type: 2}
  - m_RefCount: 1
    m_Data: {fileID: 11400000, guid: 9d9de5c92b5a50c4093e54eb7c73ca61, type: 2}
  m_TileSpriteArray:
  - m_RefCount: 1
    m_Data: {fileID: 21300000, guid: 40033aa50cbebb44789f279854200fe9, type: 3}
  - m_RefCount: 1
    m_Data: {fileID: 21300000, guid: 1fabfb8a8add0c74c9a2f68cb837245f, type: 3}
  - m_RefCount: 1
    m_Data: {fileID: 21300000, guid: 653c5d31b00cb2644a00f93ab5d34911, type: 3}
  - m_RefCount: 1
    m_Data: {fileID: 21300000, guid: 2e9c5953f4625a043852f55988c144a5, type: 3}
  - m_RefCount: 1
    m_Data: {fileID: 21300000, guid: e5b2132f97b5deb49b7c8596236ac730, type: 3}
  - m_RefCount: 1
    m_Data: {fileID: 21300000, guid: 9133fd1f7b9534d44a071ae12e823feb, type: 3}
  - m_RefCount: 1
    m_Data: {fileID: 21300000, guid: 2f45027503c96834392bf03a239a9fcb, type: 3}
  - m_RefCount: 1
    m_Data: {fileID: 21300000, guid: ed9c2a36f52c19943b0614b663dc04a4, type: 3}
  - m_RefCount: 1
    m_Data: {fileID: 21300000, guid: 89eb8d7abf351f9498452f111a676396, type: 3}
  - m_RefCount: 1
    m_Data: {fileID: 21300000, guid: 5a6e89e4e5c1b8f4aa1ce771e76a024c, type: 3}
  - m_RefCount: 1
    m_Data: {fileID: 21300000, guid: 5bd08281238af454e9e74f0c2dd99055, type: 3}
  - m_RefCount: 1
    m_Data: {fileID: 21300000, guid: 2cde59b45e0196841a59aece97ffa6ff, type: 3}
  - m_RefCount: 1
    m_Data: {fileID: 21300000, guid: 2ca9d16f6b22f59469380dfc603f493c, type: 3}
  - m_RefCount: 1
    m_Data: {fileID: 21300000, guid: bfb0f1e0e730ec24a8d738bb2c905873, type: 3}
  - m_RefCount: 1
    m_Data: {fileID: 21300000, guid: 3f291cb0aa9d50d49a52757d61510fe1, type: 3}
  - m_RefCount: 1
    m_Data: {fileID: 21300000, guid: 73aee5623957c1449bb505fc6f420592, type: 3}
  - m_RefCount: 1
    m_Data: {fileID: 21300000, guid: e81caba6b4520dd4e910ed2c06fca1e8, type: 3}
  - m_RefCount: 1
    m_Data: {fileID: 21300000, guid: 1122e961e3078af4a87193bd0db43975, type: 3}
  - m_RefCount: 1
    m_Data: {fileID: 21300000, guid: 36a0d531a41dc684a8ac916dc5ce0c08, type: 3}
  - m_RefCount: 1
    m_Data: {fileID: 21300000, guid: f6d73e98968837248b1f90f1a7ffe889, type: 3}
  - m_RefCount: 1
    m_Data: {fileID: 21300000, guid: 14b352075f735e147a6b30c57fb0ca3a, type: 3}
  - m_RefCount: 1
    m_Data: {fileID: 21300000, guid: 57b9717d628a08d47973247552083ef5, type: 3}
  - m_RefCount: 1
    m_Data: {fileID: 21300000, guid: d0ba54f4416605f42a622b744121b24c, type: 3}
  - m_RefCount: 1
    m_Data: {fileID: 21300000, guid: dfc2d643acbb07c458a708822a685a69, type: 3}
  - m_RefCount: 1
    m_Data: {fileID: 21300000, guid: 900b30ce655e53c4c87f784ff112448d, type: 3}
  - m_RefCount: 1
    m_Data: {fileID: 21300000, guid: 78926f4c48449a94a94c64e296639d2b, type: 3}
  - m_RefCount: 1
    m_Data: {fileID: 21300000, guid: d6c7b263bec975f40b6116e76f7c6824, type: 3}
  - m_RefCount: 1
    m_Data: {fileID: 21300000, guid: 4de9f711132eda242a4ece94e3e39576, type: 3}
  - m_RefCount: 1
    m_Data: {fileID: 21300000, guid: ef8a155bf867e794985b9adf39ae1164, type: 3}
  - m_RefCount: 1
    m_Data: {fileID: 21300000, guid: 9a33b13d04f78914293df00ce038f74a, type: 3}
  - m_RefCount: 1
    m_Data: {fileID: 21300000, guid: f6bbd66a21aef7b489df43fd9758c5d8, type: 3}
  - m_RefCount: 1
    m_Data: {fileID: 21300000, guid: 0b478f81e27bfb04b92a77fe2043fd87, type: 3}
  - m_RefCount: 1
    m_Data: {fileID: 21300000, guid: 594e3ddc249c83045b8851d445726437, type: 3}
  - m_RefCount: 1
    m_Data: {fileID: 21300000, guid: ecaf9ef3fdc24ae4b83817b9c8e1f29f, type: 3}
  - m_RefCount: 1
    m_Data: {fileID: 21300000, guid: 52102c85f84b51243aaab40ea889d9bc, type: 3}
  - m_RefCount: 1
    m_Data: {fileID: 21300000, guid: 2e6fe252fa1e9434b8a435b4d7c86833, type: 3}
  - m_RefCount: 1
    m_Data: {fileID: 21300000, guid: cf06336cb226a584f8cdd7114b4e4daa, type: 3}
  - m_RefCount: 1
    m_Data: {fileID: 21300000, guid: 738cff9f85a2f2845b45346479f15bf3, type: 3}
  - m_RefCount: 1
    m_Data: {fileID: 21300000, guid: 8c6abbb789743d548a62d080af8db5ab, type: 3}
  - m_RefCount: 1
    m_Data: {fileID: 21300000, guid: 3687f57b148679e4faa761141b0adfd1, type: 3}
  - m_RefCount: 1
    m_Data: {fileID: 21300000, guid: 552d0cdc9f6470146b4dca8612ef1af2, type: 3}
  - m_RefCount: 1
    m_Data: {fileID: 21300000, guid: d254c38264f57ed49951105e0bf70e7c, type: 3}
  - m_RefCount: 1
    m_Data: {fileID: 21300000, guid: 2914c2ec562ad224a8944fd01a2fa2bb, type: 3}
  - m_RefCount: 1
    m_Data: {fileID: 21300000, guid: 2a5bdbe7d181fa949b84f666e9e19179, type: 3}
  - m_RefCount: 1
    m_Data: {fileID: 21300000, guid: 68203ff7e864b074e932c9361d2a9e2f, type: 3}
  - m_RefCount: 1
    m_Data: {fileID: 21300000, guid: 9334936512f091343bfd1b1726af54ac, type: 3}
  - m_RefCount: 1
    m_Data: {fileID: 21300000, guid: 51c8a0c97394ba149b98bc077202920e, type: 3}
  - m_RefCount: 1
    m_Data: {fileID: 21300000, guid: cc04260eb426f16479cdaf05f0867637, type: 3}
  - m_RefCount: 1
    m_Data: {fileID: 21300000, guid: 8c46bde7c7c539e49ba755a5000e4fc1, type: 3}
  - m_RefCount: 1
    m_Data: {fileID: 21300000, guid: f6dab394dc93fe14280358ab4432889c, type: 3}
  - m_RefCount: 1
    m_Data: {fileID: 21300000, guid: 24b8b0788e8804547ad296c10fff0fd4, type: 3}
  - m_RefCount: 1
    m_Data: {fileID: 21300000, guid: 1ec51e24bb96c3d40a519df40e3e10bf, type: 3}
  - m_RefCount: 1
    m_Data: {fileID: 21300000, guid: 3f0d0f3272f7dfc47b97f3a56f647299, type: 3}
  m_TileMatrixArray:
  - m_RefCount: 53
    m_Data:
      e00: 1
      e01: 0
      e02: 0
      e03: 0
      e10: 0
      e11: 1
      e12: 0
      e13: 0
      e20: 0
      e21: 0
      e22: 1
      e23: 0
      e30: 0
      e31: 0
      e32: 0
      e33: 1
  m_TileColorArray:
  - m_RefCount: 53
    m_Data: {r: 1, g: 1, b: 1, a: 1}
  m_TileObjectToInstantiateArray: []
  m_AnimationFrameRate: 1
  m_Color: {r: 1, g: 1, b: 1, a: 1}
  m_Origin: {x: -2, y: -5, z: 0}
  m_Size: {x: 11, y: 6, z: 1}
  m_TileAnchor: {x: 0.5, y: 0.5, z: 0}
  m_TileOrientation: 0
  m_TileOrientationMatrix:
    e00: 1
    e01: 0
    e02: 0
    e03: 0
    e10: 0
    e11: 1
    e12: 0
    e13: 0
    e20: 0
    e21: 0
    e22: 1
    e23: 0
    e30: 0
    e31: 0
    e32: 0
    e33: 1
--- !u!483693784 &5461040734805593226
TilemapRenderer:
  m_ObjectHideFlags: 0
  m_CorrespondingSourceObject: {fileID: 0}
  m_PrefabInstance: {fileID: 0}
  m_PrefabAsset: {fileID: 0}
  m_GameObject: {fileID: 3201692635318637543}
  m_Enabled: 1
  m_CastShadows: 0
  m_ReceiveShadows: 0
  m_DynamicOccludee: 0
  m_StaticShadowCaster: 0
  m_MotionVectors: 1
  m_LightProbeUsage: 0
  m_ReflectionProbeUsage: 0
  m_RayTracingMode: 0
  m_RayTraceProcedural: 0
  m_RenderingLayerMask: 1
  m_RendererPriority: 0
  m_Materials:
  - {fileID: 10754, guid: 0000000000000000f000000000000000, type: 0}
  m_StaticBatchInfo:
    firstSubMesh: 0
    subMeshCount: 0
  m_StaticBatchRoot: {fileID: 0}
  m_ProbeAnchor: {fileID: 0}
  m_LightProbeVolumeOverride: {fileID: 0}
  m_ScaleInLightmap: 1
  m_ReceiveGI: 1
  m_PreserveUVs: 0
  m_IgnoreNormalsForChartDetection: 0
  m_ImportantGI: 0
  m_StitchLightmapSeams: 1
  m_SelectedEditorRenderState: 0
  m_MinimumChartSize: 4
  m_AutoUVMaxDistance: 0.5
  m_AutoUVMaxAngle: 89
  m_LightmapParameters: {fileID: 0}
  m_SortingLayerID: 0
  m_SortingLayer: 0
  m_SortingOrder: 0
  m_ChunkSize: {x: 32, y: 32, z: 32}
  m_ChunkCullingBounds: {x: 0.3, y: 0.3, z: 0}
  m_MaxChunkCount: 16
  m_MaxFrameAge: 16
  m_SortOrder: 0
  m_Mode: 0
  m_DetectChunkCullingBounds: 0
  m_MaskInteraction: 0
--- !u!1 &6430338983051840764
GameObject:
  m_ObjectHideFlags: 0
  m_CorrespondingSourceObject: {fileID: 0}
  m_PrefabInstance: {fileID: 0}
  m_PrefabAsset: {fileID: 0}
  serializedVersion: 6
  m_Component:
  - component: {fileID: 5189612929174218759}
  - component: {fileID: 3278893595458900026}
  m_Layer: 0
  m_Name: Winter Cartoon
  m_TagString: Untagged
  m_Icon: {fileID: 0}
  m_NavMeshLayer: 0
  m_StaticEditorFlags: 0
  m_IsActive: 1
--- !u!4 &5189612929174218759
Transform:
  m_ObjectHideFlags: 0
  m_CorrespondingSourceObject: {fileID: 0}
  m_PrefabInstance: {fileID: 0}
  m_PrefabAsset: {fileID: 0}
  m_GameObject: {fileID: 6430338983051840764}
  m_LocalRotation: {x: 0, y: 0, z: 0, w: 1}
  m_LocalPosition: {x: 0, y: 0, z: 0}
  m_LocalScale: {x: 1, y: 1, z: 1}
  m_ConstrainProportionsScale: 0
  m_Children:
  - {fileID: 4201501735894637730}
  m_Father: {fileID: 0}
  m_RootOrder: 0
  m_LocalEulerAnglesHint: {x: 0, y: 0, z: 0}
--- !u!156049354 &3278893595458900026
Grid:
  m_ObjectHideFlags: 0
  m_CorrespondingSourceObject: {fileID: 0}
  m_PrefabInstance: {fileID: 0}
  m_PrefabAsset: {fileID: 0}
  m_GameObject: {fileID: 6430338983051840764}
  m_Enabled: 1
  m_CellSize: {x: 1.6, y: 1.6, z: 0}
  m_CellGap: {x: 0, y: 0, z: 0}
  m_CellLayout: 0
  m_CellSwizzle: 0
--- !u!114 &4063754230103784335
MonoBehaviour:
  m_ObjectHideFlags: 0
  m_CorrespondingSourceObject: {fileID: 0}
  m_PrefabInstance: {fileID: 0}
  m_PrefabAsset: {fileID: 0}
  m_GameObject: {fileID: 0}
  m_Enabled: 1
  m_EditorHideFlags: 0
  m_Script: {fileID: 12395, guid: 0000000000000000e000000000000000, type: 0}
  m_Name: Palette Settings
  m_EditorClassIdentifier: 
  cellSizing: 0
  m_TransparencySortMode: 0
  m_TransparencySortAxis: {x: 0, y: 0, z: 1}
