%YAML 1.1
%TAG !u! tag:unity3d.com,2011:
--- !u!1 &7572864899395805811
GameObject:
  m_ObjectHideFlags: 0
  m_CorrespondingSourceObject: {fileID: 0}
  m_PrefabInstance: {fileID: 0}
  m_PrefabAsset: {fileID: 0}
  serializedVersion: 6
  m_Component:
  - component: {fileID: 4648403357996185359}
  - component: {fileID: 7416454917826444704}
  - component: {fileID: 8574520076702806347}
  m_Layer: 0
  m_Name: Layer1
  m_TagString: Untagged
  m_Icon: {fileID: 0}
  m_NavMeshLayer: 0
  m_StaticEditorFlags: 0
  m_IsActive: 1
--- !u!4 &4648403357996185359
Transform:
  m_ObjectHideFlags: 0
  m_CorrespondingSourceObject: {fileID: 0}
  m_PrefabInstance: {fileID: 0}
  m_PrefabAsset: {fileID: 0}
  m_GameObject: {fileID: 7572864899395805811}
  m_LocalRotation: {x: -0, y: -0, z: -0, w: 1}
  m_LocalPosition: {x: 0, y: 0, z: 0}
  m_LocalScale: {x: 1, y: 1, z: 1}
  m_ConstrainProportionsScale: 0
  m_Children: []
  m_Father: {fileID: 6002023712325558448}
  m_RootOrder: 0
  m_LocalEulerAnglesHint: {x: 0, y: 0, z: 0}
--- !u!1839735485 &7416454917826444704
Tilemap:
  m_ObjectHideFlags: 0
  m_CorrespondingSourceObject: {fileID: 0}
  m_PrefabInstance: {fileID: 0}
  m_PrefabAsset: {fileID: 0}
  m_GameObject: {fileID: 7572864899395805811}
  m_Enabled: 1
  m_Tiles:
  - first: {x: -3, y: -5, z: 0}
    second:
      serializedVersion: 2
      m_TileIndex: 25
      m_TileSpriteIndex: 25
      m_TileMatrixIndex: 0
      m_TileColorIndex: 0
      m_TileObjectToInstantiateIndex: 65535
      dummyAlignment: 0
      m_AllTileFlags: 1073741825
  - first: {x: -2, y: -5, z: 0}
    second:
      serializedVersion: 2
      m_TileIndex: 26
      m_TileSpriteIndex: 26
      m_TileMatrixIndex: 0
      m_TileColorIndex: 0
      m_TileObjectToInstantiateIndex: 65535
      dummyAlignment: 0
      m_AllTileFlags: 1073741825
  - first: {x: -1, y: -5, z: 0}
    second:
      serializedVersion: 2
      m_TileIndex: 27
      m_TileSpriteIndex: 27
      m_TileMatrixIndex: 0
      m_TileColorIndex: 0
      m_TileObjectToInstantiateIndex: 65535
      dummyAlignment: 0
      m_AllTileFlags: 1073741825
  - first: {x: 0, y: -5, z: 0}
    second:
      serializedVersion: 2
      m_TileIndex: 28
      m_TileSpriteIndex: 28
      m_TileMatrixIndex: 0
      m_TileColorIndex: 0
      m_TileObjectToInstantiateIndex: 65535
      dummyAlignment: 0
      m_AllTileFlags: 1073741825
  - first: {x: 1, y: -5, z: 0}
    second:
      serializedVersion: 2
      m_TileIndex: 29
      m_TileSpriteIndex: 29
      m_TileMatrixIndex: 0
      m_TileColorIndex: 0
      m_TileObjectToInstantiateIndex: 65535
      dummyAlignment: 0
      m_AllTileFlags: 1073741825
  - first: {x: -3, y: -4, z: 0}
    second:
      serializedVersion: 2
      m_TileIndex: 20
      m_TileSpriteIndex: 20
      m_TileMatrixIndex: 0
      m_TileColorIndex: 0
      m_TileObjectToInstantiateIndex: 65535
      dummyAlignment: 0
      m_AllTileFlags: 1073741825
  - first: {x: -2, y: -4, z: 0}
    second:
      serializedVersion: 2
      m_TileIndex: 21
      m_TileSpriteIndex: 21
      m_TileMatrixIndex: 0
      m_TileColorIndex: 0
      m_TileObjectToInstantiateIndex: 65535
      dummyAlignment: 0
      m_AllTileFlags: 1073741825
  - first: {x: -1, y: -4, z: 0}
    second:
      serializedVersion: 2
      m_TileIndex: 22
      m_TileSpriteIndex: 22
      m_TileMatrixIndex: 0
      m_TileColorIndex: 0
      m_TileObjectToInstantiateIndex: 65535
      dummyAlignment: 0
      m_AllTileFlags: 1073741825
  - first: {x: 0, y: -4, z: 0}
    second:
      serializedVersion: 2
      m_TileIndex: 23
      m_TileSpriteIndex: 23
      m_TileMatrixIndex: 0
      m_TileColorIndex: 0
      m_TileObjectToInstantiateIndex: 65535
      dummyAlignment: 0
      m_AllTileFlags: 1073741825
  - first: {x: 1, y: -4, z: 0}
    second:
      serializedVersion: 2
      m_TileIndex: 24
      m_TileSpriteIndex: 24
      m_TileMatrixIndex: 0
      m_TileColorIndex: 0
      m_TileObjectToInstantiateIndex: 65535
      dummyAlignment: 0
      m_AllTileFlags: 1073741825
  - first: {x: 3, y: -4, z: 0}
    second:
      serializedVersion: 2
      m_TileIndex: 50
      m_TileSpriteIndex: 50
      m_TileMatrixIndex: 0
      m_TileColorIndex: 0
      m_TileObjectToInstantiateIndex: 65535
      dummyAlignment: 0
      m_AllTileFlags: 1073741825
  - first: {x: 4, y: -4, z: 0}
    second:
      serializedVersion: 2
      m_TileIndex: 51
      m_TileSpriteIndex: 51
      m_TileMatrixIndex: 0
      m_TileColorIndex: 0
      m_TileObjectToInstantiateIndex: 65535
      dummyAlignment: 0
      m_AllTileFlags: 1073741825
  - first: {x: 5, y: -4, z: 0}
    second:
      serializedVersion: 2
      m_TileIndex: 52
      m_TileSpriteIndex: 52
      m_TileMatrixIndex: 0
      m_TileColorIndex: 0
      m_TileObjectToInstantiateIndex: 65535
      dummyAlignment: 0
      m_AllTileFlags: 1073741825
  - first: {x: -3, y: -3, z: 0}
    second:
      serializedVersion: 2
      m_TileIndex: 15
      m_TileSpriteIndex: 15
      m_TileMatrixIndex: 0
      m_TileColorIndex: 0
      m_TileObjectToInstantiateIndex: 65535
      dummyAlignment: 0
      m_AllTileFlags: 1073741825
  - first: {x: -2, y: -3, z: 0}
    second:
      serializedVersion: 2
      m_TileIndex: 16
      m_TileSpriteIndex: 16
      m_TileMatrixIndex: 0
      m_TileColorIndex: 0
      m_TileObjectToInstantiateIndex: 65535
      dummyAlignment: 0
      m_AllTileFlags: 1073741825
  - first: {x: -1, y: -3, z: 0}
    second:
      serializedVersion: 2
      m_TileIndex: 17
      m_TileSpriteIndex: 17
      m_TileMatrixIndex: 0
      m_TileColorIndex: 0
      m_TileObjectToInstantiateIndex: 65535
      dummyAlignment: 0
      m_AllTileFlags: 1073741825
  - first: {x: 0, y: -3, z: 0}
    second:
      serializedVersion: 2
      m_TileIndex: 18
      m_TileSpriteIndex: 18
      m_TileMatrixIndex: 0
      m_TileColorIndex: 0
      m_TileObjectToInstantiateIndex: 65535
      dummyAlignment: 0
      m_AllTileFlags: 1073741825
  - first: {x: 1, y: -3, z: 0}
    second:
      serializedVersion: 2
      m_TileIndex: 19
      m_TileSpriteIndex: 19
      m_TileMatrixIndex: 0
      m_TileColorIndex: 0
      m_TileObjectToInstantiateIndex: 65535
      dummyAlignment: 0
      m_AllTileFlags: 1073741825
  - first: {x: 3, y: -3, z: 0}
    second:
      serializedVersion: 2
      m_TileIndex: 45
      m_TileSpriteIndex: 45
      m_TileMatrixIndex: 0
      m_TileColorIndex: 0
      m_TileObjectToInstantiateIndex: 65535
      dummyAlignment: 0
      m_AllTileFlags: 1073741825
  - first: {x: 4, y: -3, z: 0}
    second:
      serializedVersion: 2
      m_TileIndex: 46
      m_TileSpriteIndex: 46
      m_TileMatrixIndex: 0
      m_TileColorIndex: 0
      m_TileObjectToInstantiateIndex: 65535
      dummyAlignment: 0
      m_AllTileFlags: 1073741825
  - first: {x: 5, y: -3, z: 0}
    second:
      serializedVersion: 2
      m_TileIndex: 47
      m_TileSpriteIndex: 47
      m_TileMatrixIndex: 0
      m_TileColorIndex: 0
      m_TileObjectToInstantiateIndex: 65535
      dummyAlignment: 0
      m_AllTileFlags: 1073741825
  - first: {x: 6, y: -3, z: 0}
    second:
      serializedVersion: 2
      m_TileIndex: 48
      m_TileSpriteIndex: 48
      m_TileMatrixIndex: 0
      m_TileColorIndex: 0
      m_TileObjectToInstantiateIndex: 65535
      dummyAlignment: 0
      m_AllTileFlags: 1073741825
  - first: {x: 7, y: -3, z: 0}
    second:
      serializedVersion: 2
      m_TileIndex: 49
      m_TileSpriteIndex: 49
      m_TileMatrixIndex: 0
      m_TileColorIndex: 0
      m_TileObjectToInstantiateIndex: 65535
      dummyAlignment: 0
      m_AllTileFlags: 1073741825
  - first: {x: -3, y: -2, z: 0}
    second:
      serializedVersion: 2
      m_TileIndex: 10
      m_TileSpriteIndex: 10
      m_TileMatrixIndex: 0
      m_TileColorIndex: 0
      m_TileObjectToInstantiateIndex: 65535
      dummyAlignment: 0
      m_AllTileFlags: 1073741825
  - first: {x: -2, y: -2, z: 0}
    second:
      serializedVersion: 2
      m_TileIndex: 11
      m_TileSpriteIndex: 11
      m_TileMatrixIndex: 0
      m_TileColorIndex: 0
      m_TileObjectToInstantiateIndex: 65535
      dummyAlignment: 0
      m_AllTileFlags: 1073741825
  - first: {x: -1, y: -2, z: 0}
    second:
      serializedVersion: 2
      m_TileIndex: 12
      m_TileSpriteIndex: 12
      m_TileMatrixIndex: 0
      m_TileColorIndex: 0
      m_TileObjectToInstantiateIndex: 65535
      dummyAlignment: 0
      m_AllTileFlags: 1073741825
  - first: {x: 0, y: -2, z: 0}
    second:
      serializedVersion: 2
      m_TileIndex: 13
      m_TileSpriteIndex: 13
      m_TileMatrixIndex: 0
      m_TileColorIndex: 0
      m_TileObjectToInstantiateIndex: 65535
      dummyAlignment: 0
      m_AllTileFlags: 1073741825
  - first: {x: 1, y: -2, z: 0}
    second:
      serializedVersion: 2
      m_TileIndex: 14
      m_TileSpriteIndex: 14
      m_TileMatrixIndex: 0
      m_TileColorIndex: 0
      m_TileObjectToInstantiateIndex: 65535
      dummyAlignment: 0
      m_AllTileFlags: 1073741825
  - first: {x: 3, y: -2, z: 0}
    second:
      serializedVersion: 2
      m_TileIndex: 40
      m_TileSpriteIndex: 40
      m_TileMatrixIndex: 0
      m_TileColorIndex: 0
      m_TileObjectToInstantiateIndex: 65535
      dummyAlignment: 0
      m_AllTileFlags: 1073741825
  - first: {x: 4, y: -2, z: 0}
    second:
      serializedVersion: 2
      m_TileIndex: 41
      m_TileSpriteIndex: 41
      m_TileMatrixIndex: 0
      m_TileColorIndex: 0
      m_TileObjectToInstantiateIndex: 65535
      dummyAlignment: 0
      m_AllTileFlags: 1073741825
  - first: {x: 5, y: -2, z: 0}
    second:
      serializedVersion: 2
      m_TileIndex: 42
      m_TileSpriteIndex: 42
      m_TileMatrixIndex: 0
      m_TileColorIndex: 0
      m_TileObjectToInstantiateIndex: 65535
      dummyAlignment: 0
      m_AllTileFlags: 1073741825
  - first: {x: 6, y: -2, z: 0}
    second:
      serializedVersion: 2
      m_TileIndex: 43
      m_TileSpriteIndex: 43
      m_TileMatrixIndex: 0
      m_TileColorIndex: 0
      m_TileObjectToInstantiateIndex: 65535
      dummyAlignment: 0
      m_AllTileFlags: 1073741825
  - first: {x: 7, y: -2, z: 0}
    second:
      serializedVersion: 2
      m_TileIndex: 44
      m_TileSpriteIndex: 44
      m_TileMatrixIndex: 0
      m_TileColorIndex: 0
      m_TileObjectToInstantiateIndex: 65535
      dummyAlignment: 0
      m_AllTileFlags: 1073741825
  - first: {x: -3, y: -1, z: 0}
    second:
      serializedVersion: 2
      m_TileIndex: 5
      m_TileSpriteIndex: 5
      m_TileMatrixIndex: 0
      m_TileColorIndex: 0
      m_TileObjectToInstantiateIndex: 65535
      dummyAlignment: 0
      m_AllTileFlags: 1073741825
  - first: {x: -2, y: -1, z: 0}
    second:
      serializedVersion: 2
      m_TileIndex: 6
      m_TileSpriteIndex: 6
      m_TileMatrixIndex: 0
      m_TileColorIndex: 0
      m_TileObjectToInstantiateIndex: 65535
      dummyAlignment: 0
      m_AllTileFlags: 1073741825
  - first: {x: -1, y: -1, z: 0}
    second:
      serializedVersion: 2
      m_TileIndex: 7
      m_TileSpriteIndex: 7
      m_TileMatrixIndex: 0
      m_TileColorIndex: 0
      m_TileObjectToInstantiateIndex: 65535
      dummyAlignment: 0
      m_AllTileFlags: 1073741825
  - first: {x: 0, y: -1, z: 0}
    second:
      serializedVersion: 2
      m_TileIndex: 8
      m_TileSpriteIndex: 8
      m_TileMatrixIndex: 0
      m_TileColorIndex: 0
      m_TileObjectToInstantiateIndex: 65535
      dummyAlignment: 0
      m_AllTileFlags: 1073741825
  - first: {x: 1, y: -1, z: 0}
    second:
      serializedVersion: 2
      m_TileIndex: 9
      m_TileSpriteIndex: 9
      m_TileMatrixIndex: 0
      m_TileColorIndex: 0
      m_TileObjectToInstantiateIndex: 65535
      dummyAlignment: 0
      m_AllTileFlags: 1073741825
  - first: {x: 3, y: -1, z: 0}
    second:
      serializedVersion: 2
      m_TileIndex: 35
      m_TileSpriteIndex: 35
      m_TileMatrixIndex: 0
      m_TileColorIndex: 0
      m_TileObjectToInstantiateIndex: 65535
      dummyAlignment: 0
      m_AllTileFlags: 1073741825
  - first: {x: 4, y: -1, z: 0}
    second:
      serializedVersion: 2
      m_TileIndex: 36
      m_TileSpriteIndex: 36
      m_TileMatrixIndex: 0
      m_TileColorIndex: 0
      m_TileObjectToInstantiateIndex: 65535
      dummyAlignment: 0
      m_AllTileFlags: 1073741825
  - first: {x: 5, y: -1, z: 0}
    second:
      serializedVersion: 2
      m_TileIndex: 37
      m_TileSpriteIndex: 37
      m_TileMatrixIndex: 0
      m_TileColorIndex: 0
      m_TileObjectToInstantiateIndex: 65535
      dummyAlignment: 0
      m_AllTileFlags: 1073741825
  - first: {x: 6, y: -1, z: 0}
    second:
      serializedVersion: 2
      m_TileIndex: 38
      m_TileSpriteIndex: 38
      m_TileMatrixIndex: 0
      m_TileColorIndex: 0
      m_TileObjectToInstantiateIndex: 65535
      dummyAlignment: 0
      m_AllTileFlags: 1073741825
  - first: {x: 7, y: -1, z: 0}
    second:
      serializedVersion: 2
      m_TileIndex: 39
      m_TileSpriteIndex: 39
      m_TileMatrixIndex: 0
      m_TileColorIndex: 0
      m_TileObjectToInstantiateIndex: 65535
      dummyAlignment: 0
      m_AllTileFlags: 1073741825
  - first: {x: -3, y: 0, z: 0}
    second:
      serializedVersion: 2
      m_TileIndex: 0
      m_TileSpriteIndex: 0
      m_TileMatrixIndex: 0
      m_TileColorIndex: 0
      m_TileObjectToInstantiateIndex: 65535
      dummyAlignment: 0
      m_AllTileFlags: 1073741825
  - first: {x: -2, y: 0, z: 0}
    second:
      serializedVersion: 2
      m_TileIndex: 1
      m_TileSpriteIndex: 1
      m_TileMatrixIndex: 0
      m_TileColorIndex: 0
      m_TileObjectToInstantiateIndex: 65535
      dummyAlignment: 0
      m_AllTileFlags: 1073741825
  - first: {x: -1, y: 0, z: 0}
    second:
      serializedVersion: 2
      m_TileIndex: 2
      m_TileSpriteIndex: 2
      m_TileMatrixIndex: 0
      m_TileColorIndex: 0
      m_TileObjectToInstantiateIndex: 65535
      dummyAlignment: 0
      m_AllTileFlags: 1073741825
  - first: {x: 0, y: 0, z: 0}
    second:
      serializedVersion: 2
      m_TileIndex: 3
      m_TileSpriteIndex: 3
      m_TileMatrixIndex: 0
      m_TileColorIndex: 0
      m_TileObjectToInstantiateIndex: 65535
      dummyAlignment: 0
      m_AllTileFlags: 1073741825
  - first: {x: 1, y: 0, z: 0}
    second:
      serializedVersion: 2
      m_TileIndex: 4
      m_TileSpriteIndex: 4
      m_TileMatrixIndex: 0
      m_TileColorIndex: 0
      m_TileObjectToInstantiateIndex: 65535
      dummyAlignment: 0
      m_AllTileFlags: 1073741825
  - first: {x: 3, y: 0, z: 0}
    second:
      serializedVersion: 2
      m_TileIndex: 30
      m_TileSpriteIndex: 30
      m_TileMatrixIndex: 0
      m_TileColorIndex: 0
      m_TileObjectToInstantiateIndex: 65535
      dummyAlignment: 0
      m_AllTileFlags: 1073741825
  - first: {x: 4, y: 0, z: 0}
    second:
      serializedVersion: 2
      m_TileIndex: 31
      m_TileSpriteIndex: 31
      m_TileMatrixIndex: 0
      m_TileColorIndex: 0
      m_TileObjectToInstantiateIndex: 65535
      dummyAlignment: 0
      m_AllTileFlags: 1073741825
  - first: {x: 5, y: 0, z: 0}
    second:
      serializedVersion: 2
      m_TileIndex: 32
      m_TileSpriteIndex: 32
      m_TileMatrixIndex: 0
      m_TileColorIndex: 0
      m_TileObjectToInstantiateIndex: 65535
      dummyAlignment: 0
      m_AllTileFlags: 1073741825
  - first: {x: 6, y: 0, z: 0}
    second:
      serializedVersion: 2
      m_TileIndex: 33
      m_TileSpriteIndex: 33
      m_TileMatrixIndex: 0
      m_TileColorIndex: 0
      m_TileObjectToInstantiateIndex: 65535
      dummyAlignment: 0
      m_AllTileFlags: 1073741825
  - first: {x: 7, y: 0, z: 0}
    second:
      serializedVersion: 2
      m_TileIndex: 34
      m_TileSpriteIndex: 34
      m_TileMatrixIndex: 0
      m_TileColorIndex: 0
      m_TileObjectToInstantiateIndex: 65535
      dummyAlignment: 0
      m_AllTileFlags: 1073741825
  m_AnimatedTiles: {}
  m_TileAssetArray:
  - m_RefCount: 1
    m_Data: {fileID: 11400000, guid: 7e38dcb106602db49a2a7a5df20abd30, type: 2}
  - m_RefCount: 1
    m_Data: {fileID: 11400000, guid: 87b517747756d954db5b43a5fd5ccdda, type: 2}
  - m_RefCount: 1
    m_Data: {fileID: 11400000, guid: 704e3ebc5423cd7439b1286f1878d641, type: 2}
  - m_RefCount: 1
    m_Data: {fileID: 11400000, guid: af105e43ca56a044a893543239b4d49e, type: 2}
  - m_RefCount: 1
    m_Data: {fileID: 11400000, guid: bed8045091922514a8dd7806b9988d40, type: 2}
  - m_RefCount: 1
    m_Data: {fileID: 11400000, guid: 3e6a1b4c39c6e874abb94f51f0bdb759, type: 2}
  - m_RefCount: 1
    m_Data: {fileID: 11400000, guid: d4f2c80b52ee2f2479daa8cbf33eb056, type: 2}
  - m_RefCount: 1
    m_Data: {fileID: 11400000, guid: cb041a4b79a61a74b9f5785d1e157909, type: 2}
  - m_RefCount: 1
    m_Data: {fileID: 11400000, guid: 2accf4e9cce847b46bdfc8c70cf403eb, type: 2}
  - m_RefCount: 1
    m_Data: {fileID: 11400000, guid: 2a77530ec1d0e2e439311683948438c1, type: 2}
  - m_RefCount: 1
    m_Data: {fileID: 11400000, guid: dea6c574d6a2c544386e1f8dc2365442, type: 2}
  - m_RefCount: 1
    m_Data: {fileID: 11400000, guid: 9fb247cd31fca8e44a346d74422dd90b, type: 2}
  - m_RefCount: 1
    m_Data: {fileID: 11400000, guid: 7608c91ceb970674f8d04899dd3f65de, type: 2}
  - m_RefCount: 1
    m_Data: {fileID: 11400000, guid: 23b85b5e89978854d994e3b5f0d60e4e, type: 2}
  - m_RefCount: 1
    m_Data: {fileID: 11400000, guid: 37ec5efb26c17c04587d2299253f92e9, type: 2}
  - m_RefCount: 1
    m_Data: {fileID: 11400000, guid: d6bcf85e0ffb7c04ea70446edfc1fded, type: 2}
  - m_RefCount: 1
    m_Data: {fileID: 11400000, guid: a1a8f0a0f99c2874883d53c350cdb7f6, type: 2}
  - m_RefCount: 1
    m_Data: {fileID: 11400000, guid: 0270b64abfbf52942a102f841283adb4, type: 2}
  - m_RefCount: 1
    m_Data: {fileID: 11400000, guid: fa098f69ec705184c95c0e91cb341023, type: 2}
  - m_RefCount: 1
    m_Data: {fileID: 11400000, guid: baeb4ac7e99d5664e81e520810e811ac, type: 2}
  - m_RefCount: 1
    m_Data: {fileID: 11400000, guid: 4048e88061eb4c24c92ea85f2c273110, type: 2}
  - m_RefCount: 1
    m_Data: {fileID: 11400000, guid: 14307f47f0888864baf353477aa29851, type: 2}
  - m_RefCount: 1
    m_Data: {fileID: 11400000, guid: b10472b09cb958c478a99020113c4d42, type: 2}
  - m_RefCount: 1
    m_Data: {fileID: 11400000, guid: f3b62978e687c8f4bb56036bddc8c162, type: 2}
  - m_RefCount: 1
    m_Data: {fileID: 11400000, guid: b0d97ce0b4eaad74082731e4fe0e287b, type: 2}
  - m_RefCount: 1
    m_Data: {fileID: 11400000, guid: 88005a2296d58fd4bacab5f7acc535fd, type: 2}
  - m_RefCount: 1
    m_Data: {fileID: 11400000, guid: be561b64de7531f4f8a732aaf48e6c84, type: 2}
  - m_RefCount: 1
    m_Data: {fileID: 11400000, guid: 6df419b0ef11b4b43a9975d94492748f, type: 2}
  - m_RefCount: 1
    m_Data: {fileID: 11400000, guid: 818ef23db0f614a4c8011a2efa99abea, type: 2}
  - m_RefCount: 1
    m_Data: {fileID: 11400000, guid: 4c97010ce58e44e4e8d572fe9b56d52c, type: 2}
  - m_RefCount: 1
    m_Data: {fileID: 11400000, guid: 5f09efd4578168140af1185859678077, type: 2}
  - m_RefCount: 1
    m_Data: {fileID: 11400000, guid: fb43c3a5410b5934d84625c9adb2430a, type: 2}
  - m_RefCount: 1
    m_Data: {fileID: 11400000, guid: cc28629fdaee9c44f9d9aa8e4184ac95, type: 2}
  - m_RefCount: 1
    m_Data: {fileID: 11400000, guid: 6ee1bf5855143f64c8156dd90c782769, type: 2}
  - m_RefCount: 1
    m_Data: {fileID: 11400000, guid: 00cce70908042724ebbb958b0c07dc82, type: 2}
  - m_RefCount: 1
    m_Data: {fileID: 11400000, guid: 049ac3c6b299afe489293964305b339b, type: 2}
  - m_RefCount: 1
    m_Data: {fileID: 11400000, guid: 59ae565f398d15446a92ea40aad9d6b1, type: 2}
  - m_RefCount: 1
    m_Data: {fileID: 11400000, guid: f26d92ce3b73ca149996a4d9fec7c71c, type: 2}
  - m_RefCount: 1
    m_Data: {fileID: 11400000, guid: 00b530ebe2a56a044a9e2aeb44b557c0, type: 2}
  - m_RefCount: 1
    m_Data: {fileID: 11400000, guid: e076f2ea353f7f647809677f9403e644, type: 2}
  - m_RefCount: 1
    m_Data: {fileID: 11400000, guid: 72c1328f2db3fd74690b92d4ccd362ca, type: 2}
  - m_RefCount: 1
    m_Data: {fileID: 11400000, guid: e8b417d770c61ba47912c188e6b52c55, type: 2}
  - m_RefCount: 1
    m_Data: {fileID: 11400000, guid: a5b315de21ebb22448949aa4f76e0737, type: 2}
  - m_RefCount: 1
    m_Data: {fileID: 11400000, guid: 907a94f2f32c7dc47ba1564aafbe08d2, type: 2}
  - m_RefCount: 1
    m_Data: {fileID: 11400000, guid: fddeab59270b71e49b51ad7b476bca1e, type: 2}
  - m_RefCount: 1
    m_Data: {fileID: 11400000, guid: 0bc9a345f3e87b240ad1e43f04573ed2, type: 2}
  - m_RefCount: 1
    m_Data: {fileID: 11400000, guid: 0ced79cf001567349aa41a6fefb854ab, type: 2}
  - m_RefCount: 1
    m_Data: {fileID: 11400000, guid: ccbec26d79cddf548a3fb4cc864162d6, type: 2}
  - m_RefCount: 1
    m_Data: {fileID: 11400000, guid: ff6749e58227da84398a1aa7c039de80, type: 2}
  - m_RefCount: 1
    m_Data: {fileID: 11400000, guid: d482a2d8db9ba2a41b46e481a9049a2d, type: 2}
  - m_RefCount: 1
    m_Data: {fileID: 11400000, guid: 214401a584dbc3a468d2e3c5734ddfd6, type: 2}
  - m_RefCount: 1
    m_Data: {fileID: 11400000, guid: 5d114d7e5cdd840428d8b62692dc71de, type: 2}
  - m_RefCount: 1
    m_Data: {fileID: 11400000, guid: 69e2522b44bc93e4181dc02b43672830, type: 2}
  m_TileSpriteArray:
  - m_RefCount: 1
    m_Data: {fileID: 21300000, guid: f94b0ef4bba08044799f85aec059c3bb, type: 3}
  - m_RefCount: 1
    m_Data: {fileID: 21300000, guid: 6d75ae15805be3f458abde5410e60a36, type: 3}
  - m_RefCount: 1
    m_Data: {fileID: 21300000, guid: 755f1cd4c44fceb409ec68a38cedff30, type: 3}
  - m_RefCount: 1
    m_Data: {fileID: 21300000, guid: 3e1363871bccdd741ae4f2ef5226096c, type: 3}
  - m_RefCount: 1
    m_Data: {fileID: 21300000, guid: ebe28ece987db7646adf243e15c2ba7f, type: 3}
  - m_RefCount: 1
    m_Data: {fileID: 21300000, guid: cfd1cd19301004642ac44c46066f7cc5, type: 3}
  - m_RefCount: 1
    m_Data: {fileID: 21300000, guid: 2f3162a3e3c20a34e9c38ad660b20dfe, type: 3}
  - m_RefCount: 1
    m_Data: {fileID: 21300000, guid: 31ea9628f3db3354dbc2a6340dc4a219, type: 3}
  - m_RefCount: 1
    m_Data: {fileID: 21300000, guid: ac66961035ac35842a2efaae9993bd9b, type: 3}
  - m_RefCount: 1
    m_Data: {fileID: 21300000, guid: 9f56eafd28b6c6f41ab136420376f3da, type: 3}
  - m_RefCount: 1
    m_Data: {fileID: 21300000, guid: 09a72d0c0ae76cc43ace7bd9cfef9adc, type: 3}
  - m_RefCount: 1
    m_Data: {fileID: 21300000, guid: 95b0d304da6ad464dabef2949ead9b15, type: 3}
  - m_RefCount: 1
    m_Data: {fileID: 21300000, guid: 67cfa3c42deb175498960777a03193db, type: 3}
  - m_RefCount: 1
    m_Data: {fileID: 21300000, guid: 8a42cafd9400ee44fb748242facf3248, type: 3}
  - m_RefCount: 1
    m_Data: {fileID: 21300000, guid: 48c544a2294a77746963749c5e16bae4, type: 3}
  - m_RefCount: 1
    m_Data: {fileID: 21300000, guid: d5cffbc763fb3fc4a988b057958b176e, type: 3}
  - m_RefCount: 1
    m_Data: {fileID: 21300000, guid: 19d98bf7a3c16514e8c8b00b3f13edc8, type: 3}
  - m_RefCount: 1
    m_Data: {fileID: 21300000, guid: 3c2d1e4988cfb514182477f1de9989e4, type: 3}
  - m_RefCount: 1
    m_Data: {fileID: 21300000, guid: e1efed134bb319f4b8660a2a8ae22a1b, type: 3}
  - m_RefCount: 1
    m_Data: {fileID: 21300000, guid: 0ef3306bbe0aac44a9ab4341077fce04, type: 3}
  - m_RefCount: 1
    m_Data: {fileID: 21300000, guid: f0bd5dbfe3b03b548a3996c15616d7fc, type: 3}
  - m_RefCount: 1
    m_Data: {fileID: 21300000, guid: 6b5abf1dc260b624fbb8a9534b346b71, type: 3}
  - m_RefCount: 1
    m_Data: {fileID: 21300000, guid: 70a1fc266b583914db520fd74f3fda9b, type: 3}
  - m_RefCount: 1
    m_Data: {fileID: 21300000, guid: 93a8585d321cda54ea9fc0dd26d15f99, type: 3}
  - m_RefCount: 1
    m_Data: {fileID: 21300000, guid: c14a9b2ecb9e1b3418848b8172aad1a0, type: 3}
  - m_RefCount: 1
    m_Data: {fileID: 21300000, guid: 41e2d686a41e94f4d9d47bb16385f82c, type: 3}
  - m_RefCount: 1
    m_Data: {fileID: 21300000, guid: e3506b9b681b03f4e86d5956b27da475, type: 3}
  - m_RefCount: 1
    m_Data: {fileID: 21300000, guid: 97e0a0a80256b054d915a2bd67761825, type: 3}
  - m_RefCount: 1
    m_Data: {fileID: 21300000, guid: 0500a1b7df41941438d2ec80d47dd642, type: 3}
  - m_RefCount: 1
    m_Data: {fileID: 21300000, guid: a1a8d74f089ff2d4588716dfa2be133d, type: 3}
  - m_RefCount: 1
    m_Data: {fileID: 21300000, guid: 2dcbecd6aca5b174696bf9b9ee143946, type: 3}
  - m_RefCount: 1
    m_Data: {fileID: 21300000, guid: 9f612702c753f3e4596a286150acfca3, type: 3}
  - m_RefCount: 1
    m_Data: {fileID: 21300000, guid: 447a8a6465b1b5a43949d871242da9c2, type: 3}
  - m_RefCount: 1
    m_Data: {fileID: 21300000, guid: 27de684043dcc854385d9074a9ac1dab, type: 3}
  - m_RefCount: 1
    m_Data: {fileID: 21300000, guid: 447d9efa38acc9d4d90befa912ed4f6f, type: 3}
  - m_RefCount: 1
    m_Data: {fileID: 21300000, guid: be9df45fe05936a4f8d4cbf9b208ef81, type: 3}
  - m_RefCount: 1
    m_Data: {fileID: 21300000, guid: 4ae2a14719f61554a8eab55c342351b9, type: 3}
  - m_RefCount: 1
    m_Data: {fileID: 21300000, guid: c29631f5b3056314e93e1ddc6ae4743d, type: 3}
  - m_RefCount: 1
    m_Data: {fileID: 21300000, guid: 50e1f03477ac94b499c2fe1016c9f964, type: 3}
  - m_RefCount: 1
    m_Data: {fileID: 21300000, guid: 12139290bd2db0449b3672d5e12990cf, type: 3}
  - m_RefCount: 1
    m_Data: {fileID: 21300000, guid: 352c6b91a78a9e24698315758ce42902, type: 3}
  - m_RefCount: 1
    m_Data: {fileID: 21300000, guid: 861d268dd80546a4a899a6381e72adf8, type: 3}
  - m_RefCount: 1
    m_Data: {fileID: 21300000, guid: bf9bc82d1e14e62489d09113a2dfc1a7, type: 3}
  - m_RefCount: 1
    m_Data: {fileID: 21300000, guid: e91ad1206fd5a7a4d94641cf9f5eb97f, type: 3}
  - m_RefCount: 1
    m_Data: {fileID: 21300000, guid: 2aadf38f4483ac546acd8fafc4bf0180, type: 3}
  - m_RefCount: 1
    m_Data: {fileID: 21300000, guid: fc1b03479df3ddc46bf80f0163124503, type: 3}
  - m_RefCount: 1
    m_Data: {fileID: 21300000, guid: 0c4a423ff8bd36240a6baf579d5fe768, type: 3}
  - m_RefCount: 1
    m_Data: {fileID: 21300000, guid: 71fef2f07efc1c04c905adc6b36eed13, type: 3}
  - m_RefCount: 1
    m_Data: {fileID: 21300000, guid: ee3fac88c58f4ed49a651b7585651587, type: 3}
  - m_RefCount: 1
    m_Data: {fileID: 21300000, guid: 1c6527b434781f140a0dc4ab13f63d05, type: 3}
  - m_RefCount: 1
    m_Data: {fileID: 21300000, guid: 724a2ce4d07a18f4cbeb1478773d61cc, type: 3}
  - m_RefCount: 1
    m_Data: {fileID: 21300000, guid: 4ac3c59eccd13c44e923d7f2b9d51b48, type: 3}
  - m_RefCount: 1
    m_Data: {fileID: 21300000, guid: 219b62a78d7c9e649b73ed5d7dc2ec87, type: 3}
  m_TileMatrixArray:
  - m_RefCount: 53
    m_Data:
      e00: 1
      e01: 0
      e02: 0
      e03: 0
      e10: 0
      e11: 1
      e12: 0
      e13: 0
      e20: 0
      e21: 0
      e22: 1
      e23: 0
      e30: 0
      e31: 0
      e32: 0
      e33: 1
  m_TileColorArray:
  - m_RefCount: 53
    m_Data: {r: 1, g: 1, b: 1, a: 1}
  m_TileObjectToInstantiateArray: []
  m_AnimationFrameRate: 1
  m_Color: {r: 1, g: 1, b: 1, a: 1}
  m_Origin: {x: -3, y: -5, z: 0}
  m_Size: {x: 11, y: 6, z: 1}
  m_TileAnchor: {x: 0.5, y: 0.5, z: 0}
  m_TileOrientation: 0
  m_TileOrientationMatrix:
    e00: 1
    e01: 0
    e02: 0
    e03: 0
    e10: 0
    e11: 1
    e12: 0
    e13: 0
    e20: 0
    e21: 0
    e22: 1
    e23: 0
    e30: 0
    e31: 0
    e32: 0
    e33: 1
--- !u!483693784 &8574520076702806347
TilemapRenderer:
  m_ObjectHideFlags: 0
  m_CorrespondingSourceObject: {fileID: 0}
  m_PrefabInstance: {fileID: 0}
  m_PrefabAsset: {fileID: 0}
  m_GameObject: {fileID: 7572864899395805811}
  m_Enabled: 1
  m_CastShadows: 0
  m_ReceiveShadows: 0
  m_DynamicOccludee: 0
  m_StaticShadowCaster: 0
  m_MotionVectors: 1
  m_LightProbeUsage: 0
  m_ReflectionProbeUsage: 0
  m_RayTracingMode: 0
  m_RayTraceProcedural: 0
  m_RenderingLayerMask: 1
  m_RendererPriority: 0
  m_Materials:
  - {fileID: 10754, guid: 0000000000000000f000000000000000, type: 0}
  m_StaticBatchInfo:
    firstSubMesh: 0
    subMeshCount: 0
  m_StaticBatchRoot: {fileID: 0}
  m_ProbeAnchor: {fileID: 0}
  m_LightProbeVolumeOverride: {fileID: 0}
  m_ScaleInLightmap: 1
  m_ReceiveGI: 1
  m_PreserveUVs: 0
  m_IgnoreNormalsForChartDetection: 0
  m_ImportantGI: 0
  m_StitchLightmapSeams: 1
  m_SelectedEditorRenderState: 0
  m_MinimumChartSize: 4
  m_AutoUVMaxDistance: 0.5
  m_AutoUVMaxAngle: 89
  m_LightmapParameters: {fileID: 0}
  m_SortingLayerID: 0
  m_SortingLayer: 0
  m_SortingOrder: 0
  m_ChunkSize: {x: 32, y: 32, z: 32}
  m_ChunkCullingBounds: {x: 0.3, y: 0.3, z: 0}
  m_MaxChunkCount: 16
  m_MaxFrameAge: 16
  m_SortOrder: 0
  m_Mode: 0
  m_DetectChunkCullingBounds: 0
  m_MaskInteraction: 0
--- !u!1 &8632015737730059267
GameObject:
  m_ObjectHideFlags: 0
  m_CorrespondingSourceObject: {fileID: 0}
  m_PrefabInstance: {fileID: 0}
  m_PrefabAsset: {fileID: 0}
  serializedVersion: 6
  m_Component:
  - component: {fileID: 6002023712325558448}
  - component: {fileID: 387941531071144255}
  m_Layer: 0
  m_Name: Castle
  m_TagString: Untagged
  m_Icon: {fileID: 0}
  m_NavMeshLayer: 0
  m_StaticEditorFlags: 0
  m_IsActive: 1
--- !u!4 &6002023712325558448
Transform:
  m_ObjectHideFlags: 0
  m_CorrespondingSourceObject: {fileID: 0}
  m_PrefabInstance: {fileID: 0}
  m_PrefabAsset: {fileID: 0}
  m_GameObject: {fileID: 8632015737730059267}
  m_LocalRotation: {x: 0, y: 0, z: 0, w: 1}
  m_LocalPosition: {x: 0, y: 0, z: 0}
  m_LocalScale: {x: 1, y: 1, z: 1}
  m_ConstrainProportionsScale: 0
  m_Children:
  - {fileID: 4648403357996185359}
  m_Father: {fileID: 0}
  m_RootOrder: 0
  m_LocalEulerAnglesHint: {x: 0, y: 0, z: 0}
--- !u!156049354 &387941531071144255
Grid:
  m_ObjectHideFlags: 0
  m_CorrespondingSourceObject: {fileID: 0}
  m_PrefabInstance: {fileID: 0}
  m_PrefabAsset: {fileID: 0}
  m_GameObject: {fileID: 8632015737730059267}
  m_Enabled: 1
  m_CellSize: {x: 1.6, y: 1.6, z: 0}
  m_CellGap: {x: 0, y: 0, z: 0}
  m_CellLayout: 0
  m_CellSwizzle: 0
--- !u!114 &8313858035365675677
MonoBehaviour:
  m_ObjectHideFlags: 0
  m_CorrespondingSourceObject: {fileID: 0}
  m_PrefabInstance: {fileID: 0}
  m_PrefabAsset: {fileID: 0}
  m_GameObject: {fileID: 0}
  m_Enabled: 1
  m_EditorHideFlags: 0
  m_Script: {fileID: 12395, guid: 0000000000000000e000000000000000, type: 0}
  m_Name: Palette Settings
  m_EditorClassIdentifier: 
  cellSizing: 0
  m_TransparencySortMode: 0
  m_TransparencySortAxis: {x: 0, y: 0, z: 1}
