%YAML 1.1
%TAG !u! tag:unity3d.com,2011:
--- !u!221 &22100000
AnimatorOverrideController:
  m_ObjectHideFlags: 0
  m_CorrespondingSourceObject: {fileID: 0}
  m_PrefabInstance: {fileID: 0}
  m_PrefabAsset: {fileID: 0}
  m_Name: '[NENEMY] BOAR'
  m_Controller: {fileID: 9100000, guid: 0d168db32fdff83459c861eff1781fab, type: 2}
  m_Clips:
  - m_OriginalClip: {fileID: 7400000, guid: ad7c1e000a9284345968a0e7d1ce2d11, type: 2}
    m_OverrideClip: {fileID: 7400000, guid: 5b08a844959e01d4a870b1c406d76a3c, type: 2}
  - m_OriginalClip: {fileID: 7400000, guid: 877c43af2dbc114489b68727a6ffdcf5, type: 2}
    m_OverrideClip: {fileID: 7400000, guid: dbb682d354e1ccc42a05d044c50cef25, type: 2}
  - m_OriginalClip: {fileID: 7400000, guid: c3e307621cf28d24bb33f633c57ec055, type: 2}
    m_OverrideClip: {fileID: 7400000, guid: f683342b6e612834b91686ec439ff667, type: 2}
  - m_OriginalClip: {fileID: 7400000, guid: 74cf29ec853f5a24eaf69173de1419a7, type: 2}
    m_OverrideClip: {fileID: 7400000, guid: 4c659ed00490afa4ab86134271908e76, type: 2}
