%YAML 1.1
%TAG !u! tag:unity3d.com,2011:
--- !u!74 &7400000
AnimationClip:
  m_ObjectHideFlags: 0
  m_CorrespondingSourceObject: {fileID: 0}
  m_PrefabInstance: {fileID: 0}
  m_PrefabAsset: {fileID: 0}
  m_Name: Gargoyle Flying
  serializedVersion: 6
  m_Legacy: 0
  m_Compressed: 0
  m_UseHighQualityCurve: 1
  m_RotationCurves: []
  m_CompressedRotationCurves: []
  m_EulerCurves: []
  m_PositionCurves: []
  m_ScaleCurves: []
  m_FloatCurves: []
  m_PPtrCurves:
  - curve:
    - time: 0
      value: {fileID: -411595494, guid: 8884f0593ddcff6459b447ad50c66e22, type: 3}
    - time: 0.083333336
      value: {fileID: -1370395699, guid: 8884f0593ddcff6459b447ad50c66e22, type: 3}
    - time: 0.16666667
      value: {fileID: 1044145243, guid: 8884f0593ddcff6459b447ad50c66e22, type: 3}
    - time: 0.25
      value: {fileID: 1720094211, guid: 8884f0593ddcff6459b447ad50c66e22, type: 3}
    - time: 0.33333334
      value: {fileID: -249959358, guid: 8884f0593ddcff6459b447ad50c66e22, type: 3}
    - time: 0.41666666
      value: {fileID: -318893410, guid: 8884f0593ddcff6459b447ad50c66e22, type: 3}
    - time: 0.5
      value: {fileID: -986860816, guid: 8884f0593ddcff6459b447ad50c66e22, type: 3}
    - time: 0.5833333
      value: {fileID: -1030852260, guid: 8884f0593ddcff6459b447ad50c66e22, type: 3}
    - time: 0.6666667
      value: {fileID: 989512452, guid: 8884f0593ddcff6459b447ad50c66e22, type: 3}
    - time: 0.75
      value: {fileID: 1073304050, guid: 8884f0593ddcff6459b447ad50c66e22, type: 3}
    attribute: m_Sprite
    path: Image
    classID: 212
    script: {fileID: 0}
  m_SampleRate: 12
  m_WrapMode: 0
  m_Bounds:
    m_Center: {x: 0, y: 0, z: 0}
    m_Extent: {x: 0, y: 0, z: 0}
  m_ClipBindingConstant:
    genericBindings:
    - serializedVersion: 2
      path: 83635035
      attribute: 0
      script: {fileID: 0}
      typeID: 212
      customType: 23
      isPPtrCurve: 1
    pptrCurveMapping:
    - {fileID: -411595494, guid: 8884f0593ddcff6459b447ad50c66e22, type: 3}
    - {fileID: -1370395699, guid: 8884f0593ddcff6459b447ad50c66e22, type: 3}
    - {fileID: 1044145243, guid: 8884f0593ddcff6459b447ad50c66e22, type: 3}
    - {fileID: 1720094211, guid: 8884f0593ddcff6459b447ad50c66e22, type: 3}
    - {fileID: -249959358, guid: 8884f0593ddcff6459b447ad50c66e22, type: 3}
    - {fileID: -318893410, guid: 8884f0593ddcff6459b447ad50c66e22, type: 3}
    - {fileID: -986860816, guid: 8884f0593ddcff6459b447ad50c66e22, type: 3}
    - {fileID: -1030852260, guid: 8884f0593ddcff6459b447ad50c66e22, type: 3}
    - {fileID: 989512452, guid: 8884f0593ddcff6459b447ad50c66e22, type: 3}
    - {fileID: 1073304050, guid: 8884f0593ddcff6459b447ad50c66e22, type: 3}
  m_AnimationClipSettings:
    serializedVersion: 2
    m_AdditiveReferencePoseClip: {fileID: 0}
    m_AdditiveReferencePoseTime: 0
    m_StartTime: 0
    m_StopTime: 0.8333333
    m_OrientationOffsetY: 0
    m_Level: 0
    m_CycleOffset: 0
    m_HasAdditiveReferencePose: 0
    m_LoopTime: 1
    m_LoopBlend: 0
    m_LoopBlendOrientation: 0
    m_LoopBlendPositionY: 0
    m_LoopBlendPositionXZ: 0
    m_KeepOriginalOrientation: 0
    m_KeepOriginalPositionY: 1
    m_KeepOriginalPositionXZ: 0
    m_HeightFromFeet: 0
    m_Mirror: 0
  m_EditorCurves: []
  m_EulerEditorCurves: []
  m_HasGenericRootTransform: 0
  m_HasMotionFloatCurves: 0
  m_Events: []
