%YAML 1.1
%TAG !u! tag:unity3d.com,2011:
--- !u!74 &7400000
AnimationClip:
  m_ObjectHideFlags: 0
  m_CorrespondingSourceObject: {fileID: 0}
  m_PrefabInstance: {fileID: 0}
  m_PrefabAsset: {fileID: 0}
  m_Name: Goblin_Idle
  serializedVersion: 6
  m_Legacy: 0
  m_Compressed: 0
  m_UseHighQualityCurve: 1
  m_RotationCurves: []
  m_CompressedRotationCurves: []
  m_EulerCurves: []
  m_PositionCurves: []
  m_ScaleCurves: []
  m_FloatCurves: []
  m_PPtrCurves:
  - curve:
    - time: 0
      value: {fileID: -258721810, guid: 1364c1d0c33f5e94cb91a8e5ed73754d, type: 3}
    - time: 0.05
      value: {fileID: 18234022, guid: 1364c1d0c33f5e94cb91a8e5ed73754d, type: 3}
    - time: 0.1
      value: {fileID: -1888603184, guid: 1364c1d0c33f5e94cb91a8e5ed73754d, type: 3}
    - time: 0.15
      value: {fileID: 1399430977, guid: 1364c1d0c33f5e94cb91a8e5ed73754d, type: 3}
    - time: 0.2
      value: {fileID: 751642384, guid: 1364c1d0c33f5e94cb91a8e5ed73754d, type: 3}
    - time: 0.25
      value: {fileID: -1691330452, guid: 1364c1d0c33f5e94cb91a8e5ed73754d, type: 3}
    - time: 0.3
      value: {fileID: -642245648, guid: 1364c1d0c33f5e94cb91a8e5ed73754d, type: 3}
    - time: 0.35
      value: {fileID: -859753231, guid: 1364c1d0c33f5e94cb91a8e5ed73754d, type: 3}
    - time: 0.4
      value: {fileID: -951051135, guid: 1364c1d0c33f5e94cb91a8e5ed73754d, type: 3}
    - time: 0.45
      value: {fileID: -836672803, guid: 1364c1d0c33f5e94cb91a8e5ed73754d, type: 3}
    attribute: m_Sprite
    path: image
    classID: 212
    script: {fileID: 0}
  m_SampleRate: 20
  m_WrapMode: 0
  m_Bounds:
    m_Center: {x: 0, y: 0, z: 0}
    m_Extent: {x: 0, y: 0, z: 0}
  m_ClipBindingConstant:
    genericBindings:
    - serializedVersion: 2
      path: 3309110367
      attribute: 0
      script: {fileID: 0}
      typeID: 212
      customType: 23
      isPPtrCurve: 1
    pptrCurveMapping:
    - {fileID: -258721810, guid: 1364c1d0c33f5e94cb91a8e5ed73754d, type: 3}
    - {fileID: 18234022, guid: 1364c1d0c33f5e94cb91a8e5ed73754d, type: 3}
    - {fileID: -1888603184, guid: 1364c1d0c33f5e94cb91a8e5ed73754d, type: 3}
    - {fileID: 1399430977, guid: 1364c1d0c33f5e94cb91a8e5ed73754d, type: 3}
    - {fileID: 751642384, guid: 1364c1d0c33f5e94cb91a8e5ed73754d, type: 3}
    - {fileID: -1691330452, guid: 1364c1d0c33f5e94cb91a8e5ed73754d, type: 3}
    - {fileID: -642245648, guid: 1364c1d0c33f5e94cb91a8e5ed73754d, type: 3}
    - {fileID: -859753231, guid: 1364c1d0c33f5e94cb91a8e5ed73754d, type: 3}
    - {fileID: -951051135, guid: 1364c1d0c33f5e94cb91a8e5ed73754d, type: 3}
    - {fileID: -836672803, guid: 1364c1d0c33f5e94cb91a8e5ed73754d, type: 3}
  m_AnimationClipSettings:
    serializedVersion: 2
    m_AdditiveReferencePoseClip: {fileID: 0}
    m_AdditiveReferencePoseTime: 0
    m_StartTime: 0
    m_StopTime: 0.5
    m_OrientationOffsetY: 0
    m_Level: 0
    m_CycleOffset: 0
    m_HasAdditiveReferencePose: 0
    m_LoopTime: 1
    m_LoopBlend: 0
    m_LoopBlendOrientation: 0
    m_LoopBlendPositionY: 0
    m_LoopBlendPositionXZ: 0
    m_KeepOriginalOrientation: 0
    m_KeepOriginalPositionY: 1
    m_KeepOriginalPositionXZ: 0
    m_HeightFromFeet: 0
    m_Mirror: 0
  m_EditorCurves: []
  m_EulerEditorCurves: []
  m_HasGenericRootTransform: 0
  m_HasMotionFloatCurves: 0
  m_Events: []
