%YAML 1.1
%TAG !u! tag:unity3d.com,2011:
--- !u!221 &22100000
AnimatorOverrideController:
  m_ObjectHideFlags: 0
  m_CorrespondingSourceObject: {fileID: 0}
  m_PrefabInstance: {fileID: 0}
  m_PrefabAsset: {fileID: 0}
  m_Name: '[BOSS] BOSS 1'
  m_Controller: {fileID: 9100000, guid: 049357a1ee8e74a289cc18bed49ba463, type: 2}
  m_Clips:
  - m_OriginalClip: {fileID: 7400000, guid: fcbebf30e10a545a4b6624b3eb6fb7ae, type: 2}
    m_OverrideClip: {fileID: 7400000, guid: 7cbe0d62dbadfdb41b5bded04ee45b2e, type: 2}
  - m_OriginalClip: {fileID: 7400000, guid: ae276b762de9a4986a080d9d7d011c5c, type: 2}
    m_OverrideClip: {fileID: 7400000, guid: ca31967498af94045b495c13e41f1747, type: 2}
  - m_OriginalClip: {fileID: 7400000, guid: 103a328cea93645288a2d23f4c1213dd, type: 2}
    m_OverrideClip: {fileID: 7400000, guid: e5090d5cd5891224aad52d8ab77ddbd0, type: 2}
  - m_OriginalClip: {fileID: 7400000, guid: 59dac633fdcae45a18f8f25eadc158b3, type: 2}
    m_OverrideClip: {fileID: 7400000, guid: 74473842cb40fbb45ba1c745204096b0, type: 2}
  - m_OriginalClip: {fileID: 7400000, guid: f0e3527cc7aa64f44b6afac9d3ec1fc7, type: 2}
    m_OverrideClip: {fileID: 7400000, guid: 9eeb5da9e726a4b4798446d164af69a8, type: 2}
  - m_OriginalClip: {fileID: 7400000, guid: 046eb4afe6bb5144f9ec1dffc9b95e16, type: 2}
    m_OverrideClip: {fileID: 7400000, guid: f36e1799401742945a1cffeac2dabf03, type: 2}
  - m_OriginalClip: {fileID: 7400000, guid: 53cb7f4eaa1d436469ddd583b330fe99, type: 2}
    m_OverrideClip: {fileID: 7400000, guid: dad4738085c34f74dbd48c435f6a3bbf, type: 2}
  - m_OriginalClip: {fileID: 7400000, guid: e6e0858da38a9d34ca858f3eaff6df41, type: 2}
    m_OverrideClip: {fileID: 7400000, guid: 80a766fb458217f499488b66182bad83, type: 2}
  - m_OriginalClip: {fileID: 7400000, guid: e89ffaae10bd1ca438988d2c98f68cf5, type: 2}
    m_OverrideClip: {fileID: 7400000, guid: cc17368893509924a8771adea52eaee6, type: 2}
  - m_OriginalClip: {fileID: 7400000, guid: 03b93c75117d13542b99763e1eb3a05b, type: 2}
    m_OverrideClip: {fileID: 7400000, guid: 49a5b54ee2c00fd46a8ef1ca3c99cd6b, type: 2}
  - m_OriginalClip: {fileID: 7400000, guid: f12c1a5223ae19a4d9d5ea7c11dcdef5, type: 2}
    m_OverrideClip: {fileID: 7400000, guid: 572356e28295e444ab9b8e395496dcae, type: 2}
  - m_OriginalClip: {fileID: 7400000, guid: eaeb65302a4271246a198923c60a70ea, type: 2}
    m_OverrideClip: {fileID: 7400000, guid: 97363330ac72f2d41bc328d9ad7e1643, type: 2}
  - m_OriginalClip: {fileID: 7400000, guid: e3292b2d59467024a950a040a19941c1, type: 2}
    m_OverrideClip: {fileID: 7400000, guid: 9e5e65b06f310914bb4d7b147550fb38, type: 2}
